{
    "grund": [
        {
            "min_number": 1,
            "index": 3695,
            "value": {
                "x": 2.8199999999999994,
                "y": 0.08399999999999988
            },
            "fit_value": {
                "x": 2.8774894586236495,
                "y": 0.08510765913997163
            },
            "fit_params": {
                "A": 0.15920527005861995,
                "x_0": 2.8774894586236495,
                "c": 0.08510765913997163
            }
        },
        {
            "min_number": 2,
            "index": 6574,
            "value": {
                "x": 4.918799999999996,
                "y": 0.12774000000000008
            },
            "fit_value": {
                "x": 4.893767033620186,
                "y": 0.12790153781788122
            },
            "fit_params": {
                "A": 0.13895715812958365,
                "x_0": 4.893767033620186,
                "c": 0.12790153781788122
            }
        },
        {
            "min_number": 3,
            "index": 9562,
            "value": {
                "x": 6.7919999999999945,
                "y": 0.24483999999999986
            },
            "fit_value": {
                "x": 6.792334025683121,
                "y": 0.24517576510311148
            },
            "fit_params": {
                "A": 0.0779399858238963,
                "x_0": 6.792334025683121,
                "c": 0.24517576510311148
            }
        }
    ],
    "G4V": [
        {
            "min_number": 1,
            "index": 3627,
            "value": {
                "x": 2.7776000000000063,
                "y": 0.10267999999999987
            },
            "fit_value": {
                "x": 2.7831348691634323,
                "y": 0.10298242451266365
            },
            "fit_params": {
                "A": 0.1854568556424827,
                "x_0": 2.7831348691634323,
                "c": 0.10298242451266365
            }
        },
        {
            "min_number": 2,
            "index": 6400,
            "value": {
                "x": 4.841599999999994,
                "y": 0.18948000000000007
            },
            "fit_value": {
                "x": 4.755843453994521,
                "y": 0.1887112084535516
            },
            "fit_params": {
                "A": 0.15000710132329362,
                "x_0": 4.755843453994521,
                "c": 0.1887112084535516
            }
        },
        {
            "min_number": 3,
            "index": 9400,
            "value": {
                "x": 6.729600000000005,
                "y": 0.3802400000000001
            },
            "fit_value": {
                "x": 6.467374820365253,
                "y": 0.3731043787137807
            },
            "fit_params": {
                "A": 0.10028518039211638,
                "x_0": 6.467374820365253,
                "c": 0.3731043787137807
            }
        }
    ],
    "G8V": [
        {
            "min_number": 1,
            "index": 3999,
            "value": {
                "x": 3.0508,
                "y": 0.05400000000000001
            },
            "fit_value": {
                "x": 3.0722009042351384,
                "y": 0.05429377002807462
            },
            "fit_params": {
                "A": 0.2262937224292105,
                "x_0": 3.0722009042351384,
                "c": 0.05429377002807462
            }
        },
        {
            "min_number": 2,
            "index": 6862,
            "value": {
                "x": 5.1320000000000086,
                "y": 0.05091999999999994
            },
            "fit_value": {
                "x": 5.12670247048959,
                "y": 0.05104479144816728
            },
            "fit_params": {
                "A": 0.18961490091760302,
                "x_0": 5.12670247048959,
                "c": 0.05104479144816728
            }
        },
        {
            "min_number": 3,
            "index": 10841,
            "value": {
                "x": 7.399199999999991,
                "y": 0.06230000000000005
            },
            "fit_value": {
                "x": 7.40276388482348,
                "y": 0.06295708105391684
            },
            "fit_params": {
                "A": 0.07630811169593137,
                "x_0": 7.40276388482348,
                "c": 0.06295708105391684
            }
        }
    ],
    "H7": [
        {
            "min_number": 1,
            "index": 3800,
            "value": {
                "x": 2.782000000000004,
                "y": 0.1305600000000001
            },
            "fit_value": {
                "x": 2.8899334365883633,
                "y": 0.12919574609986645
            },
            "fit_params": {
                "A": 0.282965732010112,
                "x_0": 2.8899334365883633,
                "c": 0.12919574609986645
            }
        },
        {
            "min_number": 2,
            "index": 6466,
            "value": {
                "x": 5.031200000000005,
                "y": 0.3146400000000001
            },
            "fit_value": {
                "x": 4.821893606731133,
                "y": 0.2966286291232779
            },
            "fit_params": {
                "A": 0.40413294727578536,
                "x_0": 4.821893606731133,
                "c": 0.2966286291232779
            }
        },
        {
            "min_number": 3,
            "index": 9600,
            "value": {
                "x": 6.8268,
                "y": 0.7768800000000007
            },
            "fit_value": {
                "x": 6.7784905716283435,
                "y": 0.7774892994160256
            },
            "fit_params": {
                "A": 0.39968004127958495,
                "x_0": 6.7784905716283435,
                "c": 0.7774892994160256
            }
        }
    ],
    "H4": [
        {
            "min_number": 1,
            "index": 3800,
            "value": {
                "x": 2.7572,
                "y": 0.07268000000000001
            },
            "fit_value": {
                "x": 2.9157735183039057,
                "y": 0.07105084523334208
            },
            "fit_params": {
                "A": 0.0968365985013553,
                "x_0": 2.9157735183039057,
                "c": 0.07105084523334208
            }
        },
        {
            "min_number": 2,
            "index": 6650,
            "value": {
                "x": 5.024400000000008,
                "y": 0.08630000000000007
            },
            "fit_value": {
                "x": 4.980257016393879,
                "y": 0.08627296417745657
            },
            "fit_params": {
                "A": 0.0955415560074478,
                "x_0": 4.980257016393879,
                "c": 0.08627296417745657
            }
        },
        {
            "min_number": 3,
            "index": 9600,
            "value": {
                "x": 6.8016000000000085,
                "y": 0.12663999999999995
            },
            "fit_value": {
                "x": 6.800960227966078,
                "y": 0.1265542128947503
            },
            "fit_params": {
                "A": 0.0782391682306747,
                "x_0": 6.800960227966078,
                "c": 0.1265542128947503
            }
        }
    ],
    "H2": [
        {
            "min_number": 1,
            "index": 4043,
            "value": {
                "x": 3.0000000000000018,
                "y": 0.04916799999999997
            },
            "fit_value": {
                "x": 2.999717075831311,
                "y": 0.04935790197683198
            },
            "fit_params": {
                "A": 0.01729442951839692,
                "x_0": 2.999717075831311,
                "c": 0.04935790197683198
            }
        },
        {
            "min_number": 2,
            "index": 6782,
            "value": {
                "x": 4.997200000000004,
                "y": 0.05083999999999996
            },
            "fit_value": {
                "x": 5.015167329745558,
                "y": 0.051365272633396214
            },
            "fit_params": {
                "A": 0.01805927088350216,
                "x_0": 5.015167329745558,
                "c": 0.051365272633396214
            }
        },
        {
            "min_number": 3,
            "index": 11060,
            "value": {
                "x": 7.4328000000000145,
                "y": 0.04344800000000002
            },
            "fit_value": {
                "x": 7.562964586479547,
                "y": 0.04366884041476034
            },
            "fit_params": {
                "A": 0.026598958292699246,
                "x_0": 7.562964586479547,
                "c": 0.04366884041476034
            }
        }
    ]
}