{
    "grund": [
        {
            "min_number": 1,
            "index": 3695,
            "value": {
                "x": 2.8199999999999994,
                "y": 0.08399999999999988
            },
            "fit_value": {
                "x": 2.8774894586236495,
                "y": 0.08510765913997163
            },
            "fit_value_err": {
                "x": 0.0016801712971416193,
                "y": 0.00011335894675609887
            },
            "fit_params": {
                "A": 0.15920527005861995,
                "x_0": 2.8774894586236495,
                "c": 0.08510765913997163
            },
            "fit_params_err": {
                "A": 0.002571732803631071,
                "x_0": 0.0016801712971416193,
                "c": 0.00011335894675609887
            },
            "delta": 0,
            "delta_err": 0,
            "E_a": 21.118463855501155,
            "E_a_err": 21.118463855501155,
            "lambda/L": -4.0811238637586015e-21
        },
        {
            "min_number": 2,
            "index": 6574,
            "value": {
                "x": 4.918799999999996,
                "y": 0.12774000000000008
            },
            "fit_value": {
                "x": 4.893767033620186,
                "y": 0.12790153781788122
            },
            "fit_value_err": {
                "x": 0.001684045546167002,
                "y": 0.00011483695987587381
            },
            "fit_params": {
                "A": 0.13895715812958365,
                "x_0": 4.893767033620186,
                "c": 0.12790153781788122
            },
            "fit_params_err": {
                "A": 0.002898163432543734,
                "x_0": 0.001684045546167002,
                "c": 0.00011483695987587381
            },
            "delta": 2.0162775749965367,
            "delta_err": 0.002378862120700455
        },
        {
            "min_number": 3,
            "index": 9562,
            "value": {
                "x": 6.7919999999999945,
                "y": 0.24483999999999986
            },
            "fit_value": {
                "x": 6.792334025683121,
                "y": 0.24517576510311148
            },
            "fit_value_err": {
                "x": 0.004733227805357957,
                "y": 0.0001312039814435124
            },
            "fit_params": {
                "A": 0.0779399858238963,
                "x_0": 6.792334025683121,
                "c": 0.24517576510311148
            },
            "fit_params_err": {
                "A": 0.006809711024947364,
                "x_0": 0.004733227805357957,
                "c": 0.0001312039814435124
            },
            "delta": 1.8985669920629347,
            "delta_err": 0.005023888420235726
        }
    ],
    "G4V": [
        {
            "min_number": 1,
            "index": 3627,
            "value": {
                "x": 2.7776000000000063,
                "y": 0.10267999999999987
            },
            "fit_value": {
                "x": 2.7831348691634323,
                "y": 0.10298242451266365
            },
            "fit_value_err": {
                "x": 0.0012687709200060095,
                "y": 0.00012402768772006104
            },
            "fit_params": {
                "A": 0.1854568556424827,
                "x_0": 2.7831348691634323,
                "c": 0.10298242451266365
            },
            "fit_params_err": {
                "A": 0.0028377166244598516,
                "x_0": 0.0012687709200060095,
                "c": 0.00012402768772006104
            },
            "delta": 0,
            "delta_err": 0,
            "E_a": 23.92244053633164,
            "E_a_err": 23.92244053633164,
            "lambda/L": -7.909006807460154e-21
        },
        {
            "min_number": 2,
            "index": 6400,
            "value": {
                "x": 4.789600000000001,
                "y": 0.18888
            },
            "fit_value": {
                "x": 4.754457323964549,
                "y": 0.18882102673267934
            },
            "fit_value_err": {
                "x": 0.0017962910725499793,
                "y": 0.00011922602269801327
            },
            "fit_params": {
                "A": 0.1433308596489659,
                "x_0": 4.754457323964549,
                "c": 0.18882102673267934
            },
            "fit_params_err": {
                "A": 0.0029031781784428544,
                "x_0": 0.0017962910725499793,
                "c": 0.00011922602269801327
            },
            "delta": 1.9713224548011166,
            "delta_err": 0.00219919104781182
        },
        {
            "min_number": 3,
            "index": 9400,
            "value": {
                "x": 6.729600000000005,
                "y": 0.3802400000000001
            },
            "fit_value": {
                "x": 6.467374820365253,
                "y": 0.3731043787137807
            },
            "fit_value_err": {
                "x": 0.014231490485152633,
                "y": 0.000315610374729825
            },
            "fit_params": {
                "A": 0.10028518039211638,
                "x_0": 6.467374820365253,
                "c": 0.3731043787137807
            },
            "fit_params_err": {
                "A": 0.005561084746434655,
                "x_0": 0.014231490485152633,
                "c": 0.000315610374729825
            },
            "delta": 1.7129174964007037,
            "delta_err": 0.014344405984435628
        }
    ],
    "G8V": [
        {
            "min_number": 1,
            "index": 3999,
            "value": {
                "x": 3.0508,
                "y": 0.05400000000000001
            },
            "fit_value": {
                "x": 3.0722009042351384,
                "y": 0.05429377002807462
            },
            "fit_value_err": {
                "x": 0.0009760433026337631,
                "y": 0.00010840619812992291
            },
            "fit_params": {
                "A": 0.2262937224292105,
                "x_0": 3.0722009042351384,
                "c": 0.05429377002807462
            },
            "fit_params_err": {
                "A": 0.002794465157902711,
                "x_0": 0.0009760433026337631,
                "c": 0.00010840619812992291
            },
            "delta": 0,
            "delta_err": 0,
            "E_a": 13.715501786950547,
            "E_a_err": 13.715501786950547,
            "lambda/L": 1.1827853803398325e-20
        },
        {
            "min_number": 2,
            "index": 6862,
            "value": {
                "x": 5.1320000000000086,
                "y": 0.05091999999999994
            },
            "fit_value": {
                "x": 5.12670247048959,
                "y": 0.05104479144816728
            },
            "fit_value_err": {
                "x": 0.0009625528288492592,
                "y": 9.389093652787939e-05
            },
            "fit_params": {
                "A": 0.18961490091760302,
                "x_0": 5.12670247048959,
                "c": 0.05104479144816728
            },
            "fit_params_err": {
                "A": 0.002341662026281091,
                "x_0": 0.0009625528288492592,
                "c": 9.389093652787939e-05
            },
            "delta": 2.054501566254452,
            "delta_err": 0.0013708276612842093
        },
        {
            "min_number": 3,
            "index": 10841,
            "value": {
                "x": 7.399199999999991,
                "y": 0.06230000000000005
            },
            "fit_value": {
                "x": 7.40276388482348,
                "y": 0.06295708105391684
            },
            "fit_value_err": {
                "x": 0.004711339910951213,
                "y": 8.520859901437252e-05
            },
            "fit_params": {
                "A": 0.07630811169593137,
                "x_0": 7.40276388482348,
                "c": 0.06295708105391684
            },
            "fit_params_err": {
                "A": 0.008348117566392699,
                "x_0": 0.004711339910951213,
                "c": 8.520859901437252e-05
            },
            "delta": 2.2760614143338893,
            "delta_err": 0.004808662153327836
        }
    ],
    "H7": [
        {
            "min_number": 1,
            "index": 3800,
            "value": {
                "x": 2.9203999999999954,
                "y": 0.12832000000000007
            },
            "fit_value": {
                "x": 2.8922458688290575,
                "y": 0.12853995203370527
            },
            "fit_value_err": {
                "x": 0.0012690356065016993,
                "y": 0.00019798252551293506
            },
            "fit_params": {
                "A": 0.3036887103094394,
                "x_0": 2.8922458688290575,
                "c": 0.12853995203370527
            },
            "fit_params_err": {
                "A": 0.004558102093469793,
                "x_0": 0.0012690356065016993,
                "c": 0.00019798252551293506
            },
            "delta": 0,
            "delta_err": 0,
            "E_a": 15.670290418178793,
            "E_a_err": 15.670290418178793,
            "lambda/L": 3.561203307638929e-21
        },
        {
            "min_number": 2,
            "index": 6466,
            "value": {
                "x": 4.8527999999999984,
                "y": 0.29727999999999954
            },
            "fit_value": {
                "x": 4.797260126253246,
                "y": 0.2973646177882808
            },
            "fit_value_err": {
                "x": 0.0013646208525271185,
                "y": 0.00018983867469507488
            },
            "fit_params": {
                "A": 0.31171062487129647,
                "x_0": 4.797260126253246,
                "c": 0.2973646177882808
            },
            "fit_params_err": {
                "A": 0.004493326485205546,
                "x_0": 0.0013646208525271185,
                "c": 0.00018983867469507488
            },
            "delta": 1.9050142574241882,
            "delta_err": 0.0018635024662503065
        },
        {
            "min_number": 3,
            "index": 9600,
            "value": {
                "x": 6.8268,
                "y": 0.7768800000000007
            },
            "fit_value": {
                "x": 6.7784905716283435,
                "y": 0.7774892994160256
            },
            "fit_value_err": {
                "x": 0.0016991332863366512,
                "y": 0.00019046670171847036
            },
            "fit_params": {
                "A": 0.39968004127958495,
                "x_0": 6.7784905716283435,
                "c": 0.7774892994160256
            },
            "fit_params_err": {
                "A": 0.009947888701465117,
                "x_0": 0.0016991332863366512,
                "c": 0.00019046670171847036
            },
            "delta": 1.9812304453750977,
            "delta_err": 0.002179276025630766
        }
    ],
    "H4": [
        {
            "min_number": 1,
            "index": 3800,
            "value": {
                "x": 2.895599999999995,
                "y": 0.07044000000000003
            },
            "fit_value": {
                "x": 2.917676292610973,
                "y": 0.07057875124179787
            },
            "fit_value_err": {
                "x": 0.0017832903647958147,
                "y": 0.00010583216155462593
            },
            "fit_params": {
                "A": 0.11115865719486151,
                "x_0": 2.917676292610973,
                "c": 0.07057875124179787
            },
            "fit_params_err": {
                "A": 0.002309478197986651,
                "x_0": 0.0017832903647958147,
                "c": 0.00010583216155462593
            },
            "delta": 0,
            "delta_err": 0,
            "E_a": 24.404170699146764,
            "E_a_err": 24.404170699146764,
            "lambda/L": -7.284678307086613e-21
        },
        {
            "min_number": 2,
            "index": 6650,
            "value": {
                "x": 4.987600000000001,
                "y": 0.08632000000000006
            },
            "fit_value": {
                "x": 4.98071802532452,
                "y": 0.08646654174809942
            },
            "fit_value_err": {
                "x": 0.002299978773690876,
                "y": 9.91356135208461e-05
            },
            "fit_params": {
                "A": 0.08438324505710114,
                "x_0": 4.98071802532452,
                "c": 0.08646654174809942
            },
            "fit_params_err": {
                "A": 0.002496071152922215,
                "x_0": 0.002299978773690876,
                "c": 9.91356135208461e-05
            },
            "delta": 2.063041732713547,
            "delta_err": 0.0029103310609966994
        },
        {
            "min_number": 3,
            "index": 9600,
            "value": {
                "x": 6.8016000000000085,
                "y": 0.12663999999999995
            },
            "fit_value": {
                "x": 6.800960227966078,
                "y": 0.1265542128947503
            },
            "fit_value_err": {
                "x": 0.00311679096217346,
                "y": 9.658029811479176e-05
            },
            "fit_params": {
                "A": 0.0782391682306747,
                "x_0": 6.800960227966078,
                "c": 0.1265542128947503
            },
            "fit_params_err": {
                "A": 0.00426613111390149,
                "x_0": 0.00311679096217346,
                "c": 9.658029811479176e-05
            },
            "delta": 1.8202422026415581,
            "delta_err": 0.0038735369188010525
        }
    ],
    "H2": [
        {
            "min_number": 1,
            "index": 4043,
            "value": {
                "x": 3.0000000000000018,
                "y": 0.04916799999999997
            },
            "fit_value": {
                "x": 2.999717075831311,
                "y": 0.04935790197683198
            },
            "fit_value_err": {
                "x": 0.007660828740822397,
                "y": 6.76760237533488e-05
            },
            "fit_params": {
                "A": 0.01729442951839692,
                "x_0": 2.999717075831311,
                "c": 0.04935790197683198
            },
            "fit_params_err": {
                "A": 0.0017085697516598887,
                "x_0": 0.007660828740822397,
                "c": 6.76760237533488e-05
            },
            "delta": 0,
            "delta_err": 0,
            "E_a": 6.25708630634511,
            "E_a_err": 6.25708630634511,
            "lambda/L": 6.22944359886908e-20
        },
        {
            "min_number": 2,
            "index": 6782,
            "value": {
                "x": 4.997200000000004,
                "y": 0.05083999999999996
            },
            "fit_value": {
                "x": 5.015167329745558,
                "y": 0.051365272633396214
            },
            "fit_value_err": {
                "x": 0.0079244078300086,
                "y": 7.01002997350627e-05
            },
            "fit_params": {
                "A": 0.01805927088350216,
                "x_0": 5.015167329745558,
                "c": 0.051365272633396214
            },
            "fit_params_err": {
                "A": 0.0017157204211581758,
                "x_0": 0.0079244078300086,
                "c": 7.01002997350627e-05
            },
            "delta": 2.015450253914247,
            "delta_err": 0.011022002379445945
        },
        {
            "min_number": 3,
            "index": 11060,
            "value": {
                "x": 7.4328000000000145,
                "y": 0.04344800000000002
            },
            "fit_value": {
                "x": 7.562964586479547,
                "y": 0.04366884041476034
            },
            "fit_value_err": {
                "x": 0.044381316233415714,
                "y": 0.00013793221410148964
            },
            "fit_params": {
                "A": 0.026598958292699246,
                "x_0": 7.562964586479547,
                "c": 0.04366884041476034
            },
            "fit_params_err": {
                "A": 0.008484159136677868,
                "x_0": 0.044381316233415714,
                "c": 0.00013793221410148964
            },
            "delta": 2.547797256733989,
            "delta_err": 0.04508322825693332
        }
    ]
}