﻿uB/mV;Uv/mV;dUV/mV
0,4;-370;5
1770;-377;5
5530;-377;5
10380;-100;20
15230;410;20
20430;840;20
26250;-110;20
31840;710;20
36630;1660;20
41500;1200;20
44800;770;20
50500;1270;20
57600;2380;20
64000;2220;40
71200;2600;100
81000;3590;50
