Record Length,2.500000e+03,,   0.049875000000,   2.12000,
Sample Interval,1.000000e-07,,   0.049875100000,   2.12000,
Trigger Point,-4.987500000000e+05,,   0.049875200000,   2.12000,
,,,   0.049875300000,   2.08000,
,,,   0.049875400000,   2.16000,
,,,   0.049875500000,   2.12000,
Source,CH2,,   0.049875600000,   2.12000,
Vertical Units,V,,   0.049875700000,   2.12000,
Vertical Scale,1.000000e+00,,   0.049875800000,   2.08000,
Vertical Offset,-3.480000e+00,,   0.049875900000,   2.04000,
Horizontal Units,s,,   0.049876000000,   2.08000,
Horizontal Scale,2.500000e-05,,   0.049876100000,   2.08000,
Pt Fmt,Y,,   0.049876200000,   2.12000,
Yzero,0.000000e+00,,   0.049876300000,   2.12000,
Probe Atten,1.000000e+00,,   0.049876400000,   2.12000,
Model Number,TDS2004B,,   0.049876500000,   2.12000,
Serial Number,C020251,,   0.049876600000,   2.08000,
Firmware Version,FV:v22.16,,   0.049876700000,   2.12000,
,,,0.049876800000,   2.12000,
,,,0.049876900000,   2.16000,
,,,0.049877000000,   2.12000,
,,,0.049877100000,   2.12000,
,,,0.049877200000,   2.12000,
,,,0.049877300000,   2.08000,
,,,0.049877400000,   2.08000,
,,,0.049877500000,   2.12000,
,,,0.049877600000,   2.08000,
,,,0.049877700000,   2.12000,
,,,0.049877800000,   2.04000,
,,,0.049877900000,   2.12000,
,,,0.049878000000,   2.16000,
,,,0.049878100000,   2.12000,
,,,0.049878200000,   2.08000,
,,,0.049878300000,   2.12000,
,,,0.049878400000,   2.12000,
,,,0.049878500000,   2.16000,
,,,0.049878600000,   2.12000,
,,,0.049878700000,   2.12000,
,,,0.049878800000,   2.12000,
,,,0.049878900000,   2.08000,
,,,0.049879000000,   2.12000,
,,,0.049879100000,   2.12000,
,,,0.049879200000,   2.04000,
,,,0.049879300000,   2.08000,
,,,0.049879400000,   2.12000,
,,,0.049879500000,   2.08000,
,,,0.049879600000,   2.16000,
,,,0.049879700000,   2.12000,
,,,0.049879800000,   2.08000,
,,,0.049879900000,   2.08000,
,,,0.049880000000,   2.08000,
,,,0.049880100000,   2.08000,
,,,0.049880200000,   2.08000,
,,,0.049880300000,   2.08000,
,,,0.049880400000,   2.08000,
,,,0.049880500000,   2.04000,
,,,0.049880600000,   2.04000,
,,,0.049880700000,   2.08000,
,,,0.049880800000,   2.08000,
,,,0.049880900000,   2.08000,
,,,0.049881000000,   2.08000,
,,,0.049881100000,   2.12000,
,,,0.049881200000,   2.08000,
,,,0.049881300000,   2.16000,
,,,0.049881400000,   2.12000,
,,,0.049881500000,   2.16000,
,,,0.049881600000,   2.12000,
,,,0.049881700000,   2.12000,
,,,0.049881800000,   2.12000,
,,,0.049881900000,   2.16000,
,,,0.049882000000,   2.12000,
,,,0.049882100000,   2.08000,
,,,0.049882200000,   2.16000,
,,,0.049882300000,   2.16000,
,,,0.049882400000,   2.12000,
,,,0.049882500000,   2.12000,
,,,0.049882600000,   2.12000,
,,,0.049882700000,   2.08000,
,,,0.049882800000,   2.16000,
,,,0.049882900000,   2.16000,
,,,0.049883000000,   2.16000,
,,,0.049883100000,   2.20000,
,,,0.049883200000,   2.16000,
,,,0.049883300000,   2.16000,
,,,0.049883400000,   2.24000,
,,,0.049883500000,   2.20000,
,,,0.049883600000,   2.16000,
,,,0.049883700000,   2.12000,
,,,0.049883800000,   2.16000,
,,,0.049883900000,   2.16000,
,,,0.049884000000,   2.16000,
,,,0.049884100000,   2.16000,
,,,0.049884200000,   2.16000,
,,,0.049884300000,   2.20000,
,,,0.049884400000,   2.16000,
,,,0.049884500000,   2.16000,
,,,0.049884600000,   2.16000,
,,,0.049884700000,   2.16000,
,,,0.049884800000,   2.16000,
,,,0.049884900000,   2.16000,
,,,0.049885000000,   2.12000,
,,,0.049885100000,   2.16000,
,,,0.049885200000,   2.20000,
,,,0.049885300000,   2.20000,
,,,0.049885400000,   2.16000,
,,,0.049885500000,   2.16000,
,,,0.049885600000,   2.16000,
,,,0.049885700000,   2.16000,
,,,0.049885800000,   2.16000,
,,,0.049885900000,   2.16000,
,,,0.049886000000,   2.20000,
,,,0.049886100000,   2.20000,
,,,0.049886200000,   2.20000,
,,,0.049886300000,   2.20000,
,,,0.049886400000,   2.24000,
,,,0.049886500000,   2.20000,
,,,0.049886600000,   2.20000,
,,,0.049886700000,   2.20000,
,,,0.049886800000,   2.20000,
,,,0.049886900000,   2.24000,
,,,0.049887000000,   2.20000,
,,,0.049887100000,   2.24000,
,,,0.049887200000,   2.20000,
,,,0.049887300000,   2.20000,
,,,0.049887400000,   2.20000,
,,,0.049887500000,   2.24000,
,,,0.049887600000,   2.24000,
,,,0.049887700000,   2.20000,
,,,0.049887800000,   2.20000,
,,,0.049887900000,   2.24000,
,,,0.049888000000,   2.16000,
,,,0.049888100000,   2.20000,
,,,0.049888200000,   2.16000,
,,,0.049888300000,   2.20000,
,,,0.049888400000,   2.20000,
,,,0.049888500000,   2.20000,
,,,0.049888600000,   2.24000,
,,,0.049888700000,   2.24000,
,,,0.049888800000,   2.24000,
,,,0.049888900000,   2.20000,
,,,0.049889000000,   2.24000,
,,,0.049889100000,   2.16000,
,,,0.049889200000,   2.24000,
,,,0.049889300000,   2.20000,
,,,0.049889400000,   2.20000,
,,,0.049889500000,   2.28000,
,,,0.049889600000,   2.20000,
,,,0.049889700000,   2.20000,
,,,0.049889800000,   2.24000,
,,,0.049889900000,   2.20000,
,,,0.049890000000,   2.20000,
,,,0.049890100000,   2.24000,
,,,0.049890200000,   2.16000,
,,,0.049890300000,   2.20000,
,,,0.049890400000,   2.20000,
,,,0.049890500000,   2.20000,
,,,0.049890600000,   2.16000,
,,,0.049890700000,   2.16000,
,,,0.049890800000,   2.20000,
,,,0.049890900000,   2.20000,
,,,0.049891000000,   2.24000,
,,,0.049891100000,   2.28000,
,,,0.049891200000,   2.24000,
,,,0.049891300000,   2.24000,
,,,0.049891400000,   2.24000,
,,,0.049891500000,   2.24000,
,,,0.049891600000,   2.24000,
,,,0.049891700000,   2.24000,
,,,0.049891800000,   2.28000,
,,,0.049891900000,   2.24000,
,,,0.049892000000,   2.20000,
,,,0.049892100000,   2.24000,
,,,0.049892200000,   2.28000,
,,,0.049892300000,   2.20000,
,,,0.049892400000,   2.20000,
,,,0.049892500000,   2.24000,
,,,0.049892600000,   2.24000,
,,,0.049892700000,   2.28000,
,,,0.049892800000,   2.20000,
,,,0.049892900000,   2.24000,
,,,0.049893000000,   2.24000,
,,,0.049893100000,   2.20000,
,,,0.049893200000,   2.16000,
,,,0.049893300000,   2.28000,
,,,0.049893400000,   2.20000,
,,,0.049893500000,   2.24000,
,,,0.049893600000,   2.28000,
,,,0.049893700000,   2.24000,
,,,0.049893800000,   2.24000,
,,,0.049893900000,   2.16000,
,,,0.049894000000,   2.24000,
,,,0.049894100000,   2.20000,
,,,0.049894200000,   2.20000,
,,,0.049894300000,   2.28000,
,,,0.049894400000,   2.24000,
,,,0.049894500000,   2.28000,
,,,0.049894600000,   2.20000,
,,,0.049894700000,   2.24000,
,,,0.049894800000,   2.20000,
,,,0.049894900000,   2.20000,
,,,0.049895000000,   2.24000,
,,,0.049895100000,   2.24000,
,,,0.049895200000,   2.24000,
,,,0.049895300000,   2.20000,
,,,0.049895400000,   2.24000,
,,,0.049895500000,   2.20000,
,,,0.049895600000,   2.20000,
,,,0.049895700000,   2.20000,
,,,0.049895800000,   2.24000,
,,,0.049895900000,   2.20000,
,,,0.049896000000,   2.20000,
,,,0.049896100000,   2.24000,
,,,0.049896200000,   2.24000,
,,,0.049896300000,   2.20000,
,,,0.049896400000,   2.24000,
,,,0.049896500000,   2.20000,
,,,0.049896600000,   2.24000,
,,,0.049896700000,   2.24000,
,,,0.049896800000,   2.24000,
,,,0.049896900000,   2.24000,
,,,0.049897000000,   2.24000,
,,,0.049897100000,   2.20000,
,,,0.049897200000,   2.24000,
,,,0.049897300000,   2.24000,
,,,0.049897400000,   2.24000,
,,,0.049897500000,   2.20000,
,,,0.049897600000,   2.28000,
,,,0.049897700000,   2.24000,
,,,0.049897800000,   2.20000,
,,,0.049897900000,   2.20000,
,,,0.049898000000,   2.24000,
,,,0.049898100000,   2.20000,
,,,0.049898200000,   2.24000,
,,,0.049898300000,   2.24000,
,,,0.049898400000,   2.24000,
,,,0.049898500000,   2.24000,
,,,0.049898600000,   2.28000,
,,,0.049898700000,   2.28000,
,,,0.049898800000,   2.28000,
,,,0.049898900000,   2.28000,
,,,0.049899000000,   2.20000,
,,,0.049899100000,   2.28000,
,,,0.049899200000,   2.20000,
,,,0.049899300000,   2.24000,
,,,0.049899400000,   2.28000,
,,,0.049899500000,   2.24000,
,,,0.049899600000,   2.24000,
,,,0.049899700000,   2.24000,
,,,0.049899800000,   2.24000,
,,,0.049899900000,   2.28000,
,,,0.049900000000,   2.20000,
,,,0.049900100000,   2.20000,
,,,0.049900200000,   2.20000,
,,,0.049900300000,   2.24000,
,,,0.049900400000,   2.20000,
,,,0.049900500000,   2.24000,
,,,0.049900600000,   2.16000,
,,,0.049900700000,   2.20000,
,,,0.049900800000,   2.20000,
,,,0.049900900000,   2.24000,
,,,0.049901000000,   2.28000,
,,,0.049901100000,   2.28000,
,,,0.049901200000,   2.24000,
,,,0.049901300000,   2.28000,
,,,0.049901400000,   2.24000,
,,,0.049901500000,   2.32000,
,,,0.049901600000,   2.32000,
,,,0.049901700000,   2.28000,
,,,0.049901800000,   2.28000,
,,,0.049901900000,   2.28000,
,,,0.049902000000,   2.24000,
,,,0.049902100000,   2.24000,
,,,0.049902200000,   2.16000,
,,,0.049902300000,   2.20000,
,,,0.049902400000,   2.24000,
,,,0.049902500000,   2.24000,
,,,0.049902600000,   2.28000,
,,,0.049902700000,   2.24000,
,,,0.049902800000,   2.24000,
,,,0.049902900000,   2.20000,
,,,0.049903000000,   2.24000,
,,,0.049903100000,   2.20000,
,,,0.049903200000,   2.28000,
,,,0.049903300000,   2.24000,
,,,0.049903400000,   2.28000,
,,,0.049903500000,   2.24000,
,,,0.049903600000,   2.24000,
,,,0.049903700000,   2.28000,
,,,0.049903800000,   2.20000,
,,,0.049903900000,   2.20000,
,,,0.049904000000,   2.24000,
,,,0.049904100000,   2.20000,
,,,0.049904200000,   2.24000,
,,,0.049904300000,   2.24000,
,,,0.049904400000,   2.28000,
,,,0.049904500000,   2.28000,
,,,0.049904600000,   2.24000,
,,,0.049904700000,   2.24000,
,,,0.049904800000,   2.24000,
,,,0.049904900000,   2.28000,
,,,0.049905000000,   2.28000,
,,,0.049905100000,   2.28000,
,,,0.049905200000,   2.28000,
,,,0.049905300000,   2.24000,
,,,0.049905400000,   2.24000,
,,,0.049905500000,   2.24000,
,,,0.049905600000,   2.16000,
,,,0.049905700000,   2.24000,
,,,0.049905800000,   2.20000,
,,,0.049905900000,   2.28000,
,,,0.049906000000,   2.28000,
,,,0.049906100000,   2.28000,
,,,0.049906200000,   2.28000,
,,,0.049906300000,   2.24000,
,,,0.049906400000,   2.28000,
,,,0.049906500000,   2.24000,
,,,0.049906600000,   2.28000,
,,,0.049906700000,   2.32000,
,,,0.049906800000,   2.28000,
,,,0.049906900000,   2.24000,
,,,0.049907000000,   2.20000,
,,,0.049907100000,   2.28000,
,,,0.049907200000,   2.24000,
,,,0.049907300000,   2.20000,
,,,0.049907400000,   2.24000,
,,,0.049907500000,   2.24000,
,,,0.049907600000,   2.28000,
,,,0.049907700000,   2.24000,
,,,0.049907800000,   2.28000,
,,,0.049907900000,   2.28000,
,,,0.049908000000,   2.24000,
,,,0.049908100000,   2.28000,
,,,0.049908200000,   2.32000,
,,,0.049908300000,   2.28000,
,,,0.049908400000,   2.28000,
,,,0.049908500000,   2.28000,
,,,0.049908600000,   2.28000,
,,,0.049908700000,   2.28000,
,,,0.049908800000,   2.28000,
,,,0.049908900000,   2.28000,
,,,0.049909000000,   2.28000,
,,,0.049909100000,   2.32000,
,,,0.049909200000,   2.28000,
,,,0.049909300000,   2.32000,
,,,0.049909400000,   2.28000,
,,,0.049909500000,   2.24000,
,,,0.049909600000,   2.24000,
,,,0.049909700000,   2.28000,
,,,0.049909800000,   2.32000,
,,,0.049909900000,   2.28000,
,,,0.049910000000,   2.28000,
,,,0.049910100000,   2.28000,
,,,0.049910200000,   2.24000,
,,,0.049910300000,   2.24000,
,,,0.049910400000,   2.24000,
,,,0.049910500000,   2.24000,
,,,0.049910600000,   2.24000,
,,,0.049910700000,   2.24000,
,,,0.049910800000,   2.24000,
,,,0.049910900000,   2.28000,
,,,0.049911000000,   2.28000,
,,,0.049911100000,   2.28000,
,,,0.049911200000,   2.28000,
,,,0.049911300000,   2.28000,
,,,0.049911400000,   2.28000,
,,,0.049911500000,   2.32000,
,,,0.049911600000,   2.32000,
,,,0.049911700000,   2.32000,
,,,0.049911800000,   2.32000,
,,,0.049911900000,   2.28000,
,,,0.049912000000,   2.28000,
,,,0.049912100000,   2.28000,
,,,0.049912200000,   2.28000,
,,,0.049912300000,   2.32000,
,,,0.049912400000,   2.28000,
,,,0.049912500000,   2.32000,
,,,0.049912600000,   2.36000,
,,,0.049912700000,   2.32000,
,,,0.049912800000,   2.28000,
,,,0.049912900000,   2.32000,
,,,0.049913000000,   2.28000,
,,,0.049913100000,   2.32000,
,,,0.049913200000,   2.32000,
,,,0.049913300000,   2.32000,
,,,0.049913400000,   2.28000,
,,,0.049913500000,   2.24000,
,,,0.049913600000,   2.28000,
,,,0.049913700000,   2.24000,
,,,0.049913800000,   2.28000,
,,,0.049913900000,   2.28000,
,,,0.049914000000,   2.28000,
,,,0.049914100000,   2.32000,
,,,0.049914200000,   2.28000,
,,,0.049914300000,   2.32000,
,,,0.049914400000,   2.32000,
,,,0.049914500000,   2.28000,
,,,0.049914600000,   2.24000,
,,,0.049914700000,   2.28000,
,,,0.049914800000,   2.28000,
,,,0.049914900000,   2.24000,
,,,0.049915000000,   2.24000,
,,,0.049915100000,   2.24000,
,,,0.049915200000,   2.28000,
,,,0.049915300000,   2.28000,
,,,0.049915400000,   2.28000,
,,,0.049915500000,   2.24000,
,,,0.049915600000,   2.24000,
,,,0.049915700000,   2.24000,
,,,0.049915800000,   2.28000,
,,,0.049915900000,   2.32000,
,,,0.049916000000,   2.28000,
,,,0.049916100000,   2.28000,
,,,0.049916200000,   2.24000,
,,,0.049916300000,   2.28000,
,,,0.049916400000,   2.28000,
,,,0.049916500000,   2.32000,
,,,0.049916600000,   2.28000,
,,,0.049916700000,   2.32000,
,,,0.049916800000,   2.28000,
,,,0.049916900000,   2.24000,
,,,0.049917000000,   2.28000,
,,,0.049917100000,   2.28000,
,,,0.049917200000,   2.28000,
,,,0.049917300000,   2.24000,
,,,0.049917400000,   2.32000,
,,,0.049917500000,   2.32000,
,,,0.049917600000,   2.28000,
,,,0.049917700000,   2.32000,
,,,0.049917800000,   2.28000,
,,,0.049917900000,   2.32000,
,,,0.049918000000,   2.28000,
,,,0.049918100000,   2.36000,
,,,0.049918200000,   2.32000,
,,,0.049918300000,   2.28000,
,,,0.049918400000,   2.28000,
,,,0.049918500000,   2.32000,
,,,0.049918600000,   2.32000,
,,,0.049918700000,   2.32000,
,,,0.049918800000,   2.28000,
,,,0.049918900000,   2.28000,
,,,0.049919000000,   2.36000,
,,,0.049919100000,   2.36000,
,,,0.049919200000,   2.36000,
,,,0.049919300000,   2.32000,
,,,0.049919400000,   2.32000,
,,,0.049919500000,   2.28000,
,,,0.049919600000,   2.32000,
,,,0.049919700000,   2.36000,
,,,0.049919800000,   2.32000,
,,,0.049919900000,   2.32000,
,,,0.049920000000,   2.32000,
,,,0.049920100000,   2.28000,
,,,0.049920200000,   2.32000,
,,,0.049920300000,   2.28000,
,,,0.049920400000,   2.36000,
,,,0.049920500000,   2.32000,
,,,0.049920600000,   2.32000,
,,,0.049920700000,   2.32000,
,,,0.049920800000,   2.36000,
,,,0.049920900000,   2.40000,
,,,0.049921000000,   2.36000,
,,,0.049921100000,   2.40000,
,,,0.049921200000,   2.36000,
,,,0.049921300000,   2.36000,
,,,0.049921400000,   2.40000,
,,,0.049921500000,   2.40000,
,,,0.049921600000,   2.36000,
,,,0.049921700000,   2.36000,
,,,0.049921800000,   2.40000,
,,,0.049921900000,   2.40000,
,,,0.049922000000,   2.36000,
,,,0.049922100000,   2.36000,
,,,0.049922200000,   2.40000,
,,,0.049922300000,   2.36000,
,,,0.049922400000,   2.40000,
,,,0.049922500000,   2.40000,
,,,0.049922600000,   2.36000,
,,,0.049922700000,   2.36000,
,,,0.049922800000,   2.40000,
,,,0.049922900000,   2.36000,
,,,0.049923000000,   2.44000,
,,,0.049923100000,   2.36000,
,,,0.049923200000,   2.40000,
,,,0.049923300000,   2.36000,
,,,0.049923400000,   2.36000,
,,,0.049923500000,   2.40000,
,,,0.049923600000,   2.32000,
,,,0.049923700000,   2.36000,
,,,0.049923800000,   2.40000,
,,,0.049923900000,   2.40000,
,,,0.049924000000,   2.40000,
,,,0.049924100000,   2.40000,
,,,0.049924200000,   2.40000,
,,,0.049924300000,   2.40000,
,,,0.049924400000,   2.40000,
,,,0.049924500000,   2.36000,
,,,0.049924600000,   2.40000,
,,,0.049924700000,   2.40000,
,,,0.049924800000,   2.40000,
,,,0.049924900000,   2.36000,
,,,0.049925000000,   2.44000,
,,,0.049925100000,   2.40000,
,,,0.049925200000,   2.40000,
,,,0.049925300000,   2.40000,
,,,0.049925400000,   2.36000,
,,,0.049925500000,   2.40000,
,,,0.049925600000,   2.36000,
,,,0.049925700000,   2.36000,
,,,0.049925800000,   2.36000,
,,,0.049925900000,   2.40000,
,,,0.049926000000,   2.40000,
,,,0.049926100000,   2.40000,
,,,0.049926200000,   2.36000,
,,,0.049926300000,   2.40000,
,,,0.049926400000,   2.40000,
,,,0.049926500000,   2.44000,
,,,0.049926600000,   2.40000,
,,,0.049926700000,   2.36000,
,,,0.049926800000,   2.32000,
,,,0.049926900000,   2.40000,
,,,0.049927000000,   2.36000,
,,,0.049927100000,   2.36000,
,,,0.049927200000,   2.32000,
,,,0.049927300000,   2.36000,
,,,0.049927400000,   2.40000,
,,,0.049927500000,   2.36000,
,,,0.049927600000,   2.36000,
,,,0.049927700000,   2.36000,
,,,0.049927800000,   2.36000,
,,,0.049927900000,   2.36000,
,,,0.049928000000,   2.40000,
,,,0.049928100000,   2.40000,
,,,0.049928200000,   2.36000,
,,,0.049928300000,   2.40000,
,,,0.049928400000,   2.36000,
,,,0.049928500000,   2.32000,
,,,0.049928600000,   2.36000,
,,,0.049928700000,   2.32000,
,,,0.049928800000,   2.36000,
,,,0.049928900000,   2.32000,
,,,0.049929000000,   2.36000,
,,,0.049929100000,   2.36000,
,,,0.049929200000,   2.32000,
,,,0.049929300000,   2.32000,
,,,0.049929400000,   2.36000,
,,,0.049929500000,   2.28000,
,,,0.049929600000,   2.32000,
,,,0.049929700000,   2.32000,
,,,0.049929800000,   2.32000,
,,,0.049929900000,   2.28000,
,,,0.049930000000,   2.28000,
,,,0.049930100000,   2.32000,
,,,0.049930200000,   2.28000,
,,,0.049930300000,   2.28000,
,,,0.049930400000,   2.32000,
,,,0.049930500000,   2.28000,
,,,0.049930600000,   2.36000,
,,,0.049930700000,   2.36000,
,,,0.049930800000,   2.32000,
,,,0.049930900000,   2.28000,
,,,0.049931000000,   2.28000,
,,,0.049931100000,   2.28000,
,,,0.049931200000,   2.32000,
,,,0.049931300000,   2.36000,
,,,0.049931400000,   2.32000,
,,,0.049931500000,   2.32000,
,,,0.049931600000,   2.24000,
,,,0.049931700000,   2.28000,
,,,0.049931800000,   2.28000,
,,,0.049931900000,   2.28000,
,,,0.049932000000,   2.28000,
,,,0.049932100000,   2.28000,
,,,0.049932200000,   2.28000,
,,,0.049932300000,   2.32000,
,,,0.049932400000,   2.28000,
,,,0.049932500000,   2.28000,
,,,0.049932600000,   2.28000,
,,,0.049932700000,   2.28000,
,,,0.049932800000,   2.24000,
,,,0.049932900000,   2.32000,
,,,0.049933000000,   2.24000,
,,,0.049933100000,   2.28000,
,,,0.049933200000,   2.24000,
,,,0.049933300000,   2.24000,
,,,0.049933400000,   2.28000,
,,,0.049933500000,   2.24000,
,,,0.049933600000,   2.24000,
,,,0.049933700000,   2.24000,
,,,0.049933800000,   2.24000,
,,,0.049933900000,   2.28000,
,,,0.049934000000,   2.24000,
,,,0.049934100000,   2.28000,
,,,0.049934200000,   2.20000,
,,,0.049934300000,   2.28000,
,,,0.049934400000,   2.20000,
,,,0.049934500000,   2.28000,
,,,0.049934600000,   2.24000,
,,,0.049934700000,   2.24000,
,,,0.049934800000,   2.20000,
,,,0.049934900000,   2.20000,
,,,0.049935000000,   2.20000,
,,,0.049935100000,   2.24000,
,,,0.049935200000,   2.24000,
,,,0.049935300000,   2.20000,
,,,0.049935400000,   2.20000,
,,,0.049935500000,   2.16000,
,,,0.049935600000,   2.24000,
,,,0.049935700000,   2.20000,
,,,0.049935800000,   2.24000,
,,,0.049935900000,   2.28000,
,,,0.049936000000,   2.20000,
,,,0.049936100000,   2.20000,
,,,0.049936200000,   2.16000,
,,,0.049936300000,   2.24000,
,,,0.049936400000,   2.20000,
,,,0.049936500000,   2.20000,
,,,0.049936600000,   2.20000,
,,,0.049936700000,   2.24000,
,,,0.049936800000,   2.20000,
,,,0.049936900000,   2.20000,
,,,0.049937000000,   2.16000,
,,,0.049937100000,   2.20000,
,,,0.049937200000,   2.16000,
,,,0.049937300000,   2.20000,
,,,0.049937400000,   2.16000,
,,,0.049937500000,   2.24000,
,,,0.049937600000,   2.16000,
,,,0.049937700000,   2.20000,
,,,0.049937800000,   2.20000,
,,,0.049937900000,   2.20000,
,,,0.049938000000,   2.24000,
,,,0.049938100000,   2.24000,
,,,0.049938200000,   2.16000,
,,,0.049938300000,   2.20000,
,,,0.049938400000,   2.20000,
,,,0.049938500000,   2.16000,
,,,0.049938600000,   2.20000,
,,,0.049938700000,   2.16000,
,,,0.049938800000,   2.20000,
,,,0.049938900000,   2.20000,
,,,0.049939000000,   2.20000,
,,,0.049939100000,   2.16000,
,,,0.049939200000,   2.16000,
,,,0.049939300000,   2.16000,
,,,0.049939400000,   2.16000,
,,,0.049939500000,   2.16000,
,,,0.049939600000,   2.20000,
,,,0.049939700000,   2.16000,
,,,0.049939800000,   2.16000,
,,,0.049939900000,   2.16000,
,,,0.049940000000,   2.16000,
,,,0.049940100000,   2.16000,
,,,0.049940200000,   2.12000,
,,,0.049940300000,   2.16000,
,,,0.049940400000,   2.12000,
,,,0.049940500000,   2.16000,
,,,0.049940600000,   2.24000,
,,,0.049940700000,   2.16000,
,,,0.049940800000,   2.20000,
,,,0.049940900000,   2.20000,
,,,0.049941000000,   2.16000,
,,,0.049941100000,   2.20000,
,,,0.049941200000,   2.20000,
,,,0.049941300000,   2.20000,
,,,0.049941400000,   2.20000,
,,,0.049941500000,   2.16000,
,,,0.049941600000,   2.16000,
,,,0.049941700000,   2.16000,
,,,0.049941800000,   2.12000,
,,,0.049941900000,   2.16000,
,,,0.049942000000,   2.20000,
,,,0.049942100000,   2.16000,
,,,0.049942200000,   2.16000,
,,,0.049942300000,   2.20000,
,,,0.049942400000,   2.16000,
,,,0.049942500000,   2.16000,
,,,0.049942600000,   2.16000,
,,,0.049942700000,   2.16000,
,,,0.049942800000,   2.20000,
,,,0.049942900000,   2.16000,
,,,0.049943000000,   2.20000,
,,,0.049943100000,   2.12000,
,,,0.049943200000,   2.16000,
,,,0.049943300000,   2.20000,
,,,0.049943400000,   2.12000,
,,,0.049943500000,   2.12000,
,,,0.049943600000,   2.16000,
,,,0.049943700000,   2.16000,
,,,0.049943800000,   2.20000,
,,,0.049943900000,   2.16000,
,,,0.049944000000,   2.20000,
,,,0.049944100000,   2.20000,
,,,0.049944200000,   2.16000,
,,,0.049944300000,   2.12000,
,,,0.049944400000,   2.12000,
,,,0.049944500000,   2.16000,
,,,0.049944600000,   2.12000,
,,,0.049944700000,   2.20000,
,,,0.049944800000,   2.20000,
,,,0.049944900000,   2.16000,
,,,0.049945000000,   2.12000,
,,,0.049945100000,   2.16000,
,,,0.049945200000,   2.12000,
,,,0.049945300000,   2.16000,
,,,0.049945400000,   2.12000,
,,,0.049945500000,   2.16000,
,,,0.049945600000,   2.16000,
,,,0.049945700000,   2.16000,
,,,0.049945800000,   2.16000,
,,,0.049945900000,   2.12000,
,,,0.049946000000,   2.16000,
,,,0.049946100000,   2.16000,
,,,0.049946200000,   2.16000,
,,,0.049946300000,   2.20000,
,,,0.049946400000,   2.20000,
,,,0.049946500000,   2.16000,
,,,0.049946600000,   2.16000,
,,,0.049946700000,   2.16000,
,,,0.049946800000,   2.16000,
,,,0.049946900000,   2.20000,
,,,0.049947000000,   2.16000,
,,,0.049947100000,   2.16000,
,,,0.049947200000,   2.16000,
,,,0.049947300000,   2.16000,
,,,0.049947400000,   2.16000,
,,,0.049947500000,   2.16000,
,,,0.049947600000,   2.12000,
,,,0.049947700000,   2.12000,
,,,0.049947800000,   2.24000,
,,,0.049947900000,   2.12000,
,,,0.049948000000,   2.16000,
,,,0.049948100000,   2.16000,
,,,0.049948200000,   2.16000,
,,,0.049948300000,   2.12000,
,,,0.049948400000,   2.16000,
,,,0.049948500000,   2.08000,
,,,0.049948600000,   2.16000,
,,,0.049948700000,   2.12000,
,,,0.049948800000,   2.16000,
,,,0.049948900000,   2.16000,
,,,0.049949000000,   2.12000,
,,,0.049949100000,   2.12000,
,,,0.049949200000,   2.08000,
,,,0.049949300000,   2.12000,
,,,0.049949400000,   2.08000,
,,,0.049949500000,   2.16000,
,,,0.049949600000,   2.08000,
,,,0.049949700000,   2.08000,
,,,0.049949800000,   2.12000,
,,,0.049949900000,   2.12000,
,,,0.049950000000,   2.08000,
,,,0.049950100000,   2.08000,
,,,0.049950200000,   2.08000,
,,,0.049950300000,   2.08000,
,,,0.049950400000,   2.12000,
,,,0.049950500000,   2.12000,
,,,0.049950600000,   2.12000,
,,,0.049950700000,   2.16000,
,,,0.049950800000,   2.08000,
,,,0.049950900000,   2.12000,
,,,0.049951000000,   2.16000,
,,,0.049951100000,   2.12000,
,,,0.049951200000,   2.08000,
,,,0.049951300000,   2.08000,
,,,0.049951400000,   2.04000,
,,,0.049951500000,   2.04000,
,,,0.049951600000,   2.08000,
,,,0.049951700000,   2.12000,
,,,0.049951800000,   2.08000,
,,,0.049951900000,   2.08000,
,,,0.049952000000,   2.08000,
,,,0.049952100000,   2.08000,
,,,0.049952200000,   2.08000,
,,,0.049952300000,   2.08000,
,,,0.049952400000,   2.08000,
,,,0.049952500000,   2.08000,
,,,0.049952600000,   2.08000,
,,,0.049952700000,   2.08000,
,,,0.049952800000,   2.04000,
,,,0.049952900000,   2.08000,
,,,0.049953000000,   2.08000,
,,,0.049953100000,   2.04000,
,,,0.049953200000,   2.12000,
,,,0.049953300000,   2.04000,
,,,0.049953400000,   2.00000,
,,,0.049953500000,   2.04000,
,,,0.049953600000,   2.08000,
,,,0.049953700000,   2.04000,
,,,0.049953800000,   2.08000,
,,,0.049953900000,   2.12000,
,,,0.049954000000,   2.08000,
,,,0.049954100000,   2.04000,
,,,0.049954200000,   2.08000,
,,,0.049954300000,   2.04000,
,,,0.049954400000,   2.04000,
,,,0.049954500000,   2.08000,
,,,0.049954600000,   2.04000,
,,,0.049954700000,   2.04000,
,,,0.049954800000,   2.04000,
,,,0.049954900000,   2.04000,
,,,0.049955000000,   2.04000,
,,,0.049955100000,   2.04000,
,,,0.049955200000,   2.04000,
,,,0.049955300000,   2.08000,
,,,0.049955400000,   2.08000,
,,,0.049955500000,   2.08000,
,,,0.049955600000,   2.04000,
,,,0.049955700000,   2.04000,
,,,0.049955800000,   2.04000,
,,,0.049955900000,   2.08000,
,,,0.049956000000,   2.08000,
,,,0.049956100000,   2.12000,
,,,0.049956200000,   2.08000,
,,,0.049956300000,   2.12000,
,,,0.049956400000,   2.08000,
,,,0.049956500000,   2.08000,
,,,0.049956600000,   2.08000,
,,,0.049956700000,   2.08000,
,,,0.049956800000,   2.08000,
,,,0.049956900000,   2.08000,
,,,0.049957000000,   2.08000,
,,,0.049957100000,   2.12000,
,,,0.049957200000,   2.08000,
,,,0.049957300000,   2.08000,
,,,0.049957400000,   2.08000,
,,,0.049957500000,   2.08000,
,,,0.049957600000,   2.12000,
,,,0.049957700000,   2.16000,
,,,0.049957800000,   2.16000,
,,,0.049957900000,   2.12000,
,,,0.049958000000,   2.12000,
,,,0.049958100000,   2.16000,
,,,0.049958200000,   2.08000,
,,,0.049958300000,   2.16000,
,,,0.049958400000,   2.08000,
,,,0.049958500000,   2.12000,
,,,0.049958600000,   2.12000,
,,,0.049958700000,   2.16000,
,,,0.049958800000,   2.16000,
,,,0.049958900000,   2.12000,
,,,0.049959000000,   2.16000,
,,,0.049959100000,   2.16000,
,,,0.049959200000,   2.12000,
,,,0.049959300000,   2.16000,
,,,0.049959400000,   2.12000,
,,,0.049959500000,   2.12000,
,,,0.049959600000,   2.16000,
,,,0.049959700000,   2.12000,
,,,0.049959800000,   2.08000,
,,,0.049959900000,   2.08000,
,,,0.049960000000,   2.12000,
,,,0.049960100000,   2.16000,
,,,0.049960200000,   2.12000,
,,,0.049960300000,   2.12000,
,,,0.049960400000,   2.16000,
,,,0.049960500000,   2.16000,
,,,0.049960600000,   2.12000,
,,,0.049960700000,   2.08000,
,,,0.049960800000,   2.12000,
,,,0.049960900000,   2.12000,
,,,0.049961000000,   2.12000,
,,,0.049961100000,   2.12000,
,,,0.049961200000,   2.12000,
,,,0.049961300000,   2.12000,
,,,0.049961400000,   2.12000,
,,,0.049961500000,   2.08000,
,,,0.049961600000,   2.12000,
,,,0.049961700000,   2.08000,
,,,0.049961800000,   2.08000,
,,,0.049961900000,   2.08000,
,,,0.049962000000,   2.16000,
,,,0.049962100000,   2.16000,
,,,0.049962200000,   2.08000,
,,,0.049962300000,   2.12000,
,,,0.049962400000,   2.16000,
,,,0.049962500000,   2.04000,
,,,0.049962600000,   2.16000,
,,,0.049962700000,   2.12000,
,,,0.049962800000,   2.12000,
,,,0.049962900000,   2.04000,
,,,0.049963000000,   2.08000,
,,,0.049963100000,   2.12000,
,,,0.049963200000,   2.04000,
,,,0.049963300000,   2.04000,
,,,0.049963400000,   2.08000,
,,,0.049963500000,   2.08000,
,,,0.049963600000,   2.08000,
,,,0.049963700000,   2.12000,
,,,0.049963800000,   2.12000,
,,,0.049963900000,   2.08000,
,,,0.049964000000,   2.08000,
,,,0.049964100000,   2.08000,
,,,0.049964200000,   2.04000,
,,,0.049964300000,   2.08000,
,,,0.049964400000,   2.08000,
,,,0.049964500000,   2.12000,
,,,0.049964600000,   2.08000,
,,,0.049964700000,   2.08000,
,,,0.049964800000,   2.04000,
,,,0.049964900000,   2.12000,
,,,0.049965000000,   2.04000,
,,,0.049965100000,   2.08000,
,,,0.049965200000,   2.08000,
,,,0.049965300000,   2.12000,
,,,0.049965400000,   2.12000,
,,,0.049965500000,   2.12000,
,,,0.049965600000,   2.12000,
,,,0.049965700000,   2.12000,
,,,0.049965800000,   2.08000,
,,,0.049965900000,   2.12000,
,,,0.049966000000,   2.12000,
,,,0.049966100000,   2.16000,
,,,0.049966200000,   2.16000,
,,,0.049966300000,   2.12000,
,,,0.049966400000,   2.12000,
,,,0.049966500000,   2.12000,
,,,0.049966600000,   2.16000,
,,,0.049966700000,   2.12000,
,,,0.049966800000,   2.12000,
,,,0.049966900000,   2.12000,
,,,0.049967000000,   2.16000,
,,,0.049967100000,   2.12000,
,,,0.049967200000,   2.12000,
,,,0.049967300000,   2.12000,
,,,0.049967400000,   2.08000,
,,,0.049967500000,   2.12000,
,,,0.049967600000,   2.12000,
,,,0.049967700000,   2.12000,
,,,0.049967800000,   2.16000,
,,,0.049967900000,   2.20000,
,,,0.049968000000,   2.12000,
,,,0.049968100000,   2.16000,
,,,0.049968200000,   2.16000,
,,,0.049968300000,   2.12000,
,,,0.049968400000,   2.16000,
,,,0.049968500000,   2.16000,
,,,0.049968600000,   2.16000,
,,,0.049968700000,   2.16000,
,,,0.049968800000,   2.24000,
,,,0.049968900000,   2.16000,
,,,0.049969000000,   2.16000,
,,,0.049969100000,   2.16000,
,,,0.049969200000,   2.20000,
,,,0.049969300000,   2.16000,
,,,0.049969400000,   2.16000,
,,,0.049969500000,   2.16000,
,,,0.049969600000,   2.12000,
,,,0.049969700000,   2.12000,
,,,0.049969800000,   2.12000,
,,,0.049969900000,   2.12000,
,,,0.049970000000,   2.16000,
,,,0.049970100000,   2.20000,
,,,0.049970200000,   2.20000,
,,,0.049970300000,   2.24000,
,,,0.049970400000,   2.20000,
,,,0.049970500000,   2.20000,
,,,0.049970600000,   2.16000,
,,,0.049970700000,   2.20000,
,,,0.049970800000,   2.20000,
,,,0.049970900000,   2.24000,
,,,0.049971000000,   2.20000,
,,,0.049971100000,   2.20000,
,,,0.049971200000,   2.20000,
,,,0.049971300000,   2.20000,
,,,0.049971400000,   2.20000,
,,,0.049971500000,   2.20000,
,,,0.049971600000,   2.20000,
,,,0.049971700000,   2.20000,
,,,0.049971800000,   2.20000,
,,,0.049971900000,   2.24000,
,,,0.049972000000,   2.24000,
,,,0.049972100000,   2.20000,
,,,0.049972200000,   2.24000,
,,,0.049972300000,   2.20000,
,,,0.049972400000,   2.16000,
,,,0.049972500000,   2.24000,
,,,0.049972600000,   2.20000,
,,,0.049972700000,   2.20000,
,,,0.049972800000,   2.20000,
,,,0.049972900000,   2.24000,
,,,0.049973000000,   2.24000,
,,,0.049973100000,   2.16000,
,,,0.049973200000,   2.24000,
,,,0.049973300000,   2.20000,
,,,0.049973400000,   2.20000,
,,,0.049973500000,   2.24000,
,,,0.049973600000,   2.24000,
,,,0.049973700000,   2.24000,
,,,0.049973800000,   2.16000,
,,,0.049973900000,   2.24000,
,,,0.049974000000,   2.20000,
,,,0.049974100000,   2.16000,
,,,0.049974200000,   2.24000,
,,,0.049974300000,   2.20000,
,,,0.049974400000,   2.16000,
,,,0.049974500000,   2.20000,
,,,0.049974600000,   2.20000,
,,,0.049974700000,   2.16000,
,,,0.049974800000,   2.20000,
,,,0.049974900000,   2.20000,
,,,0.049975000000,   2.20000,
,,,0.049975100000,   2.24000,
,,,0.049975200000,   2.20000,
,,,0.049975300000,   2.20000,
,,,0.049975400000,   2.20000,
,,,0.049975500000,   2.24000,
,,,0.049975600000,   2.24000,
,,,0.049975700000,   2.24000,
,,,0.049975800000,   2.24000,
,,,0.049975900000,   2.20000,
,,,0.049976000000,   2.20000,
,,,0.049976100000,   2.20000,
,,,0.049976200000,   2.16000,
,,,0.049976300000,   2.24000,
,,,0.049976400000,   2.24000,
,,,0.049976500000,   2.24000,
,,,0.049976600000,   2.20000,
,,,0.049976700000,   2.20000,
,,,0.049976800000,   2.20000,
,,,0.049976900000,   2.28000,
,,,0.049977000000,   2.20000,
,,,0.049977100000,   2.20000,
,,,0.049977200000,   2.20000,
,,,0.049977300000,   2.20000,
,,,0.049977400000,   2.28000,
,,,0.049977500000,   2.28000,
,,,0.049977600000,   2.20000,
,,,0.049977700000,   2.28000,
,,,0.049977800000,   2.24000,
,,,0.049977900000,   2.24000,
,,,0.049978000000,   2.20000,
,,,0.049978100000,   2.28000,
,,,0.049978200000,   2.20000,
,,,0.049978300000,   2.20000,
,,,0.049978400000,   2.24000,
,,,0.049978500000,   2.20000,
,,,0.049978600000,   2.28000,
,,,0.049978700000,   2.20000,
,,,0.049978800000,   2.24000,
,,,0.049978900000,   2.20000,
,,,0.049979000000,   2.16000,
,,,0.049979100000,   2.20000,
,,,0.049979200000,   2.24000,
,,,0.049979300000,   2.20000,
,,,0.049979400000,   2.20000,
,,,0.049979500000,   2.20000,
,,,0.049979600000,   2.20000,
,,,0.049979700000,   2.16000,
,,,0.049979800000,   2.16000,
,,,0.049979900000,   2.20000,
,,,0.049980000000,   2.24000,
,,,0.049980100000,   2.24000,
,,,0.049980200000,   2.24000,
,,,0.049980300000,   2.24000,
,,,0.049980400000,   2.20000,
,,,0.049980500000,   2.24000,
,,,0.049980600000,   2.24000,
,,,0.049980700000,   2.24000,
,,,0.049980800000,   2.28000,
,,,0.049980900000,   2.24000,
,,,0.049981000000,   2.28000,
,,,0.049981100000,   2.24000,
,,,0.049981200000,   2.20000,
,,,0.049981300000,   2.20000,
,,,0.049981400000,   2.16000,
,,,0.049981500000,   2.20000,
,,,0.049981600000,   2.28000,
,,,0.049981700000,   2.24000,
,,,0.049981800000,   2.28000,
,,,0.049981900000,   2.24000,
,,,0.049982000000,   2.24000,
,,,0.049982100000,   2.28000,
,,,0.049982200000,   2.20000,
,,,0.049982300000,   2.20000,
,,,0.049982400000,   2.32000,
,,,0.049982500000,   2.24000,
,,,0.049982600000,   2.28000,
,,,0.049982700000,   2.24000,
,,,0.049982800000,   2.24000,
,,,0.049982900000,   2.24000,
,,,0.049983000000,   2.20000,
,,,0.049983100000,   2.24000,
,,,0.049983200000,   2.28000,
,,,0.049983300000,   2.24000,
,,,0.049983400000,   2.28000,
,,,0.049983500000,   2.28000,
,,,0.049983600000,   2.28000,
,,,0.049983700000,   2.20000,
,,,0.049983800000,   2.20000,
,,,0.049983900000,   2.20000,
,,,0.049984000000,   2.24000,
,,,0.049984100000,   2.24000,
,,,0.049984200000,   2.24000,
,,,0.049984300000,   2.24000,
,,,0.049984400000,   2.24000,
,,,0.049984500000,   2.24000,
,,,0.049984600000,   2.20000,
,,,0.049984700000,   2.20000,
,,,0.049984800000,   2.20000,
,,,0.049984900000,   2.24000,
,,,0.049985000000,   2.24000,
,,,0.049985100000,   2.24000,
,,,0.049985200000,   2.28000,
,,,0.049985300000,   2.28000,
,,,0.049985400000,   2.28000,
,,,0.049985500000,   2.28000,
,,,0.049985600000,   2.28000,
,,,0.049985700000,   2.28000,
,,,0.049985800000,   2.24000,
,,,0.049985900000,   2.20000,
,,,0.049986000000,   2.28000,
,,,0.049986100000,   2.28000,
,,,0.049986200000,   2.20000,
,,,0.049986300000,   2.28000,
,,,0.049986400000,   2.20000,
,,,0.049986500000,   2.24000,
,,,0.049986600000,   2.24000,
,,,0.049986700000,   2.24000,
,,,0.049986800000,   2.24000,
,,,0.049986900000,   2.20000,
,,,0.049987000000,   2.24000,
,,,0.049987100000,   2.28000,
,,,0.049987200000,   2.24000,
,,,0.049987300000,   2.24000,
,,,0.049987400000,   2.32000,
,,,0.049987500000,   2.24000,
,,,0.049987600000,   2.28000,
,,,0.049987700000,   2.28000,
,,,0.049987800000,   2.28000,
,,,0.049987900000,   2.24000,
,,,0.049988000000,   2.24000,
,,,0.049988100000,   2.24000,
,,,0.049988200000,   2.24000,
,,,0.049988300000,   2.28000,
,,,0.049988400000,   2.28000,
,,,0.049988500000,   2.28000,
,,,0.049988600000,   2.28000,
,,,0.049988700000,   2.24000,
,,,0.049988800000,   2.24000,
,,,0.049988900000,   2.24000,
,,,0.049989000000,   2.28000,
,,,0.049989100000,   2.24000,
,,,0.049989200000,   2.28000,
,,,0.049989300000,   2.20000,
,,,0.049989400000,   2.28000,
,,,0.049989500000,   2.20000,
,,,0.049989600000,   2.16000,
,,,0.049989700000,   2.24000,
,,,0.049989800000,   2.24000,
,,,0.049989900000,   2.16000,
,,,0.049990000000,   2.28000,
,,,0.049990100000,   2.28000,
,,,0.049990200000,   2.24000,
,,,0.049990300000,   2.20000,
,,,0.049990400000,   2.28000,
,,,0.049990500000,   2.24000,
,,,0.049990600000,   2.24000,
,,,0.049990700000,   2.32000,
,,,0.049990800000,   2.24000,
,,,0.049990900000,   2.32000,
,,,0.049991000000,   2.24000,
,,,0.049991100000,   2.28000,
,,,0.049991200000,   2.24000,
,,,0.049991300000,   2.24000,
,,,0.049991400000,   2.24000,
,,,0.049991500000,   2.24000,
,,,0.049991600000,   2.24000,
,,,0.049991700000,   2.32000,
,,,0.049991800000,   2.28000,
,,,0.049991900000,   2.28000,
,,,0.049992000000,   2.28000,
,,,0.049992100000,   2.28000,
,,,0.049992200000,   2.20000,
,,,0.049992300000,   2.32000,
,,,0.049992400000,   2.28000,
,,,0.049992500000,   2.32000,
,,,0.049992600000,   2.28000,
,,,0.049992700000,   2.28000,
,,,0.049992800000,   2.32000,
,,,0.049992900000,   2.24000,
,,,0.049993000000,   2.24000,
,,,0.049993100000,   2.24000,
,,,0.049993200000,   2.28000,
,,,0.049993300000,   2.28000,
,,,0.049993400000,   2.32000,
,,,0.049993500000,   2.32000,
,,,0.049993600000,   2.32000,
,,,0.049993700000,   2.24000,
,,,0.049993800000,   2.24000,
,,,0.049993900000,   2.32000,
,,,0.049994000000,   2.28000,
,,,0.049994100000,   2.32000,
,,,0.049994200000,   2.28000,
,,,0.049994300000,   2.24000,
,,,0.049994400000,   2.24000,
,,,0.049994500000,   2.24000,
,,,0.049994600000,   2.24000,
,,,0.049994700000,   2.24000,
,,,0.049994800000,   2.24000,
,,,0.049994900000,   2.32000,
,,,0.049995000000,   2.28000,
,,,0.049995100000,   2.24000,
,,,0.049995200000,   2.28000,
,,,0.049995300000,   2.28000,
,,,0.049995400000,   2.28000,
,,,0.049995500000,   2.32000,
,,,0.049995600000,   2.28000,
,,,0.049995700000,   2.28000,
,,,0.049995800000,   2.32000,
,,,0.049995900000,   2.32000,
,,,0.049996000000,   2.28000,
,,,0.049996100000,   2.32000,
,,,0.049996200000,   2.28000,
,,,0.049996300000,   2.28000,
,,,0.049996400000,   2.28000,
,,,0.049996500000,   2.24000,
,,,0.049996600000,   2.28000,
,,,0.049996700000,   2.32000,
,,,0.049996800000,   2.32000,
,,,0.049996900000,   2.32000,
,,,0.049997000000,   2.28000,
,,,0.049997100000,   2.24000,
,,,0.049997200000,   2.24000,
,,,0.049997300000,   2.32000,
,,,0.049997400000,   2.36000,
,,,0.049997500000,   2.28000,
,,,0.049997600000,   2.32000,
,,,0.049997700000,   2.28000,
,,,0.049997800000,   2.28000,
,,,0.049997900000,   2.32000,
,,,0.049998000000,   2.28000,
,,,0.049998100000,   2.28000,
,,,0.049998200000,   2.24000,
,,,0.049998300000,   2.28000,
,,,0.049998400000,   2.28000,
,,,0.049998500000,   2.28000,
,,,0.049998600000,   2.28000,
,,,0.049998700000,   2.24000,
,,,0.049998800000,   2.28000,
,,,0.049998900000,   2.28000,
,,,0.049999000000,   2.28000,
,,,0.049999100000,   2.28000,
,,,0.049999200000,   2.28000,
,,,0.049999300000,   2.24000,
,,,0.049999400000,   2.24000,
,,,0.049999500000,   2.20000,
,,,0.049999600000,   2.24000,
,,,0.049999700000,   2.28000,
,,,0.049999800000,   2.24000,
,,,0.049999900000,   2.32000,
,,,0.050000000000,   2.28000,
,,,0.050000100000,   2.28000,
,,,0.050000200000,   2.24000,
,,,0.050000300000,   2.24000,
,,,0.050000400000,   2.24000,
,,,0.050000500000,   2.32000,
,,,0.050000600000,   2.28000,
,,,0.050000700000,   2.28000,
,,,0.050000800000,   2.28000,
,,,0.050000900000,   2.24000,
,,,0.050001000000,   2.20000,
,,,0.050001100000,   2.28000,
,,,0.050001200000,   2.24000,
,,,0.050001300000,   2.28000,
,,,0.050001400000,   2.28000,
,,,0.050001500000,   2.24000,
,,,0.050001600000,   2.28000,
,,,0.050001700000,   2.28000,
,,,0.050001800000,   2.28000,
,,,0.050001900000,   2.28000,
,,,0.050002000000,   2.28000,
,,,0.050002100000,   2.28000,
,,,0.050002200000,   2.32000,
,,,0.050002300000,   2.32000,
,,,0.050002400000,   2.28000,
,,,0.050002500000,   2.28000,
,,,0.050002600000,   2.32000,
,,,0.050002700000,   2.28000,
,,,0.050002800000,   2.24000,
,,,0.050002900000,   2.28000,
,,,0.050003000000,   2.28000,
,,,0.050003100000,   2.32000,
,,,0.050003200000,   2.32000,
,,,0.050003300000,   2.32000,
,,,0.050003400000,   2.32000,
,,,0.050003500000,   2.28000,
,,,0.050003600000,   2.32000,
,,,0.050003700000,   2.32000,
,,,0.050003800000,   2.32000,
,,,0.050003900000,   2.32000,
,,,0.050004000000,   2.32000,
,,,0.050004100000,   2.32000,
,,,0.050004200000,   2.32000,
,,,0.050004300000,   2.32000,
,,,0.050004400000,   2.32000,
,,,0.050004500000,   2.32000,
,,,0.050004600000,   2.28000,
,,,0.050004700000,   2.32000,
,,,0.050004800000,   2.32000,
,,,0.050004900000,   2.36000,
,,,0.050005000000,   2.36000,
,,,0.050005100000,   2.36000,
,,,0.050005200000,   2.36000,
,,,0.050005300000,   2.36000,
,,,0.050005400000,   2.40000,
,,,0.050005500000,   2.36000,
,,,0.050005600000,   2.32000,
,,,0.050005700000,   2.36000,
,,,0.050005800000,   2.36000,
,,,0.050005900000,   2.36000,
,,,0.050006000000,   2.36000,
,,,0.050006100000,   2.40000,
,,,0.050006200000,   2.36000,
,,,0.050006300000,   2.36000,
,,,0.050006400000,   2.36000,
,,,0.050006500000,   2.40000,
,,,0.050006600000,   2.44000,
,,,0.050006700000,   2.36000,
,,,0.050006800000,   2.36000,
,,,0.050006900000,   2.36000,
,,,0.050007000000,   2.36000,
,,,0.050007100000,   2.40000,
,,,0.050007200000,   2.36000,
,,,0.050007300000,   2.40000,
,,,0.050007400000,   2.40000,
,,,0.050007500000,   2.36000,
,,,0.050007600000,   2.36000,
,,,0.050007700000,   2.36000,
,,,0.050007800000,   2.40000,
,,,0.050007900000,   2.36000,
,,,0.050008000000,   2.40000,
,,,0.050008100000,   2.40000,
,,,0.050008200000,   2.40000,
,,,0.050008300000,   2.40000,
,,,0.050008400000,   2.36000,
,,,0.050008500000,   2.40000,
,,,0.050008600000,   2.40000,
,,,0.050008700000,   2.40000,
,,,0.050008800000,   2.36000,
,,,0.050008900000,   2.36000,
,,,0.050009000000,   2.40000,
,,,0.050009100000,   2.40000,
,,,0.050009200000,   2.36000,
,,,0.050009300000,   2.32000,
,,,0.050009400000,   2.36000,
,,,0.050009500000,   2.28000,
,,,0.050009600000,   2.36000,
,,,0.050009700000,   2.36000,
,,,0.050009800000,   2.40000,
,,,0.050009900000,   2.40000,
,,,0.050010000000,   2.40000,
,,,0.050010100000,   2.36000,
,,,0.050010200000,   2.36000,
,,,0.050010300000,   2.40000,
,,,0.050010400000,   2.40000,
,,,0.050010500000,   2.40000,
,,,0.050010600000,   2.40000,
,,,0.050010700000,   2.40000,
,,,0.050010800000,   2.32000,
,,,0.050010900000,   2.36000,
,,,0.050011000000,   2.40000,
,,,0.050011100000,   2.32000,
,,,0.050011200000,   2.36000,
,,,0.050011300000,   2.36000,
,,,0.050011400000,   2.36000,
,,,0.050011500000,   2.40000,
,,,0.050011600000,   2.32000,
,,,0.050011700000,   2.36000,
,,,0.050011800000,   2.36000,
,,,0.050011900000,   2.36000,
,,,0.050012000000,   2.36000,
,,,0.050012100000,   2.40000,
,,,0.050012200000,   2.32000,
,,,0.050012300000,   2.36000,
,,,0.050012400000,   2.36000,
,,,0.050012500000,   2.36000,
,,,0.050012600000,   2.40000,
,,,0.050012700000,   2.32000,
,,,0.050012800000,   2.36000,
,,,0.050012900000,   2.36000,
,,,0.050013000000,   2.32000,
,,,0.050013100000,   2.32000,
,,,0.050013200000,   2.32000,
,,,0.050013300000,   2.36000,
,,,0.050013400000,   2.32000,
,,,0.050013500000,   2.32000,
,,,0.050013600000,   2.32000,
,,,0.050013700000,   2.28000,
,,,0.050013800000,   2.32000,
,,,0.050013900000,   2.36000,
,,,0.050014000000,   2.32000,
,,,0.050014100000,   2.32000,
,,,0.050014200000,   2.36000,
,,,0.050014300000,   2.32000,
,,,0.050014400000,   2.32000,
,,,0.050014500000,   2.24000,
,,,0.050014600000,   2.32000,
,,,0.050014700000,   2.28000,
,,,0.050014800000,   2.32000,
,,,0.050014900000,   2.36000,
,,,0.050015000000,   2.32000,
,,,0.050015100000,   2.32000,
,,,0.050015200000,   2.32000,
,,,0.050015300000,   2.32000,
,,,0.050015400000,   2.36000,
,,,0.050015500000,   2.32000,
,,,0.050015600000,   2.32000,
,,,0.050015700000,   2.28000,
,,,0.050015800000,   2.32000,
,,,0.050015900000,   2.32000,
,,,0.050016000000,   2.28000,
,,,0.050016100000,   2.28000,
,,,0.050016200000,   2.28000,
,,,0.050016300000,   2.24000,
,,,0.050016400000,   2.28000,
,,,0.050016500000,   2.28000,
,,,0.050016600000,   2.28000,
,,,0.050016700000,   2.28000,
,,,0.050016800000,   2.28000,
,,,0.050016900000,   2.24000,
,,,0.050017000000,   2.28000,
,,,0.050017100000,   2.28000,
,,,0.050017200000,   2.28000,
,,,0.050017300000,   2.32000,
,,,0.050017400000,   2.28000,
,,,0.050017500000,   2.24000,
,,,0.050017600000,   2.32000,
,,,0.050017700000,   2.28000,
,,,0.050017800000,   2.20000,
,,,0.050017900000,   2.28000,
,,,0.050018000000,   2.20000,
,,,0.050018100000,   2.24000,
,,,0.050018200000,   2.28000,
,,,0.050018300000,   2.28000,
,,,0.050018400000,   2.24000,
,,,0.050018500000,   2.24000,
,,,0.050018600000,   2.20000,
,,,0.050018700000,   2.24000,
,,,0.050018800000,   2.24000,
,,,0.050018900000,   2.20000,
,,,0.050019000000,   2.20000,
,,,0.050019100000,   2.24000,
,,,0.050019200000,   2.20000,
,,,0.050019300000,   2.20000,
,,,0.050019400000,   2.20000,
,,,0.050019500000,   2.20000,
,,,0.050019600000,   2.20000,
,,,0.050019700000,   2.24000,
,,,0.050019800000,   2.28000,
,,,0.050019900000,   2.24000,
,,,0.050020000000,   2.24000,
,,,0.050020100000,   2.20000,
,,,0.050020200000,   2.24000,
,,,0.050020300000,   2.24000,
,,,0.050020400000,   2.28000,
,,,0.050020500000,   2.24000,
,,,0.050020600000,   2.28000,
,,,0.050020700000,   2.24000,
,,,0.050020800000,   2.20000,
,,,0.050020900000,   2.20000,
,,,0.050021000000,   2.20000,
,,,0.050021100000,   2.20000,
,,,0.050021200000,   2.20000,
,,,0.050021300000,   2.20000,
,,,0.050021400000,   2.24000,
,,,0.050021500000,   2.24000,
,,,0.050021600000,   2.20000,
,,,0.050021700000,   2.24000,
,,,0.050021800000,   2.20000,
,,,0.050021900000,   2.20000,
,,,0.050022000000,   2.24000,
,,,0.050022100000,   2.20000,
,,,0.050022200000,   2.24000,
,,,0.050022300000,   2.16000,
,,,0.050022400000,   2.20000,
,,,0.050022500000,   2.20000,
,,,0.050022600000,   2.16000,
,,,0.050022700000,   2.12000,
,,,0.050022800000,   2.16000,
,,,0.050022900000,   2.20000,
,,,0.050023000000,   2.24000,
,,,0.050023100000,   2.20000,
,,,0.050023200000,   2.24000,
,,,0.050023300000,   2.16000,
,,,0.050023400000,   2.20000,
,,,0.050023500000,   2.20000,
,,,0.050023600000,   2.20000,
,,,0.050023700000,   2.16000,
,,,0.050023800000,   2.16000,
,,,0.050023900000,   2.20000,
,,,0.050024000000,   2.20000,
,,,0.050024100000,   2.20000,
,,,0.050024200000,   2.20000,
,,,0.050024300000,   2.20000,
,,,0.050024400000,   2.08000,
,,,0.050024500000,   2.16000,
,,,0.050024600000,   2.12000,
,,,0.050024700000,   2.16000,
,,,0.050024800000,   2.20000,
,,,0.050024900000,   2.24000,
,,,0.050025000000,   2.20000,
,,,0.050025100000,   2.20000,
,,,0.050025200000,   2.20000,
,,,0.050025300000,   2.20000,
,,,0.050025400000,   2.20000,
,,,0.050025500000,   2.20000,
,,,0.050025600000,   2.16000,
,,,0.050025700000,   2.16000,
,,,0.050025800000,   2.20000,
,,,0.050025900000,   2.20000,
,,,0.050026000000,   2.20000,
,,,0.050026100000,   2.20000,
,,,0.050026200000,   2.12000,
,,,0.050026300000,   2.16000,
,,,0.050026400000,   2.20000,
,,,0.050026500000,   2.16000,
,,,0.050026600000,   2.20000,
,,,0.050026700000,   2.16000,
,,,0.050026800000,   2.20000,
,,,0.050026900000,   2.24000,
,,,0.050027000000,   2.20000,
,,,0.050027100000,   2.20000,
,,,0.050027200000,   2.16000,
,,,0.050027300000,   2.20000,
,,,0.050027400000,   2.20000,
,,,0.050027500000,   2.16000,
,,,0.050027600000,   2.20000,
,,,0.050027700000,   2.16000,
,,,0.050027800000,   2.16000,
,,,0.050027900000,   2.16000,
,,,0.050028000000,   2.16000,
,,,0.050028100000,   2.16000,
,,,0.050028200000,   2.20000,
,,,0.050028300000,   2.16000,
,,,0.050028400000,   2.16000,
,,,0.050028500000,   2.16000,
,,,0.050028600000,   2.16000,
,,,0.050028700000,   2.12000,
,,,0.050028800000,   2.16000,
,,,0.050028900000,   2.16000,
,,,0.050029000000,   2.16000,
,,,0.050029100000,   2.12000,
,,,0.050029200000,   2.12000,
,,,0.050029300000,   2.12000,
,,,0.050029400000,   2.16000,
,,,0.050029500000,   2.16000,
,,,0.050029600000,   2.16000,
,,,0.050029700000,   2.16000,
,,,0.050029800000,   2.16000,
,,,0.050029900000,   2.16000,
,,,0.050030000000,   2.16000,
,,,0.050030100000,   2.16000,
,,,0.050030200000,   2.20000,
,,,0.050030300000,   2.12000,
,,,0.050030400000,   2.16000,
,,,0.050030500000,   2.20000,
,,,0.050030600000,   2.16000,
,,,0.050030700000,   2.12000,
,,,0.050030800000,   2.16000,
,,,0.050030900000,   2.12000,
,,,0.050031000000,   2.16000,
,,,0.050031100000,   2.20000,
,,,0.050031200000,   2.16000,
,,,0.050031300000,   2.20000,
,,,0.050031400000,   2.12000,
,,,0.050031500000,   2.16000,
,,,0.050031600000,   2.16000,
,,,0.050031700000,   2.16000,
,,,0.050031800000,   2.16000,
,,,0.050031900000,   2.24000,
,,,0.050032000000,   2.16000,
,,,0.050032100000,   2.12000,
,,,0.050032200000,   2.12000,
,,,0.050032300000,   2.16000,
,,,0.050032400000,   2.16000,
,,,0.050032500000,   2.12000,
,,,0.050032600000,   2.12000,
,,,0.050032700000,   2.16000,
,,,0.050032800000,   2.08000,
,,,0.050032900000,   2.16000,
,,,0.050033000000,   2.16000,
,,,0.050033100000,   2.20000,
,,,0.050033200000,   2.16000,
,,,0.050033300000,   2.12000,
,,,0.050033400000,   2.12000,
,,,0.050033500000,   2.12000,
,,,0.050033600000,   2.12000,
,,,0.050033700000,   2.12000,
,,,0.050033800000,   2.08000,
,,,0.050033900000,   2.08000,
,,,0.050034000000,   2.12000,
,,,0.050034100000,   2.12000,
,,,0.050034200000,   2.12000,
,,,0.050034300000,   2.08000,
,,,0.050034400000,   2.12000,
,,,0.050034500000,   2.08000,
,,,0.050034600000,   2.12000,
,,,0.050034700000,   2.12000,
,,,0.050034800000,   2.16000,
,,,0.050034900000,   2.12000,
,,,0.050035000000,   2.08000,
,,,0.050035100000,   2.12000,
,,,0.050035200000,   2.12000,
,,,0.050035300000,   2.16000,
,,,0.050035400000,   2.08000,
,,,0.050035500000,   2.12000,
,,,0.050035600000,   2.08000,
,,,0.050035700000,   2.08000,
,,,0.050035800000,   2.08000,
,,,0.050035900000,   2.12000,
,,,0.050036000000,   2.04000,
,,,0.050036100000,   2.12000,
,,,0.050036200000,   2.12000,
,,,0.050036300000,   2.12000,
,,,0.050036400000,   2.08000,
,,,0.050036500000,   2.08000,
,,,0.050036600000,   2.08000,
,,,0.050036700000,   2.08000,
,,,0.050036800000,   2.04000,
,,,0.050036900000,   2.12000,
,,,0.050037000000,   2.08000,
,,,0.050037100000,   2.12000,
,,,0.050037200000,   2.12000,
,,,0.050037300000,   2.08000,
,,,0.050037400000,   2.08000,
,,,0.050037500000,   2.08000,
,,,0.050037600000,   2.08000,
,,,0.050037700000,   2.12000,
,,,0.050037800000,   2.12000,
,,,0.050037900000,   2.08000,
,,,0.050038000000,   2.08000,
,,,0.050038100000,   2.08000,
,,,0.050038200000,   2.08000,
,,,0.050038300000,   2.08000,
,,,0.050038400000,   2.04000,
,,,0.050038500000,   2.04000,
,,,0.050038600000,   2.04000,
,,,0.050038700000,   2.08000,
,,,0.050038800000,   2.04000,
,,,0.050038900000,   2.04000,
,,,0.050039000000,   2.04000,
,,,0.050039100000,   2.00000,
,,,0.050039200000,   2.00000,
,,,0.050039300000,   2.08000,
,,,0.050039400000,   2.00000,
,,,0.050039500000,   2.08000,
,,,0.050039600000,   2.08000,
,,,0.050039700000,   2.08000,
,,,0.050039800000,   2.12000,
,,,0.050039900000,   2.04000,
,,,0.050040000000,   2.08000,
,,,0.050040100000,   2.08000,
,,,0.050040200000,   2.12000,
,,,0.050040300000,   2.08000,
,,,0.050040400000,   2.12000,
,,,0.050040500000,   2.00000,
,,,0.050040600000,   2.08000,
,,,0.050040700000,   2.08000,
,,,0.050040800000,   2.04000,
,,,0.050040900000,   2.08000,
,,,0.050041000000,   2.12000,
,,,0.050041100000,   2.08000,
,,,0.050041200000,   2.12000,
,,,0.050041300000,   2.08000,
,,,0.050041400000,   2.08000,
,,,0.050041500000,   2.12000,
,,,0.050041600000,   2.08000,
,,,0.050041700000,   2.08000,
,,,0.050041800000,   2.16000,
,,,0.050041900000,   2.08000,
,,,0.050042000000,   2.12000,
,,,0.050042100000,   2.12000,
,,,0.050042200000,   2.12000,
,,,0.050042300000,   2.16000,
,,,0.050042400000,   2.04000,
,,,0.050042500000,   2.12000,
,,,0.050042600000,   2.12000,
,,,0.050042700000,   2.08000,
,,,0.050042800000,   2.16000,
,,,0.050042900000,   2.12000,
,,,0.050043000000,   2.12000,
,,,0.050043100000,   2.12000,
,,,0.050043200000,   2.08000,
,,,0.050043300000,   2.12000,
,,,0.050043400000,   2.12000,
,,,0.050043500000,   2.08000,
,,,0.050043600000,   2.12000,
,,,0.050043700000,   2.12000,
,,,0.050043800000,   2.08000,
,,,0.050043900000,   2.08000,
,,,0.050044000000,   2.12000,
,,,0.050044100000,   2.16000,
,,,0.050044200000,   2.08000,
,,,0.050044300000,   2.08000,
,,,0.050044400000,   2.12000,
,,,0.050044500000,   2.12000,
,,,0.050044600000,   2.12000,
,,,0.050044700000,   2.12000,
,,,0.050044800000,   2.12000,
,,,0.050044900000,   2.12000,
,,,0.050045000000,   2.16000,
,,,0.050045100000,   2.12000,
,,,0.050045200000,   2.20000,
,,,0.050045300000,   2.16000,
,,,0.050045400000,   2.16000,
,,,0.050045500000,   2.12000,
,,,0.050045600000,   2.08000,
,,,0.050045700000,   2.08000,
,,,0.050045800000,   2.16000,
,,,0.050045900000,   2.08000,
,,,0.050046000000,   2.12000,
,,,0.050046100000,   2.12000,
,,,0.050046200000,   2.12000,
,,,0.050046300000,   2.08000,
,,,0.050046400000,   2.12000,
,,,0.050046500000,   2.08000,
,,,0.050046600000,   2.04000,
,,,0.050046700000,   2.08000,
,,,0.050046800000,   2.16000,
,,,0.050046900000,   2.12000,
,,,0.050047000000,   2.12000,
,,,0.050047100000,   2.12000,
,,,0.050047200000,   2.12000,
,,,0.050047300000,   2.12000,
,,,0.050047400000,   2.08000,
,,,0.050047500000,   2.08000,
,,,0.050047600000,   2.08000,
,,,0.050047700000,   2.08000,
,,,0.050047800000,   2.08000,
,,,0.050047900000,   2.12000,
,,,0.050048000000,   2.08000,
,,,0.050048100000,   2.08000,
,,,0.050048200000,   2.04000,
,,,0.050048300000,   2.08000,
,,,0.050048400000,   2.08000,
,,,0.050048500000,   2.04000,
,,,0.050048600000,   2.12000,
,,,0.050048700000,   2.08000,
,,,0.050048800000,   2.04000,
,,,0.050048900000,   2.04000,
,,,0.050049000000,   2.04000,
,,,0.050049100000,   2.00000,
,,,0.050049200000,   2.08000,
,,,0.050049300000,   2.08000,
,,,0.050049400000,   2.12000,
,,,0.050049500000,   2.08000,
,,,0.050049600000,   2.08000,
,,,0.050049700000,   2.12000,
,,,0.050049800000,   2.12000,
,,,0.050049900000,   2.08000,
,,,0.050050000000,   2.12000,
,,,0.050050100000,   2.16000,
,,,0.050050200000,   2.16000,
,,,0.050050300000,   2.12000,
,,,0.050050400000,   2.08000,
,,,0.050050500000,   2.08000,
,,,0.050050600000,   2.16000,
,,,0.050050700000,   2.08000,
,,,0.050050800000,   2.08000,
,,,0.050050900000,   2.12000,
,,,0.050051000000,   2.08000,
,,,0.050051100000,   2.16000,
,,,0.050051200000,   2.16000,
,,,0.050051300000,   2.16000,
,,,0.050051400000,   2.16000,
,,,0.050051500000,   2.12000,
,,,0.050051600000,   2.12000,
,,,0.050051700000,   2.16000,
,,,0.050051800000,   2.16000,
,,,0.050051900000,   2.12000,
,,,0.050052000000,   2.12000,
,,,0.050052100000,   2.12000,
,,,0.050052200000,   2.16000,
,,,0.050052300000,   2.12000,
,,,0.050052400000,   2.12000,
,,,0.050052500000,   2.12000,
,,,0.050052600000,   2.16000,
,,,0.050052700000,   2.16000,
,,,0.050052800000,   2.16000,
,,,0.050052900000,   2.20000,
,,,0.050053000000,   2.16000,
,,,0.050053100000,   2.20000,
,,,0.050053200000,   2.12000,
,,,0.050053300000,   2.16000,
,,,0.050053400000,   2.20000,
,,,0.050053500000,   2.16000,
,,,0.050053600000,   2.16000,
,,,0.050053700000,   2.16000,
,,,0.050053800000,   2.16000,
,,,0.050053900000,   2.12000,
,,,0.050054000000,   2.12000,
,,,0.050054100000,   2.12000,
,,,0.050054200000,   2.16000,
,,,0.050054300000,   2.20000,
,,,0.050054400000,   2.20000,
,,,0.050054500000,   2.24000,
,,,0.050054600000,   2.20000,
,,,0.050054700000,   2.20000,
,,,0.050054800000,   2.20000,
,,,0.050054900000,   2.20000,
,,,0.050055000000,   2.16000,
,,,0.050055100000,   2.20000,
,,,0.050055200000,   2.20000,
,,,0.050055300000,   2.20000,
,,,0.050055400000,   2.20000,
,,,0.050055500000,   2.20000,
,,,0.050055600000,   2.20000,
,,,0.050055700000,   2.24000,
,,,0.050055800000,   2.20000,
,,,0.050055900000,   2.16000,
,,,0.050056000000,   2.20000,
,,,0.050056100000,   2.20000,
,,,0.050056200000,   2.20000,
,,,0.050056300000,   2.20000,
,,,0.050056400000,   2.24000,
,,,0.050056500000,   2.20000,
,,,0.050056600000,   2.24000,
,,,0.050056700000,   2.24000,
,,,0.050056800000,   2.20000,
,,,0.050056900000,   2.20000,
,,,0.050057000000,   2.24000,
,,,0.050057100000,   2.24000,
,,,0.050057200000,   2.20000,
,,,0.050057300000,   2.24000,
,,,0.050057400000,   2.16000,
,,,0.050057500000,   2.24000,
,,,0.050057600000,   2.20000,
,,,0.050057700000,   2.24000,
,,,0.050057800000,   2.28000,
,,,0.050057900000,   2.20000,
,,,0.050058000000,   2.20000,
,,,0.050058100000,   2.16000,
,,,0.050058200000,   2.24000,
,,,0.050058300000,   2.20000,
,,,0.050058400000,   2.24000,
,,,0.050058500000,   2.20000,
,,,0.050058600000,   2.20000,
,,,0.050058700000,   2.20000,
,,,0.050058800000,   2.20000,
,,,0.050058900000,   2.16000,
,,,0.050059000000,   2.16000,
,,,0.050059100000,   2.20000,
,,,0.050059200000,   2.20000,
,,,0.050059300000,   2.24000,
,,,0.050059400000,   2.28000,
,,,0.050059500000,   2.24000,
,,,0.050059600000,   2.24000,
,,,0.050059700000,   2.24000,
,,,0.050059800000,   2.16000,
,,,0.050059900000,   2.28000,
,,,0.050060000000,   2.28000,
,,,0.050060100000,   2.20000,
,,,0.050060200000,   2.24000,
,,,0.050060300000,   2.24000,
,,,0.050060400000,   2.24000,
,,,0.050060500000,   2.24000,
,,,0.050060600000,   2.16000,
,,,0.050060700000,   2.24000,
,,,0.050060800000,   2.28000,
,,,0.050060900000,   2.20000,
,,,0.050061000000,   2.24000,
,,,0.050061100000,   2.28000,
,,,0.050061200000,   2.20000,
,,,0.050061300000,   2.24000,
,,,0.050061400000,   2.20000,
,,,0.050061500000,   2.24000,
,,,0.050061600000,   2.28000,
,,,0.050061700000,   2.28000,
,,,0.050061800000,   2.24000,
,,,0.050061900000,   2.24000,
,,,0.050062000000,   2.24000,
,,,0.050062100000,   2.24000,
,,,0.050062200000,   2.20000,
,,,0.050062300000,   2.20000,
,,,0.050062400000,   2.24000,
,,,0.050062500000,   2.20000,
,,,0.050062600000,   2.24000,
,,,0.050062700000,   2.24000,
,,,0.050062800000,   2.28000,
,,,0.050062900000,   2.28000,
,,,0.050063000000,   2.24000,
,,,0.050063100000,   2.20000,
,,,0.050063200000,   2.20000,
,,,0.050063300000,   2.24000,
,,,0.050063400000,   2.24000,
,,,0.050063500000,   2.20000,
,,,0.050063600000,   2.20000,
,,,0.050063700000,   2.20000,
,,,0.050063800000,   2.20000,
,,,0.050063900000,   2.20000,
,,,0.050064000000,   2.24000,
,,,0.050064100000,   2.24000,
,,,0.050064200000,   2.20000,
,,,0.050064300000,   2.24000,
,,,0.050064400000,   2.24000,
,,,0.050064500000,   2.24000,
,,,0.050064600000,   2.28000,
,,,0.050064700000,   2.24000,
,,,0.050064800000,   2.24000,
,,,0.050064900000,   2.28000,
,,,0.050065000000,   2.24000,
,,,0.050065100000,   2.28000,
,,,0.050065200000,   2.28000,
,,,0.050065300000,   2.20000,
,,,0.050065400000,   2.28000,
,,,0.050065500000,   2.24000,
,,,0.050065600000,   2.24000,
,,,0.050065700000,   2.24000,
,,,0.050065800000,   2.20000,
,,,0.050065900000,   2.24000,
,,,0.050066000000,   2.20000,
,,,0.050066100000,   2.24000,
,,,0.050066200000,   2.28000,
,,,0.050066300000,   2.28000,
,,,0.050066400000,   2.24000,
,,,0.050066500000,   2.28000,
,,,0.050066600000,   2.28000,
,,,0.050066700000,   2.28000,
,,,0.050066800000,   2.28000,
,,,0.050066900000,   2.28000,
,,,0.050067000000,   2.24000,
,,,0.050067100000,   2.20000,
,,,0.050067200000,   2.24000,
,,,0.050067300000,   2.20000,
,,,0.050067400000,   2.24000,
,,,0.050067500000,   2.24000,
,,,0.050067600000,   2.24000,
,,,0.050067700000,   2.24000,
,,,0.050067800000,   2.24000,
,,,0.050067900000,   2.24000,
,,,0.050068000000,   2.24000,
,,,0.050068100000,   2.20000,
,,,0.050068200000,   2.28000,
,,,0.050068300000,   2.28000,
,,,0.050068400000,   2.24000,
,,,0.050068500000,   2.20000,
,,,0.050068600000,   2.24000,
,,,0.050068700000,   2.24000,
,,,0.050068800000,   2.20000,
,,,0.050068900000,   2.24000,
,,,0.050069000000,   2.24000,
,,,0.050069100000,   2.20000,
,,,0.050069200000,   2.28000,
,,,0.050069300000,   2.32000,
,,,0.050069400000,   2.28000,
,,,0.050069500000,   2.24000,
,,,0.050069600000,   2.24000,
,,,0.050069700000,   2.24000,
,,,0.050069800000,   2.24000,
,,,0.050069900000,   2.24000,
,,,0.050070000000,   2.28000,
,,,0.050070100000,   2.28000,
,,,0.050070200000,   2.24000,
,,,0.050070300000,   2.24000,
,,,0.050070400000,   2.24000,
,,,0.050070500000,   2.20000,
,,,0.050070600000,   2.24000,
,,,0.050070700000,   2.28000,
,,,0.050070800000,   2.24000,
,,,0.050070900000,   2.24000,
,,,0.050071000000,   2.28000,
,,,0.050071100000,   2.24000,
,,,0.050071200000,   2.28000,
,,,0.050071300000,   2.24000,
,,,0.050071400000,   2.24000,
,,,0.050071500000,   2.28000,
,,,0.050071600000,   2.24000,
,,,0.050071700000,   2.28000,
,,,0.050071800000,   2.24000,
,,,0.050071900000,   2.24000,
,,,0.050072000000,   2.28000,
,,,0.050072100000,   2.24000,
,,,0.050072200000,   2.20000,
,,,0.050072300000,   2.24000,
,,,0.050072400000,   2.20000,
,,,0.050072500000,   2.28000,
,,,0.050072600000,   2.24000,
,,,0.050072700000,   2.28000,
,,,0.050072800000,   2.24000,
,,,0.050072900000,   2.28000,
,,,0.050073000000,   2.24000,
,,,0.050073100000,   2.28000,
,,,0.050073200000,   2.24000,
,,,0.050073300000,   2.28000,
,,,0.050073400000,   2.28000,
,,,0.050073500000,   2.20000,
,,,0.050073600000,   2.24000,
,,,0.050073700000,   2.28000,
,,,0.050073800000,   2.24000,
,,,0.050073900000,   2.24000,
,,,0.050074000000,   2.24000,
,,,0.050074100000,   2.24000,
,,,0.050074200000,   2.24000,
,,,0.050074300000,   2.24000,
,,,0.050074400000,   2.24000,
,,,0.050074500000,   2.28000,
,,,0.050074600000,   2.28000,
,,,0.050074700000,   2.28000,
,,,0.050074800000,   2.28000,
,,,0.050074900000,   2.28000,
,,,0.050075000000,   2.28000,
,,,0.050075100000,   2.24000,
,,,0.050075200000,   2.28000,
,,,0.050075300000,   2.28000,
,,,0.050075400000,   2.24000,
,,,0.050075500000,   2.24000,
,,,0.050075600000,   2.24000,
,,,0.050075700000,   2.24000,
,,,0.050075800000,   2.24000,
,,,0.050075900000,   2.24000,
,,,0.050076000000,   2.24000,
,,,0.050076100000,   2.24000,
,,,0.050076200000,   2.24000,
,,,0.050076300000,   2.24000,
,,,0.050076400000,   2.28000,
,,,0.050076500000,   2.28000,
,,,0.050076600000,   2.28000,
,,,0.050076700000,   2.28000,
,,,0.050076800000,   2.28000,
,,,0.050076900000,   2.28000,
,,,0.050077000000,   2.28000,
,,,0.050077100000,   2.28000,
,,,0.050077200000,   2.24000,
,,,0.050077300000,   2.32000,
,,,0.050077400000,   2.28000,
,,,0.050077500000,   2.28000,
,,,0.050077600000,   2.36000,
,,,0.050077700000,   2.32000,
,,,0.050077800000,   2.28000,
,,,0.050077900000,   2.28000,
,,,0.050078000000,   2.32000,
,,,0.050078100000,   2.28000,
,,,0.050078200000,   2.24000,
,,,0.050078300000,   2.28000,
,,,0.050078400000,   2.28000,
,,,0.050078500000,   2.32000,
,,,0.050078600000,   2.28000,
,,,0.050078700000,   2.28000,
,,,0.050078800000,   2.24000,
,,,0.050078900000,   2.28000,
,,,0.050079000000,   2.28000,
,,,0.050079100000,   2.28000,
,,,0.050079200000,   2.32000,
,,,0.050079300000,   2.28000,
,,,0.050079400000,   2.24000,
,,,0.050079500000,   2.28000,
,,,0.050079600000,   2.32000,
,,,0.050079700000,   2.28000,
,,,0.050079800000,   2.32000,
,,,0.050079900000,   2.28000,
,,,0.050080000000,   2.28000,
,,,0.050080100000,   2.28000,
,,,0.050080200000,   2.28000,
,,,0.050080300000,   2.28000,
,,,0.050080400000,   2.24000,
,,,0.050080500000,   2.28000,
,,,0.050080600000,   2.28000,
,,,0.050080700000,   2.28000,
,,,0.050080800000,   2.28000,
,,,0.050080900000,   2.28000,
,,,0.050081000000,   2.28000,
,,,0.050081100000,   2.28000,
,,,0.050081200000,   2.28000,
,,,0.050081300000,   2.24000,
,,,0.050081400000,   2.36000,
,,,0.050081500000,   2.28000,
,,,0.050081600000,   2.28000,
,,,0.050081700000,   2.28000,
,,,0.050081800000,   2.28000,
,,,0.050081900000,   2.28000,
,,,0.050082000000,   2.28000,
,,,0.050082100000,   2.32000,
,,,0.050082200000,   2.28000,
,,,0.050082300000,   2.28000,
,,,0.050082400000,   2.28000,
,,,0.050082500000,   2.28000,
,,,0.050082600000,   2.28000,
,,,0.050082700000,   2.24000,
,,,0.050082800000,   2.32000,
,,,0.050082900000,   2.24000,
,,,0.050083000000,   2.32000,
,,,0.050083100000,   2.28000,
,,,0.050083200000,   2.28000,
,,,0.050083300000,   2.24000,
,,,0.050083400000,   2.28000,
,,,0.050083500000,   2.24000,
,,,0.050083600000,   2.28000,
,,,0.050083700000,   2.28000,
,,,0.050083800000,   2.24000,
,,,0.050083900000,   2.24000,
,,,0.050084000000,   2.24000,
,,,0.050084100000,   2.28000,
,,,0.050084200000,   2.24000,
,,,0.050084300000,   2.28000,
,,,0.050084400000,   2.28000,
,,,0.050084500000,   2.24000,
,,,0.050084600000,   2.24000,
,,,0.050084700000,   2.28000,
,,,0.050084800000,   2.28000,
,,,0.050084900000,   2.24000,
,,,0.050085000000,   2.24000,
,,,0.050085100000,   2.24000,
,,,0.050085200000,   2.32000,
,,,0.050085300000,   2.24000,
,,,0.050085400000,   2.24000,
,,,0.050085500000,   2.24000,
,,,0.050085600000,   2.24000,
,,,0.050085700000,   2.28000,
,,,0.050085800000,   2.24000,
,,,0.050085900000,   2.28000,
,,,0.050086000000,   2.28000,
,,,0.050086100000,   2.24000,
,,,0.050086200000,   2.24000,
,,,0.050086300000,   2.28000,
,,,0.050086400000,   2.32000,
,,,0.050086500000,   2.28000,
,,,0.050086600000,   2.28000,
,,,0.050086700000,   2.32000,
,,,0.050086800000,   2.28000,
,,,0.050086900000,   2.32000,
,,,0.050087000000,   2.28000,
,,,0.050087100000,   2.28000,
,,,0.050087200000,   2.28000,
,,,0.050087300000,   2.28000,
,,,0.050087400000,   2.28000,
,,,0.050087500000,   2.36000,
,,,0.050087600000,   2.32000,
,,,0.050087700000,   2.28000,
,,,0.050087800000,   2.28000,
,,,0.050087900000,   2.28000,
,,,0.050088000000,   2.32000,
,,,0.050088100000,   2.32000,
,,,0.050088200000,   2.28000,
,,,0.050088300000,   2.28000,
,,,0.050088400000,   2.32000,
,,,0.050088500000,   2.28000,
,,,0.050088600000,   2.28000,
,,,0.050088700000,   2.24000,
,,,0.050088800000,   2.28000,
,,,0.050088900000,   2.32000,
,,,0.050089000000,   2.36000,
,,,0.050089100000,   2.36000,
,,,0.050089200000,   2.40000,
,,,0.050089300000,   2.32000,
,,,0.050089400000,   2.32000,
,,,0.050089500000,   2.36000,
,,,0.050089600000,   2.36000,
,,,0.050089700000,   2.40000,
,,,0.050089800000,   2.36000,
,,,0.050089900000,   2.36000,
,,,0.050090000000,   2.36000,
,,,0.050090100000,   2.36000,
,,,0.050090200000,   2.32000,
,,,0.050090300000,   2.32000,
,,,0.050090400000,   2.36000,
,,,0.050090500000,   2.32000,
,,,0.050090600000,   2.32000,
,,,0.050090700000,   2.40000,
,,,0.050090800000,   2.36000,
,,,0.050090900000,   2.36000,
,,,0.050091000000,   2.40000,
,,,0.050091100000,   2.32000,
,,,0.050091200000,   2.32000,
,,,0.050091300000,   2.44000,
,,,0.050091400000,   2.36000,
,,,0.050091500000,   2.44000,
,,,0.050091600000,   2.36000,
,,,0.050091700000,   2.36000,
,,,0.050091800000,   2.36000,
,,,0.050091900000,   2.36000,
,,,0.050092000000,   2.36000,
,,,0.050092100000,   2.36000,
,,,0.050092200000,   2.36000,
,,,0.050092300000,   2.36000,
,,,0.050092400000,   2.40000,
,,,0.050092500000,   2.40000,
,,,0.050092600000,   2.40000,
,,,0.050092700000,   2.40000,
,,,0.050092800000,   2.40000,
,,,0.050092900000,   2.40000,
,,,0.050093000000,   2.40000,
,,,0.050093100000,   2.40000,
,,,0.050093200000,   2.36000,
,,,0.050093300000,   2.40000,
,,,0.050093400000,   2.36000,
,,,0.050093500000,   2.36000,
,,,0.050093600000,   2.40000,
,,,0.050093700000,   2.40000,
,,,0.050093800000,   2.32000,
,,,0.050093900000,   2.32000,
,,,0.050094000000,   2.40000,
,,,0.050094100000,   2.40000,
,,,0.050094200000,   2.40000,
,,,0.050094300000,   2.40000,
,,,0.050094400000,   2.40000,
,,,0.050094500000,   2.36000,
,,,0.050094600000,   2.40000,
,,,0.050094700000,   2.40000,
,,,0.050094800000,   2.44000,
,,,0.050094900000,   2.44000,
,,,0.050095000000,   2.40000,
,,,0.050095100000,   2.36000,
,,,0.050095200000,   2.40000,
,,,0.050095300000,   2.36000,
,,,0.050095400000,   2.40000,
,,,0.050095500000,   2.36000,
,,,0.050095600000,   2.40000,
,,,0.050095700000,   2.44000,
,,,0.050095800000,   2.40000,
,,,0.050095900000,   2.40000,
,,,0.050096000000,   2.36000,
,,,0.050096100000,   2.40000,
,,,0.050096200000,   2.36000,
,,,0.050096300000,   2.40000,
,,,0.050096400000,   2.40000,
,,,0.050096500000,   2.40000,
,,,0.050096600000,   2.40000,
,,,0.050096700000,   2.36000,
,,,0.050096800000,   2.36000,
,,,0.050096900000,   2.36000,
,,,0.050097000000,   2.32000,
,,,0.050097100000,   2.36000,
,,,0.050097200000,   2.36000,
,,,0.050097300000,   2.36000,
,,,0.050097400000,   2.36000,
,,,0.050097500000,   2.36000,
,,,0.050097600000,   2.32000,
,,,0.050097700000,   2.36000,
,,,0.050097800000,   2.32000,
,,,0.050097900000,   2.32000,
,,,0.050098000000,   2.36000,
,,,0.050098100000,   2.32000,
,,,0.050098200000,   2.32000,
,,,0.050098300000,   2.32000,
,,,0.050098400000,   2.32000,
,,,0.050098500000,   2.28000,
,,,0.050098600000,   2.28000,
,,,0.050098700000,   2.32000,
,,,0.050098800000,   2.32000,
,,,0.050098900000,   2.32000,
,,,0.050099000000,   2.36000,
,,,0.050099100000,   2.32000,
,,,0.050099200000,   2.32000,
,,,0.050099300000,   2.28000,
,,,0.050099400000,   2.36000,
,,,0.050099500000,   2.32000,
,,,0.050099600000,   2.40000,
,,,0.050099700000,   2.36000,
,,,0.050099800000,   2.32000,
,,,0.050099900000,   2.32000,
,,,0.050100000000,   2.28000,
,,,0.050100100000,   2.28000,
,,,0.050100200000,   2.28000,
,,,0.050100300000,   2.24000,
,,,0.050100400000,   2.28000,
,,,0.050100500000,   2.28000,
,,,0.050100600000,   2.32000,
,,,0.050100700000,   2.32000,
,,,0.050100800000,   2.24000,
,,,0.050100900000,   2.28000,
,,,0.050101000000,   2.28000,
,,,0.050101100000,   2.24000,
,,,0.050101200000,   2.32000,
,,,0.050101300000,   2.28000,
,,,0.050101400000,   2.32000,
,,,0.050101500000,   2.28000,
,,,0.050101600000,   2.32000,
,,,0.050101700000,   2.32000,
,,,0.050101800000,   2.24000,
,,,0.050101900000,   2.24000,
,,,0.050102000000,   2.28000,
,,,0.050102100000,   2.24000,
,,,0.050102200000,   2.28000,
,,,0.050102300000,   2.32000,
,,,0.050102400000,   2.28000,
,,,0.050102500000,   2.24000,
,,,0.050102600000,   2.28000,
,,,0.050102700000,   2.24000,
,,,0.050102800000,   2.24000,
,,,0.050102900000,   2.24000,
,,,0.050103000000,   2.28000,
,,,0.050103100000,   2.24000,
,,,0.050103200000,   2.28000,
,,,0.050103300000,   2.28000,
,,,0.050103400000,   2.24000,
,,,0.050103500000,   2.20000,
,,,0.050103600000,   2.20000,
,,,0.050103700000,   2.24000,
,,,0.050103800000,   2.20000,
,,,0.050103900000,   2.24000,
,,,0.050104000000,   2.28000,
,,,0.050104100000,   2.28000,
,,,0.050104200000,   2.28000,
,,,0.050104300000,   2.28000,
,,,0.050104400000,   2.20000,
,,,0.050104500000,   2.20000,
,,,0.050104600000,   2.28000,
,,,0.050104700000,   2.24000,
,,,0.050104800000,   2.20000,
,,,0.050104900000,   2.24000,
,,,0.050105000000,   2.20000,
,,,0.050105100000,   2.24000,
,,,0.050105200000,   2.24000,
,,,0.050105300000,   2.16000,
,,,0.050105400000,   2.20000,
,,,0.050105500000,   2.20000,
,,,0.050105600000,   2.24000,
,,,0.050105700000,   2.20000,
,,,0.050105800000,   2.24000,
,,,0.050105900000,   2.20000,
,,,0.050106000000,   2.16000,
,,,0.050106100000,   2.20000,
,,,0.050106200000,   2.24000,
,,,0.050106300000,   2.24000,
,,,0.050106400000,   2.24000,
,,,0.050106500000,   2.24000,
,,,0.050106600000,   2.20000,
,,,0.050106700000,   2.20000,
,,,0.050106800000,   2.24000,
,,,0.050106900000,   2.20000,
,,,0.050107000000,   2.20000,
,,,0.050107100000,   2.24000,
,,,0.050107200000,   2.20000,
,,,0.050107300000,   2.24000,
,,,0.050107400000,   2.16000,
,,,0.050107500000,   2.20000,
,,,0.050107600000,   2.16000,
,,,0.050107700000,   2.16000,
,,,0.050107800000,   2.16000,
,,,0.050107900000,   2.20000,
,,,0.050108000000,   2.16000,
,,,0.050108100000,   2.20000,
,,,0.050108200000,   2.16000,
,,,0.050108300000,   2.16000,
,,,0.050108400000,   2.16000,
,,,0.050108500000,   2.16000,
,,,0.050108600000,   2.16000,
,,,0.050108700000,   2.16000,
,,,0.050108800000,   2.20000,
,,,0.050108900000,   2.16000,
,,,0.050109000000,   2.24000,
,,,0.050109100000,   2.16000,
,,,0.050109200000,   2.16000,
,,,0.050109300000,   2.20000,
,,,0.050109400000,   2.16000,
,,,0.050109500000,   2.20000,
,,,0.050109600000,   2.20000,
,,,0.050109700000,   2.20000,
,,,0.050109800000,   2.20000,
,,,0.050109900000,   2.16000,
,,,0.050110000000,   2.20000,
,,,0.050110100000,   2.12000,
,,,0.050110200000,   2.12000,
,,,0.050110300000,   2.20000,
,,,0.050110400000,   2.16000,
,,,0.050110500000,   2.20000,
,,,0.050110600000,   2.16000,
,,,0.050110700000,   2.16000,
,,,0.050110800000,   2.20000,
,,,0.050110900000,   2.20000,
,,,0.050111000000,   2.16000,
,,,0.050111100000,   2.20000,
,,,0.050111200000,   2.16000,
,,,0.050111300000,   2.20000,
,,,0.050111400000,   2.16000,
,,,0.050111500000,   2.16000,
,,,0.050111600000,   2.16000,
,,,0.050111700000,   2.12000,
,,,0.050111800000,   2.12000,
,,,0.050111900000,   2.12000,
,,,0.050112000000,   2.16000,
,,,0.050112100000,   2.24000,
,,,0.050112200000,   2.20000,
,,,0.050112300000,   2.16000,
,,,0.050112400000,   2.12000,
,,,0.050112500000,   2.16000,
,,,0.050112600000,   2.20000,
,,,0.050112700000,   2.20000,
,,,0.050112800000,   2.16000,
,,,0.050112900000,   2.12000,
,,,0.050113000000,   2.20000,
,,,0.050113100000,   2.16000,
,,,0.050113200000,   2.16000,
,,,0.050113300000,   2.16000,
,,,0.050113400000,   2.12000,
,,,0.050113500000,   2.12000,
,,,0.050113600000,   2.16000,
,,,0.050113700000,   2.12000,
,,,0.050113800000,   2.16000,
,,,0.050113900000,   2.20000,
,,,0.050114000000,   2.16000,
,,,0.050114100000,   2.20000,
,,,0.050114200000,   2.16000,
,,,0.050114300000,   2.16000,
,,,0.050114400000,   2.12000,
,,,0.050114500000,   2.20000,
,,,0.050114600000,   2.16000,
,,,0.050114700000,   2.20000,
,,,0.050114800000,   2.16000,
,,,0.050114900000,   2.16000,
,,,0.050115000000,   2.16000,
,,,0.050115100000,   2.20000,
,,,0.050115200000,   2.16000,
,,,0.050115300000,   2.12000,
,,,0.050115400000,   2.12000,
,,,0.050115500000,   2.20000,
,,,0.050115600000,   2.16000,
,,,0.050115700000,   2.12000,
,,,0.050115800000,   2.20000,
,,,0.050115900000,   2.12000,
,,,0.050116000000,   2.16000,
,,,0.050116100000,   2.16000,
,,,0.050116200000,   2.16000,
,,,0.050116300000,   2.16000,
,,,0.050116400000,   2.16000,
,,,0.050116500000,   2.12000,
,,,0.050116600000,   2.16000,
,,,0.050116700000,   2.12000,
,,,0.050116800000,   2.12000,
,,,0.050116900000,   2.12000,
,,,0.050117000000,   2.16000,
,,,0.050117100000,   2.12000,
,,,0.050117200000,   2.20000,
,,,0.050117300000,   2.16000,
,,,0.050117400000,   2.12000,
,,,0.050117500000,   2.12000,
,,,0.050117600000,   2.12000,
,,,0.050117700000,   2.08000,
,,,0.050117800000,   2.12000,
,,,0.050117900000,   2.12000,
,,,0.050118000000,   2.12000,
,,,0.050118100000,   2.08000,
,,,0.050118200000,   2.12000,
,,,0.050118300000,   2.08000,
,,,0.050118400000,   2.08000,
,,,0.050118500000,   2.16000,
,,,0.050118600000,   2.12000,
,,,0.050118700000,   2.16000,
,,,0.050118800000,   2.16000,
,,,0.050118900000,   2.12000,
,,,0.050119000000,   2.12000,
,,,0.050119100000,   2.12000,
,,,0.050119200000,   2.08000,
,,,0.050119300000,   2.12000,
,,,0.050119400000,   2.12000,
,,,0.050119500000,   2.12000,
,,,0.050119600000,   2.12000,
,,,0.050119700000,   2.08000,
,,,0.050119800000,   2.08000,
,,,0.050119900000,   2.08000,
,,,0.050120000000,   2.08000,
,,,0.050120100000,   2.08000,
,,,0.050120200000,   2.12000,
,,,0.050120300000,   2.08000,
,,,0.050120400000,   2.12000,
,,,0.050120500000,   2.12000,
,,,0.050120600000,   2.08000,
,,,0.050120700000,   2.12000,
,,,0.050120800000,   2.12000,
,,,0.050120900000,   2.08000,
,,,0.050121000000,   2.12000,
,,,0.050121100000,   2.08000,
,,,0.050121200000,   2.08000,
,,,0.050121300000,   2.04000,
,,,0.050121400000,   2.04000,
,,,0.050121500000,   2.08000,
,,,0.050121600000,   2.04000,
,,,0.050121700000,   2.04000,
,,,0.050121800000,   2.08000,
,,,0.050121900000,   2.08000,
,,,0.050122000000,   2.12000,
,,,0.050122100000,   2.04000,
,,,0.050122200000,   2.08000,
,,,0.050122300000,   2.04000,
,,,0.050122400000,   2.04000,
,,,0.050122500000,   2.04000,
,,,0.050122600000,   2.08000,
,,,0.050122700000,   2.12000,
,,,0.050122800000,   2.04000,
,,,0.050122900000,   2.04000,
,,,0.050123000000,   2.04000,
,,,0.050123100000,   2.08000,
,,,0.050123200000,   2.04000,
,,,0.050123300000,   2.04000,
,,,0.050123400000,   2.00000,
,,,0.050123500000,   2.04000,
,,,0.050123600000,   2.00000,
,,,0.050123700000,   2.08000,
,,,0.050123800000,   2.08000,
,,,0.050123900000,   2.08000,
,,,0.050124000000,   2.08000,
,,,0.050124100000,   2.04000,
,,,0.050124200000,   2.04000,
,,,0.050124300000,   2.04000,
,,,0.050124400000,   2.08000,
,,,0.050124500000,   2.08000,
,,,0.050124600000,   2.12000,
,,,0.050124700000,   2.08000,
,,,0.050124800000,   2.04000,
,,,0.050124900000,   2.08000,
