Record Length,2.500000e+03,,   0.048750000000,   4.00000,
Sample Interval,1.000000e-06,,   0.048751000000,   4.00000,
Trigger Point,-4.875000000000e+04,,   0.048752000000,   4.00000,
,,,   0.048753000000,   4.00000,
,,,   0.048754000000,   3.92000,
,,,   0.048755000000,   3.92000,
Source,CH2,,   0.048756000000,   3.84000,
Vertical Units,V,,   0.048757000000,   3.92000,
Vertical Scale,2.000000e+00,,   0.048758000000,   3.84000,
Vertical Offset,-7.440000e+00,,   0.048759000000,   3.84000,
Horizontal Units,s,,   0.048760000000,   3.76000,
Horizontal Scale,2.500000e-04,,   0.048761000000,   3.76000,
Pt Fmt,Y,,   0.048762000000,   3.76000,
Yzero,0.000000e+00,,   0.048763000000,   3.76000,
Probe Atten,1.000000e+00,,   0.048764000000,   3.68000,
Model Number,TDS2004B,,   0.048765000000,   3.68000,
Serial Number,C020251,,   0.048766000000,   3.68000,
Firmware Version,FV:v22.16,,   0.048767000000,   3.60000,
,,,0.048768000000,   3.60000,
,,,0.048769000000,   3.60000,
,,,0.048770000000,   3.60000,
,,,0.048771000000,   3.52000,
,,,0.048772000000,   3.52000,
,,,0.048773000000,   3.52000,
,,,0.048774000000,   3.44000,
,,,0.048775000000,   3.36000,
,,,0.048776000000,   3.36000,
,,,0.048777000000,   3.36000,
,,,0.048778000000,   3.36000,
,,,0.048779000000,   3.36000,
,,,0.048780000000,   3.28000,
,,,0.048781000000,   3.28000,
,,,0.048782000000,   3.28000,
,,,0.048783000000,   3.20000,
,,,0.048784000000,   3.20000,
,,,0.048785000000,   3.20000,
,,,0.048786000000,   3.12000,
,,,0.048787000000,   3.20000,
,,,0.048788000000,   3.12000,
,,,0.048789000000,   3.12000,
,,,0.048790000000,   3.04000,
,,,0.048791000000,   3.12000,
,,,0.048792000000,   2.96000,
,,,0.048793000000,   2.96000,
,,,0.048794000000,   2.96000,
,,,0.048795000000,   2.96000,
,,,0.048796000000,   2.88000,
,,,0.048797000000,   2.96000,
,,,0.048798000000,   2.88000,
,,,0.048799000000,   2.80000,
,,,0.048800000000,   2.88000,
,,,0.048801000000,   2.80000,
,,,0.048802000000,   2.80000,
,,,0.048803000000,   2.80000,
,,,0.048804000000,   2.80000,
,,,0.048805000000,   2.72000,
,,,0.048806000000,   2.72000,
,,,0.048807000000,   2.72000,
,,,0.048808000000,   2.64000,
,,,0.048809000000,   2.64000,
,,,0.048810000000,   2.64000,
,,,0.048811000000,   2.64000,
,,,0.048812000000,   2.64000,
,,,0.048813000000,   2.56000,
,,,0.048814000000,   2.56000,
,,,0.048815000000,   2.56000,
,,,0.048816000000,   2.56000,
,,,0.048817000000,   2.56000,
,,,0.048818000000,   2.48000,
,,,0.048819000000,   2.48000,
,,,0.048820000000,   2.48000,
,,,0.048821000000,   2.48000,
,,,0.048822000000,   2.48000,
,,,0.048823000000,   2.40000,
,,,0.048824000000,   2.48000,
,,,0.048825000000,   2.40000,
,,,0.048826000000,   2.48000,
,,,0.048827000000,   2.40000,
,,,0.048828000000,   2.40000,
,,,0.048829000000,   2.40000,
,,,0.048830000000,   2.40000,
,,,0.048831000000,   2.40000,
,,,0.048832000000,   2.40000,
,,,0.048833000000,   2.40000,
,,,0.048834000000,   2.40000,
,,,0.048835000000,   2.40000,
,,,0.048836000000,   2.40000,
,,,0.048837000000,   2.40000,
,,,0.048838000000,   2.40000,
,,,0.048839000000,   2.40000,
,,,0.048840000000,   2.40000,
,,,0.048841000000,   2.40000,
,,,0.048842000000,   2.40000,
,,,0.048843000000,   2.40000,
,,,0.048844000000,   2.40000,
,,,0.048845000000,   2.40000,
,,,0.048846000000,   2.40000,
,,,0.048847000000,   2.40000,
,,,0.048848000000,   2.40000,
,,,0.048849000000,   2.40000,
,,,0.048850000000,   2.40000,
,,,0.048851000000,   2.40000,
,,,0.048852000000,   2.40000,
,,,0.048853000000,   2.48000,
,,,0.048854000000,   2.40000,
,,,0.048855000000,   2.40000,
,,,0.048856000000,   2.40000,
,,,0.048857000000,   2.48000,
,,,0.048858000000,   2.56000,
,,,0.048859000000,   2.48000,
,,,0.048860000000,   2.48000,
,,,0.048861000000,   2.48000,
,,,0.048862000000,   2.56000,
,,,0.048863000000,   2.56000,
,,,0.048864000000,   2.56000,
,,,0.048865000000,   2.56000,
,,,0.048866000000,   2.64000,
,,,0.048867000000,   2.64000,
,,,0.048868000000,   2.72000,
,,,0.048869000000,   2.72000,
,,,0.048870000000,   2.64000,
,,,0.048871000000,   2.72000,
,,,0.048872000000,   2.72000,
,,,0.048873000000,   2.72000,
,,,0.048874000000,   2.72000,
,,,0.048875000000,   2.80000,
,,,0.048876000000,   2.80000,
,,,0.048877000000,   2.80000,
,,,0.048878000000,   2.88000,
,,,0.048879000000,   2.88000,
,,,0.048880000000,   2.88000,
,,,0.048881000000,   2.88000,
,,,0.048882000000,   2.96000,
,,,0.048883000000,   2.96000,
,,,0.048884000000,   3.04000,
,,,0.048885000000,   3.04000,
,,,0.048886000000,   3.04000,
,,,0.048887000000,   3.12000,
,,,0.048888000000,   3.12000,
,,,0.048889000000,   3.12000,
,,,0.048890000000,   3.12000,
,,,0.048891000000,   3.20000,
,,,0.048892000000,   3.20000,
,,,0.048893000000,   3.20000,
,,,0.048894000000,   3.28000,
,,,0.048895000000,   3.28000,
,,,0.048896000000,   3.28000,
,,,0.048897000000,   3.28000,
,,,0.048898000000,   3.36000,
,,,0.048899000000,   3.36000,
,,,0.048900000000,   3.36000,
,,,0.048901000000,   3.44000,
,,,0.048902000000,   3.52000,
,,,0.048903000000,   3.52000,
,,,0.048904000000,   3.52000,
,,,0.048905000000,   3.52000,
,,,0.048906000000,   3.60000,
,,,0.048907000000,   3.60000,
,,,0.048908000000,   3.60000,
,,,0.048909000000,   3.60000,
,,,0.048910000000,   3.60000,
,,,0.048911000000,   3.68000,
,,,0.048912000000,   3.76000,
,,,0.048913000000,   3.76000,
,,,0.048914000000,   3.76000,
,,,0.048915000000,   3.76000,
,,,0.048916000000,   3.84000,
,,,0.048917000000,   3.92000,
,,,0.048918000000,   3.92000,
,,,0.048919000000,   3.92000,
,,,0.048920000000,   3.92000,
,,,0.048921000000,   4.00000,
,,,0.048922000000,   4.00000,
,,,0.048923000000,   4.00000,
,,,0.048924000000,   4.00000,
,,,0.048925000000,   4.08000,
,,,0.048926000000,   4.00000,
,,,0.048927000000,   4.08000,
,,,0.048928000000,   4.08000,
,,,0.048929000000,   4.08000,
,,,0.048930000000,   4.08000,
,,,0.048931000000,   4.08000,
,,,0.048932000000,   4.16000,
,,,0.048933000000,   4.16000,
,,,0.048934000000,   4.16000,
,,,0.048935000000,   4.16000,
,,,0.048936000000,   4.24000,
,,,0.048937000000,   4.24000,
,,,0.048938000000,   4.24000,
,,,0.048939000000,   4.32000,
,,,0.048940000000,   4.24000,
,,,0.048941000000,   4.24000,
,,,0.048942000000,   4.32000,
,,,0.048943000000,   4.32000,
,,,0.048944000000,   4.32000,
,,,0.048945000000,   4.32000,
,,,0.048946000000,   4.40000,
,,,0.048947000000,   4.40000,
,,,0.048948000000,   4.40000,
,,,0.048949000000,   4.40000,
,,,0.048950000000,   4.40000,
,,,0.048951000000,   4.40000,
,,,0.048952000000,   4.40000,
,,,0.048953000000,   4.40000,
,,,0.048954000000,   4.40000,
,,,0.048955000000,   4.48000,
,,,0.048956000000,   4.48000,
,,,0.048957000000,   4.48000,
,,,0.048958000000,   4.48000,
,,,0.048959000000,   4.48000,
,,,0.048960000000,   4.48000,
,,,0.048961000000,   4.48000,
,,,0.048962000000,   4.48000,
,,,0.048963000000,   4.48000,
,,,0.048964000000,   4.48000,
,,,0.048965000000,   4.48000,
,,,0.048966000000,   4.48000,
,,,0.048967000000,   4.40000,
,,,0.048968000000,   4.48000,
,,,0.048969000000,   4.48000,
,,,0.048970000000,   4.48000,
,,,0.048971000000,   4.48000,
,,,0.048972000000,   4.48000,
,,,0.048973000000,   4.40000,
,,,0.048974000000,   4.40000,
,,,0.048975000000,   4.48000,
,,,0.048976000000,   4.40000,
,,,0.048977000000,   4.40000,
,,,0.048978000000,   4.40000,
,,,0.048979000000,   4.40000,
,,,0.048980000000,   4.40000,
,,,0.048981000000,   4.40000,
,,,0.048982000000,   4.32000,
,,,0.048983000000,   4.40000,
,,,0.048984000000,   4.40000,
,,,0.048985000000,   4.32000,
,,,0.048986000000,   4.40000,
,,,0.048987000000,   4.32000,
,,,0.048988000000,   4.24000,
,,,0.048989000000,   4.24000,
,,,0.048990000000,   4.24000,
,,,0.048991000000,   4.24000,
,,,0.048992000000,   4.24000,
,,,0.048993000000,   4.16000,
,,,0.048994000000,   4.16000,
,,,0.048995000000,   4.16000,
,,,0.048996000000,   4.16000,
,,,0.048997000000,   4.08000,
,,,0.048998000000,   4.08000,
,,,0.048999000000,   4.08000,
,,,0.049000000000,   4.08000,
,,,0.049001000000,   4.08000,
,,,0.049002000000,   4.00000,
,,,0.049003000000,   4.00000,
,,,0.049004000000,   4.00000,
,,,0.049005000000,   4.00000,
,,,0.049006000000,   3.92000,
,,,0.049007000000,   4.00000,
,,,0.049008000000,   3.92000,
,,,0.049009000000,   3.92000,
,,,0.049010000000,   3.92000,
,,,0.049011000000,   3.84000,
,,,0.049012000000,   3.84000,
,,,0.049013000000,   3.76000,
,,,0.049014000000,   3.76000,
,,,0.049015000000,   3.76000,
,,,0.049016000000,   3.68000,
,,,0.049017000000,   3.68000,
,,,0.049018000000,   3.68000,
,,,0.049019000000,   3.68000,
,,,0.049020000000,   3.60000,
,,,0.049021000000,   3.60000,
,,,0.049022000000,   3.52000,
,,,0.049023000000,   3.52000,
,,,0.049024000000,   3.52000,
,,,0.049025000000,   3.52000,
,,,0.049026000000,   3.52000,
,,,0.049027000000,   3.36000,
,,,0.049028000000,   3.36000,
,,,0.049029000000,   3.36000,
,,,0.049030000000,   3.36000,
,,,0.049031000000,   3.28000,
,,,0.049032000000,   3.28000,
,,,0.049033000000,   3.20000,
,,,0.049034000000,   3.20000,
,,,0.049035000000,   3.20000,
,,,0.049036000000,   3.20000,
,,,0.049037000000,   3.20000,
,,,0.049038000000,   3.12000,
,,,0.049039000000,   3.12000,
,,,0.049040000000,   3.12000,
,,,0.049041000000,   3.12000,
,,,0.049042000000,   3.12000,
,,,0.049043000000,   3.04000,
,,,0.049044000000,   2.96000,
,,,0.049045000000,   2.96000,
,,,0.049046000000,   2.96000,
,,,0.049047000000,   2.96000,
,,,0.049048000000,   2.96000,
,,,0.049049000000,   2.88000,
,,,0.049050000000,   2.88000,
,,,0.049051000000,   2.88000,
,,,0.049052000000,   2.80000,
,,,0.049053000000,   2.80000,
,,,0.049054000000,   2.80000,
,,,0.049055000000,   2.80000,
,,,0.049056000000,   2.72000,
,,,0.049057000000,   2.72000,
,,,0.049058000000,   2.64000,
,,,0.049059000000,   2.64000,
,,,0.049060000000,   2.64000,
,,,0.049061000000,   2.64000,
,,,0.049062000000,   2.56000,
,,,0.049063000000,   2.56000,
,,,0.049064000000,   2.56000,
,,,0.049065000000,   2.56000,
,,,0.049066000000,   2.56000,
,,,0.049067000000,   2.48000,
,,,0.049068000000,   2.48000,
,,,0.049069000000,   2.48000,
,,,0.049070000000,   2.48000,
,,,0.049071000000,   2.48000,
,,,0.049072000000,   2.40000,
,,,0.049073000000,   2.40000,
,,,0.049074000000,   2.40000,
,,,0.049075000000,   2.40000,
,,,0.049076000000,   2.40000,
,,,0.049077000000,   2.40000,
,,,0.049078000000,   2.32000,
,,,0.049079000000,   2.32000,
,,,0.049080000000,   2.32000,
,,,0.049081000000,   2.32000,
,,,0.049082000000,   2.24000,
,,,0.049083000000,   2.24000,
,,,0.049084000000,   2.24000,
,,,0.049085000000,   2.24000,
,,,0.049086000000,   2.16000,
,,,0.049087000000,   2.16000,
,,,0.049088000000,   2.16000,
,,,0.049089000000,   2.16000,
,,,0.049090000000,   2.08000,
,,,0.049091000000,   2.08000,
,,,0.049092000000,   2.08000,
,,,0.049093000000,   2.08000,
,,,0.049094000000,   2.08000,
,,,0.049095000000,   2.00000,
,,,0.049096000000,   2.00000,
,,,0.049097000000,   2.00000,
,,,0.049098000000,   2.00000,
,,,0.049099000000,   1.92000,
,,,0.049100000000,   2.00000,
,,,0.049101000000,   2.00000,
,,,0.049102000000,   1.92000,
,,,0.049103000000,   1.92000,
,,,0.049104000000,   1.92000,
,,,0.049105000000,   1.92000,
,,,0.049106000000,   1.92000,
,,,0.049107000000,   1.92000,
,,,0.049108000000,   1.84000,
,,,0.049109000000,   1.92000,
,,,0.049110000000,   1.92000,
,,,0.049111000000,   1.84000,
,,,0.049112000000,   1.92000,
,,,0.049113000000,   1.84000,
,,,0.049114000000,   1.84000,
,,,0.049115000000,   1.84000,
,,,0.049116000000,   1.84000,
,,,0.049117000000,   1.84000,
,,,0.049118000000,   1.84000,
,,,0.049119000000,   1.84000,
,,,0.049120000000,   1.84000,
,,,0.049121000000,   1.84000,
,,,0.049122000000,   1.84000,
,,,0.049123000000,   1.84000,
,,,0.049124000000,   1.84000,
,,,0.049125000000,   1.84000,
,,,0.049126000000,   1.84000,
,,,0.049127000000,   1.84000,
,,,0.049128000000,   1.76000,
,,,0.049129000000,   1.84000,
,,,0.049130000000,   1.84000,
,,,0.049131000000,   1.84000,
,,,0.049132000000,   1.84000,
,,,0.049133000000,   1.84000,
,,,0.049134000000,   1.84000,
,,,0.049135000000,   1.84000,
,,,0.049136000000,   1.84000,
,,,0.049137000000,   1.92000,
,,,0.049138000000,   1.84000,
,,,0.049139000000,   1.92000,
,,,0.049140000000,   1.84000,
,,,0.049141000000,   1.92000,
,,,0.049142000000,   1.92000,
,,,0.049143000000,   1.92000,
,,,0.049144000000,   1.92000,
,,,0.049145000000,   1.92000,
,,,0.049146000000,   2.00000,
,,,0.049147000000,   1.92000,
,,,0.049148000000,   2.00000,
,,,0.049149000000,   2.00000,
,,,0.049150000000,   2.00000,
,,,0.049151000000,   2.00000,
,,,0.049152000000,   2.08000,
,,,0.049153000000,   2.08000,
,,,0.049154000000,   2.08000,
,,,0.049155000000,   2.08000,
,,,0.049156000000,   2.08000,
,,,0.049157000000,   2.08000,
,,,0.049158000000,   2.16000,
,,,0.049159000000,   2.16000,
,,,0.049160000000,   2.24000,
,,,0.049161000000,   2.24000,
,,,0.049162000000,   2.24000,
,,,0.049163000000,   2.24000,
,,,0.049164000000,   2.24000,
,,,0.049165000000,   2.32000,
,,,0.049166000000,   2.32000,
,,,0.049167000000,   2.32000,
,,,0.049168000000,   2.32000,
,,,0.049169000000,   2.40000,
,,,0.049170000000,   2.40000,
,,,0.049171000000,   2.48000,
,,,0.049172000000,   2.40000,
,,,0.049173000000,   2.48000,
,,,0.049174000000,   2.48000,
,,,0.049175000000,   2.56000,
,,,0.049176000000,   2.56000,
,,,0.049177000000,   2.56000,
,,,0.049178000000,   2.64000,
,,,0.049179000000,   2.64000,
,,,0.049180000000,   2.72000,
,,,0.049181000000,   2.72000,
,,,0.049182000000,   2.72000,
,,,0.049183000000,   2.72000,
,,,0.049184000000,   2.80000,
,,,0.049185000000,   2.88000,
,,,0.049186000000,   2.80000,
,,,0.049187000000,   2.88000,
,,,0.049188000000,   2.96000,
,,,0.049189000000,   2.96000,
,,,0.049190000000,   2.96000,
,,,0.049191000000,   3.04000,
,,,0.049192000000,   3.04000,
,,,0.049193000000,   3.04000,
,,,0.049194000000,   3.12000,
,,,0.049195000000,   3.12000,
,,,0.049196000000,   3.12000,
,,,0.049197000000,   3.20000,
,,,0.049198000000,   3.20000,
,,,0.049199000000,   3.20000,
,,,0.049200000000,   3.20000,
,,,0.049201000000,   3.28000,
,,,0.049202000000,   3.28000,
,,,0.049203000000,   3.36000,
,,,0.049204000000,   3.28000,
,,,0.049205000000,   3.36000,
,,,0.049206000000,   3.36000,
,,,0.049207000000,   3.36000,
,,,0.049208000000,   3.52000,
,,,0.049209000000,   3.52000,
,,,0.049210000000,   3.60000,
,,,0.049211000000,   3.60000,
,,,0.049212000000,   3.60000,
,,,0.049213000000,   3.60000,
,,,0.049214000000,   3.60000,
,,,0.049215000000,   3.68000,
,,,0.049216000000,   3.68000,
,,,0.049217000000,   3.68000,
,,,0.049218000000,   3.76000,
,,,0.049219000000,   3.76000,
,,,0.049220000000,   3.76000,
,,,0.049221000000,   3.84000,
,,,0.049222000000,   3.84000,
,,,0.049223000000,   3.84000,
,,,0.049224000000,   3.92000,
,,,0.049225000000,   3.92000,
,,,0.049226000000,   3.92000,
,,,0.049227000000,   3.92000,
,,,0.049228000000,   4.00000,
,,,0.049229000000,   4.00000,
,,,0.049230000000,   4.08000,
,,,0.049231000000,   4.00000,
,,,0.049232000000,   4.08000,
,,,0.049233000000,   4.08000,
,,,0.049234000000,   4.08000,
,,,0.049235000000,   4.08000,
,,,0.049236000000,   4.08000,
,,,0.049237000000,   4.08000,
,,,0.049238000000,   4.16000,
,,,0.049239000000,   4.16000,
,,,0.049240000000,   4.16000,
,,,0.049241000000,   4.16000,
,,,0.049242000000,   4.16000,
,,,0.049243000000,   4.16000,
,,,0.049244000000,   4.24000,
,,,0.049245000000,   4.24000,
,,,0.049246000000,   4.16000,
,,,0.049247000000,   4.24000,
,,,0.049248000000,   4.24000,
,,,0.049249000000,   4.24000,
,,,0.049250000000,   4.24000,
,,,0.049251000000,   4.24000,
,,,0.049252000000,   4.24000,
,,,0.049253000000,   4.24000,
,,,0.049254000000,   4.24000,
,,,0.049255000000,   4.24000,
,,,0.049256000000,   4.32000,
,,,0.049257000000,   4.32000,
,,,0.049258000000,   4.24000,
,,,0.049259000000,   4.24000,
,,,0.049260000000,   4.32000,
,,,0.049261000000,   4.32000,
,,,0.049262000000,   4.32000,
,,,0.049263000000,   4.24000,
,,,0.049264000000,   4.32000,
,,,0.049265000000,   4.32000,
,,,0.049266000000,   4.32000,
,,,0.049267000000,   4.32000,
,,,0.049268000000,   4.32000,
,,,0.049269000000,   4.24000,
,,,0.049270000000,   4.32000,
,,,0.049271000000,   4.24000,
,,,0.049272000000,   4.24000,
,,,0.049273000000,   4.24000,
,,,0.049274000000,   4.24000,
,,,0.049275000000,   4.24000,
,,,0.049276000000,   4.16000,
,,,0.049277000000,   4.24000,
,,,0.049278000000,   4.16000,
,,,0.049279000000,   4.16000,
,,,0.049280000000,   4.16000,
,,,0.049281000000,   4.16000,
,,,0.049282000000,   4.16000,
,,,0.049283000000,   4.08000,
,,,0.049284000000,   4.16000,
,,,0.049285000000,   4.16000,
,,,0.049286000000,   4.08000,
,,,0.049287000000,   4.08000,
,,,0.049288000000,   4.08000,
,,,0.049289000000,   4.08000,
,,,0.049290000000,   4.08000,
,,,0.049291000000,   4.08000,
,,,0.049292000000,   4.00000,
,,,0.049293000000,   4.00000,
,,,0.049294000000,   4.00000,
,,,0.049295000000,   4.00000,
,,,0.049296000000,   4.00000,
,,,0.049297000000,   3.92000,
,,,0.049298000000,   3.92000,
,,,0.049299000000,   3.92000,
,,,0.049300000000,   3.84000,
,,,0.049301000000,   3.84000,
,,,0.049302000000,   3.76000,
,,,0.049303000000,   3.76000,
,,,0.049304000000,   3.76000,
,,,0.049305000000,   3.76000,
,,,0.049306000000,   3.68000,
,,,0.049307000000,   3.68000,
,,,0.049308000000,   3.68000,
,,,0.049309000000,   3.68000,
,,,0.049310000000,   3.68000,
,,,0.049311000000,   3.60000,
,,,0.049312000000,   3.60000,
,,,0.049313000000,   3.52000,
,,,0.049314000000,   3.60000,
,,,0.049315000000,   3.52000,
,,,0.049316000000,   3.52000,
,,,0.049317000000,   3.44000,
,,,0.049318000000,   3.36000,
,,,0.049319000000,   3.36000,
,,,0.049320000000,   3.36000,
,,,0.049321000000,   3.28000,
,,,0.049322000000,   3.28000,
,,,0.049323000000,   3.28000,
,,,0.049324000000,   3.28000,
,,,0.049325000000,   3.28000,
,,,0.049326000000,   3.20000,
,,,0.049327000000,   3.20000,
,,,0.049328000000,   3.20000,
,,,0.049329000000,   3.20000,
,,,0.049330000000,   3.12000,
,,,0.049331000000,   3.12000,
,,,0.049332000000,   3.12000,
,,,0.049333000000,   3.04000,
,,,0.049334000000,   3.04000,
,,,0.049335000000,   2.96000,
,,,0.049336000000,   2.96000,
,,,0.049337000000,   2.96000,
,,,0.049338000000,   2.96000,
,,,0.049339000000,   2.88000,
,,,0.049340000000,   2.88000,
,,,0.049341000000,   2.88000,
,,,0.049342000000,   2.88000,
,,,0.049343000000,   2.88000,
,,,0.049344000000,   2.80000,
,,,0.049345000000,   2.80000,
,,,0.049346000000,   2.72000,
,,,0.049347000000,   2.72000,
,,,0.049348000000,   2.72000,
,,,0.049349000000,   2.72000,
,,,0.049350000000,   2.72000,
,,,0.049351000000,   2.64000,
,,,0.049352000000,   2.64000,
,,,0.049353000000,   2.56000,
,,,0.049354000000,   2.56000,
,,,0.049355000000,   2.56000,
,,,0.049356000000,   2.56000,
,,,0.049357000000,   2.56000,
,,,0.049358000000,   2.56000,
,,,0.049359000000,   2.56000,
,,,0.049360000000,   2.48000,
,,,0.049361000000,   2.48000,
,,,0.049362000000,   2.48000,
,,,0.049363000000,   2.48000,
,,,0.049364000000,   2.48000,
,,,0.049365000000,   2.40000,
,,,0.049366000000,   2.48000,
,,,0.049367000000,   2.40000,
,,,0.049368000000,   2.48000,
,,,0.049369000000,   2.48000,
,,,0.049370000000,   2.40000,
,,,0.049371000000,   2.40000,
,,,0.049372000000,   2.40000,
,,,0.049373000000,   2.40000,
,,,0.049374000000,   2.40000,
,,,0.049375000000,   2.40000,
,,,0.049376000000,   2.40000,
,,,0.049377000000,   2.40000,
,,,0.049378000000,   2.40000,
,,,0.049379000000,   2.32000,
,,,0.049380000000,   2.40000,
,,,0.049381000000,   2.40000,
,,,0.049382000000,   2.40000,
,,,0.049383000000,   2.40000,
,,,0.049384000000,   2.40000,
,,,0.049385000000,   2.40000,
,,,0.049386000000,   2.32000,
,,,0.049387000000,   2.40000,
,,,0.049388000000,   2.40000,
,,,0.049389000000,   2.40000,
,,,0.049390000000,   2.40000,
,,,0.049391000000,   2.40000,
,,,0.049392000000,   2.40000,
,,,0.049393000000,   2.40000,
,,,0.049394000000,   2.48000,
,,,0.049395000000,   2.40000,
,,,0.049396000000,   2.48000,
,,,0.049397000000,   2.48000,
,,,0.049398000000,   2.48000,
,,,0.049399000000,   2.48000,
,,,0.049400000000,   2.48000,
,,,0.049401000000,   2.48000,
,,,0.049402000000,   2.48000,
,,,0.049403000000,   2.56000,
,,,0.049404000000,   2.56000,
,,,0.049405000000,   2.56000,
,,,0.049406000000,   2.56000,
,,,0.049407000000,   2.56000,
,,,0.049408000000,   2.56000,
,,,0.049409000000,   2.64000,
,,,0.049410000000,   2.64000,
,,,0.049411000000,   2.64000,
,,,0.049412000000,   2.72000,
,,,0.049413000000,   2.72000,
,,,0.049414000000,   2.72000,
,,,0.049415000000,   2.80000,
,,,0.049416000000,   2.80000,
,,,0.049417000000,   2.80000,
,,,0.049418000000,   2.80000,
,,,0.049419000000,   2.80000,
,,,0.049420000000,   2.80000,
,,,0.049421000000,   2.88000,
,,,0.049422000000,   2.88000,
,,,0.049423000000,   2.88000,
,,,0.049424000000,   2.96000,
,,,0.049425000000,   2.96000,
,,,0.049426000000,   2.96000,
,,,0.049427000000,   3.04000,
,,,0.049428000000,   3.04000,
,,,0.049429000000,   3.04000,
,,,0.049430000000,   3.12000,
,,,0.049431000000,   3.12000,
,,,0.049432000000,   3.12000,
,,,0.049433000000,   3.20000,
,,,0.049434000000,   3.20000,
,,,0.049435000000,   3.20000,
,,,0.049436000000,   3.20000,
,,,0.049437000000,   3.28000,
,,,0.049438000000,   3.28000,
,,,0.049439000000,   3.28000,
,,,0.049440000000,   3.28000,
,,,0.049441000000,   3.36000,
,,,0.049442000000,   3.36000,
,,,0.049443000000,   3.44000,
,,,0.049444000000,   3.44000,
,,,0.049445000000,   3.44000,
,,,0.049446000000,   3.52000,
,,,0.049447000000,   3.52000,
,,,0.049448000000,   3.60000,
,,,0.049449000000,   3.60000,
,,,0.049450000000,   3.60000,
,,,0.049451000000,   3.60000,
,,,0.049452000000,   3.60000,
,,,0.049453000000,   3.68000,
,,,0.049454000000,   3.68000,
,,,0.049455000000,   3.68000,
,,,0.049456000000,   3.76000,
,,,0.049457000000,   3.76000,
,,,0.049458000000,   3.76000,
,,,0.049459000000,   3.84000,
,,,0.049460000000,   3.84000,
,,,0.049461000000,   3.84000,
,,,0.049462000000,   3.92000,
,,,0.049463000000,   3.92000,
,,,0.049464000000,   3.92000,
,,,0.049465000000,   4.00000,
,,,0.049466000000,   4.00000,
,,,0.049467000000,   4.00000,
,,,0.049468000000,   4.00000,
,,,0.049469000000,   4.08000,
,,,0.049470000000,   4.08000,
,,,0.049471000000,   4.08000,
,,,0.049472000000,   4.08000,
,,,0.049473000000,   4.16000,
,,,0.049474000000,   4.16000,
,,,0.049475000000,   4.16000,
,,,0.049476000000,   4.16000,
,,,0.049477000000,   4.16000,
,,,0.049478000000,   4.24000,
,,,0.049479000000,   4.24000,
,,,0.049480000000,   4.24000,
,,,0.049481000000,   4.24000,
,,,0.049482000000,   4.24000,
,,,0.049483000000,   4.32000,
,,,0.049484000000,   4.32000,
,,,0.049485000000,   4.32000,
,,,0.049486000000,   4.32000,
,,,0.049487000000,   4.32000,
,,,0.049488000000,   4.32000,
,,,0.049489000000,   4.40000,
,,,0.049490000000,   4.40000,
,,,0.049491000000,   4.40000,
,,,0.049492000000,   4.40000,
,,,0.049493000000,   4.40000,
,,,0.049494000000,   4.48000,
,,,0.049495000000,   4.40000,
,,,0.049496000000,   4.40000,
,,,0.049497000000,   4.48000,
,,,0.049498000000,   4.40000,
,,,0.049499000000,   4.48000,
,,,0.049500000000,   4.48000,
,,,0.049501000000,   4.48000,
,,,0.049502000000,   4.48000,
,,,0.049503000000,   4.48000,
,,,0.049504000000,   4.48000,
,,,0.049505000000,   4.48000,
,,,0.049506000000,   4.48000,
,,,0.049507000000,   4.48000,
,,,0.049508000000,   4.48000,
,,,0.049509000000,   4.48000,
,,,0.049510000000,   4.48000,
,,,0.049511000000,   4.48000,
,,,0.049512000000,   4.48000,
,,,0.049513000000,   4.48000,
,,,0.049514000000,   4.48000,
,,,0.049515000000,   4.48000,
,,,0.049516000000,   4.48000,
,,,0.049517000000,   4.48000,
,,,0.049518000000,   4.48000,
,,,0.049519000000,   4.48000,
,,,0.049520000000,   4.40000,
,,,0.049521000000,   4.40000,
,,,0.049522000000,   4.40000,
,,,0.049523000000,   4.40000,
,,,0.049524000000,   4.40000,
,,,0.049525000000,   4.40000,
,,,0.049526000000,   4.40000,
,,,0.049527000000,   4.40000,
,,,0.049528000000,   4.32000,
,,,0.049529000000,   4.32000,
,,,0.049530000000,   4.24000,
,,,0.049531000000,   4.32000,
,,,0.049532000000,   4.24000,
,,,0.049533000000,   4.32000,
,,,0.049534000000,   4.24000,
,,,0.049535000000,   4.24000,
,,,0.049536000000,   4.24000,
,,,0.049537000000,   4.24000,
,,,0.049538000000,   4.16000,
,,,0.049539000000,   4.16000,
,,,0.049540000000,   4.16000,
,,,0.049541000000,   4.08000,
,,,0.049542000000,   4.08000,
,,,0.049543000000,   4.08000,
,,,0.049544000000,   4.08000,
,,,0.049545000000,   4.08000,
,,,0.049546000000,   4.08000,
,,,0.049547000000,   4.08000,
,,,0.049548000000,   4.08000,
,,,0.049549000000,   4.00000,
,,,0.049550000000,   4.00000,
,,,0.049551000000,   4.00000,
,,,0.049552000000,   3.92000,
,,,0.049553000000,   3.92000,
,,,0.049554000000,   3.92000,
,,,0.049555000000,   3.92000,
,,,0.049556000000,   3.84000,
,,,0.049557000000,   3.84000,
,,,0.049558000000,   3.76000,
,,,0.049559000000,   3.84000,
,,,0.049560000000,   3.76000,
,,,0.049561000000,   3.68000,
,,,0.049562000000,   3.68000,
,,,0.049563000000,   3.68000,
,,,0.049564000000,   3.68000,
,,,0.049565000000,   3.60000,
,,,0.049566000000,   3.60000,
,,,0.049567000000,   3.60000,
,,,0.049568000000,   3.52000,
,,,0.049569000000,   3.52000,
,,,0.049570000000,   3.52000,
,,,0.049571000000,   3.44000,
,,,0.049572000000,   3.44000,
,,,0.049573000000,   3.36000,
,,,0.049574000000,   3.36000,
,,,0.049575000000,   3.36000,
,,,0.049576000000,   3.36000,
,,,0.049577000000,   3.28000,
,,,0.049578000000,   3.28000,
,,,0.049579000000,   3.28000,
,,,0.049580000000,   3.20000,
,,,0.049581000000,   3.20000,
,,,0.049582000000,   3.20000,
,,,0.049583000000,   3.20000,
,,,0.049584000000,   3.20000,
,,,0.049585000000,   3.12000,
,,,0.049586000000,   3.12000,
,,,0.049587000000,   3.04000,
,,,0.049588000000,   3.12000,
,,,0.049589000000,   3.04000,
,,,0.049590000000,   2.96000,
,,,0.049591000000,   2.96000,
,,,0.049592000000,   2.96000,
,,,0.049593000000,   2.96000,
,,,0.049594000000,   2.88000,
,,,0.049595000000,   2.88000,
,,,0.049596000000,   2.80000,
,,,0.049597000000,   2.88000,
,,,0.049598000000,   2.80000,
,,,0.049599000000,   2.80000,
,,,0.049600000000,   2.80000,
,,,0.049601000000,   2.80000,
,,,0.049602000000,   2.72000,
,,,0.049603000000,   2.72000,
,,,0.049604000000,   2.64000,
,,,0.049605000000,   2.72000,
,,,0.049606000000,   2.64000,
,,,0.049607000000,   2.64000,
,,,0.049608000000,   2.56000,
,,,0.049609000000,   2.56000,
,,,0.049610000000,   2.56000,
,,,0.049611000000,   2.56000,
,,,0.049612000000,   2.56000,
,,,0.049613000000,   2.56000,
,,,0.049614000000,   2.56000,
,,,0.049615000000,   2.48000,
,,,0.049616000000,   2.56000,
,,,0.049617000000,   2.48000,
,,,0.049618000000,   2.48000,
,,,0.049619000000,   2.48000,
,,,0.049620000000,   2.40000,
,,,0.049621000000,   2.48000,
,,,0.049622000000,   2.40000,
,,,0.049623000000,   2.40000,
,,,0.049624000000,   2.40000,
,,,0.049625000000,   2.40000,
,,,0.049626000000,   2.40000,
,,,0.049627000000,   2.40000,
,,,0.049628000000,   2.40000,
,,,0.049629000000,   2.40000,
,,,0.049630000000,   2.40000,
,,,0.049631000000,   2.40000,
,,,0.049632000000,   2.40000,
,,,0.049633000000,   2.40000,
,,,0.049634000000,   2.40000,
,,,0.049635000000,   2.40000,
,,,0.049636000000,   2.40000,
,,,0.049637000000,   2.32000,
,,,0.049638000000,   2.32000,
,,,0.049639000000,   2.40000,
,,,0.049640000000,   2.40000,
,,,0.049641000000,   2.40000,
,,,0.049642000000,   2.40000,
,,,0.049643000000,   2.40000,
,,,0.049644000000,   2.40000,
,,,0.049645000000,   2.40000,
,,,0.049646000000,   2.40000,
,,,0.049647000000,   2.40000,
,,,0.049648000000,   2.40000,
,,,0.049649000000,   2.40000,
,,,0.049650000000,   2.48000,
,,,0.049651000000,   2.40000,
,,,0.049652000000,   2.40000,
,,,0.049653000000,   2.40000,
,,,0.049654000000,   2.48000,
,,,0.049655000000,   2.48000,
,,,0.049656000000,   2.48000,
,,,0.049657000000,   2.48000,
,,,0.049658000000,   2.48000,
,,,0.049659000000,   2.48000,
,,,0.049660000000,   2.48000,
,,,0.049661000000,   2.48000,
,,,0.049662000000,   2.48000,
,,,0.049663000000,   2.56000,
,,,0.049664000000,   2.56000,
,,,0.049665000000,   2.56000,
,,,0.049666000000,   2.56000,
,,,0.049667000000,   2.56000,
,,,0.049668000000,   2.56000,
,,,0.049669000000,   2.56000,
,,,0.049670000000,   2.56000,
,,,0.049671000000,   2.56000,
,,,0.049672000000,   2.56000,
,,,0.049673000000,   2.56000,
,,,0.049674000000,   2.56000,
,,,0.049675000000,   2.56000,
,,,0.049676000000,   2.56000,
,,,0.049677000000,   2.56000,
,,,0.049678000000,   2.56000,
,,,0.049679000000,   2.56000,
,,,0.049680000000,   2.56000,
,,,0.049681000000,   2.48000,
,,,0.049682000000,   2.56000,
,,,0.049683000000,   2.56000,
,,,0.049684000000,   2.48000,
,,,0.049685000000,   2.56000,
,,,0.049686000000,   2.48000,
,,,0.049687000000,   2.48000,
,,,0.049688000000,   2.48000,
,,,0.049689000000,   2.48000,
,,,0.049690000000,   2.48000,
,,,0.049691000000,   2.48000,
,,,0.049692000000,   2.48000,
,,,0.049693000000,   2.48000,
,,,0.049694000000,   2.48000,
,,,0.049695000000,   2.40000,
,,,0.049696000000,   2.40000,
,,,0.049697000000,   2.40000,
,,,0.049698000000,   2.40000,
,,,0.049699000000,   2.40000,
,,,0.049700000000,   2.40000,
,,,0.049701000000,   2.40000,
,,,0.049702000000,   2.32000,
,,,0.049703000000,   2.32000,
,,,0.049704000000,   2.32000,
,,,0.049705000000,   2.32000,
,,,0.049706000000,   2.32000,
,,,0.049707000000,   2.24000,
,,,0.049708000000,   2.32000,
,,,0.049709000000,   2.24000,
,,,0.049710000000,   2.24000,
,,,0.049711000000,   2.24000,
,,,0.049712000000,   2.24000,
,,,0.049713000000,   2.16000,
,,,0.049714000000,   2.16000,
,,,0.049715000000,   2.08000,
,,,0.049716000000,   2.16000,
,,,0.049717000000,   2.08000,
,,,0.049718000000,   2.08000,
,,,0.049719000000,   2.08000,
,,,0.049720000000,   2.00000,
,,,0.049721000000,   2.08000,
,,,0.049722000000,   2.08000,
,,,0.049723000000,   2.00000,
,,,0.049724000000,   2.00000,
,,,0.049725000000,   2.00000,
,,,0.049726000000,   2.00000,
,,,0.049727000000,   2.00000,
,,,0.049728000000,   2.00000,
,,,0.049729000000,   2.00000,
,,,0.049730000000,   1.92000,
,,,0.049731000000,   1.92000,
,,,0.049732000000,   1.84000,
,,,0.049733000000,   1.84000,
,,,0.049734000000,   1.84000,
,,,0.049735000000,   1.84000,
,,,0.049736000000,   1.84000,
,,,0.049737000000,   1.84000,
,,,0.049738000000,   1.84000,
,,,0.049739000000,   1.84000,
,,,0.049740000000,   1.84000,
,,,0.049741000000,   1.76000,
,,,0.049742000000,   1.76000,
,,,0.049743000000,   1.76000,
,,,0.049744000000,   1.76000,
,,,0.049745000000,   1.76000,
,,,0.049746000000,   1.68000,
,,,0.049747000000,   1.68000,
,,,0.049748000000,   1.68000,
,,,0.049749000000,   1.68000,
,,,0.049750000000,   1.68000,
,,,0.049751000000,   1.68000,
,,,0.049752000000,   1.68000,
,,,0.049753000000,   1.68000,
,,,0.049754000000,   1.68000,
,,,0.049755000000,   1.68000,
,,,0.049756000000,   1.68000,
,,,0.049757000000,   1.68000,
,,,0.049758000000,   1.68000,
,,,0.049759000000,   1.68000,
,,,0.049760000000,   1.68000,
,,,0.049761000000,   1.60000,
,,,0.049762000000,   1.68000,
,,,0.049763000000,   1.68000,
,,,0.049764000000,   1.68000,
,,,0.049765000000,   1.68000,
,,,0.049766000000,   1.68000,
,,,0.049767000000,   1.68000,
,,,0.049768000000,   1.68000,
,,,0.049769000000,   1.68000,
,,,0.049770000000,   1.68000,
,,,0.049771000000,   1.68000,
,,,0.049772000000,   1.68000,
,,,0.049773000000,   1.68000,
,,,0.049774000000,   1.68000,
,,,0.049775000000,   1.68000,
,,,0.049776000000,   1.76000,
,,,0.049777000000,   1.76000,
,,,0.049778000000,   1.76000,
,,,0.049779000000,   1.76000,
,,,0.049780000000,   1.76000,
,,,0.049781000000,   1.84000,
,,,0.049782000000,   1.76000,
,,,0.049783000000,   1.84000,
,,,0.049784000000,   1.84000,
,,,0.049785000000,   1.84000,
,,,0.049786000000,   1.84000,
,,,0.049787000000,   1.92000,
,,,0.049788000000,   1.92000,
,,,0.049789000000,   1.92000,
,,,0.049790000000,   1.92000,
,,,0.049791000000,   1.92000,
,,,0.049792000000,   1.92000,
,,,0.049793000000,   2.00000,
,,,0.049794000000,   2.00000,
,,,0.049795000000,   2.00000,
,,,0.049796000000,   2.00000,
,,,0.049797000000,   2.08000,
,,,0.049798000000,   2.08000,
,,,0.049799000000,   2.08000,
,,,0.049800000000,   2.08000,
,,,0.049801000000,   2.08000,
,,,0.049802000000,   2.16000,
,,,0.049803000000,   2.16000,
,,,0.049804000000,   2.24000,
,,,0.049805000000,   2.24000,
,,,0.049806000000,   2.32000,
,,,0.049807000000,   2.32000,
,,,0.049808000000,   2.32000,
,,,0.049809000000,   2.32000,
,,,0.049810000000,   2.32000,
,,,0.049811000000,   2.40000,
,,,0.049812000000,   2.40000,
,,,0.049813000000,   2.40000,
,,,0.049814000000,   2.40000,
,,,0.049815000000,   2.48000,
,,,0.049816000000,   2.48000,
,,,0.049817000000,   2.48000,
,,,0.049818000000,   2.56000,
,,,0.049819000000,   2.56000,
,,,0.049820000000,   2.64000,
,,,0.049821000000,   2.64000,
,,,0.049822000000,   2.72000,
,,,0.049823000000,   2.72000,
,,,0.049824000000,   2.72000,
,,,0.049825000000,   2.80000,
,,,0.049826000000,   2.80000,
,,,0.049827000000,   2.80000,
,,,0.049828000000,   2.88000,
,,,0.049829000000,   2.88000,
,,,0.049830000000,   2.88000,
,,,0.049831000000,   2.96000,
,,,0.049832000000,   2.96000,
,,,0.049833000000,   3.04000,
,,,0.049834000000,   3.04000,
,,,0.049835000000,   3.12000,
,,,0.049836000000,   3.12000,
,,,0.049837000000,   3.12000,
,,,0.049838000000,   3.20000,
,,,0.049839000000,   3.20000,
,,,0.049840000000,   3.20000,
,,,0.049841000000,   3.28000,
,,,0.049842000000,   3.28000,
,,,0.049843000000,   3.28000,
,,,0.049844000000,   3.28000,
,,,0.049845000000,   3.36000,
,,,0.049846000000,   3.36000,
,,,0.049847000000,   3.36000,
,,,0.049848000000,   3.44000,
,,,0.049849000000,   3.52000,
,,,0.049850000000,   3.52000,
,,,0.049851000000,   3.52000,
,,,0.049852000000,   3.52000,
,,,0.049853000000,   3.60000,
,,,0.049854000000,   3.60000,
,,,0.049855000000,   3.60000,
,,,0.049856000000,   3.68000,
,,,0.049857000000,   3.68000,
,,,0.049858000000,   3.68000,
,,,0.049859000000,   3.76000,
,,,0.049860000000,   3.76000,
,,,0.049861000000,   3.76000,
,,,0.049862000000,   3.76000,
,,,0.049863000000,   3.84000,
,,,0.049864000000,   3.92000,
,,,0.049865000000,   3.84000,
,,,0.049866000000,   3.92000,
,,,0.049867000000,   3.92000,
,,,0.049868000000,   4.00000,
,,,0.049869000000,   3.92000,
,,,0.049870000000,   4.00000,
,,,0.049871000000,   4.00000,
,,,0.049872000000,   4.00000,
,,,0.049873000000,   4.00000,
,,,0.049874000000,   4.08000,
,,,0.049875000000,   4.08000,
,,,0.049876000000,   4.08000,
,,,0.049877000000,   4.08000,
,,,0.049878000000,   4.08000,
,,,0.049879000000,   4.08000,
,,,0.049880000000,   4.08000,
,,,0.049881000000,   4.08000,
,,,0.049882000000,   4.08000,
,,,0.049883000000,   4.16000,
,,,0.049884000000,   4.08000,
,,,0.049885000000,   4.16000,
,,,0.049886000000,   4.08000,
,,,0.049887000000,   4.16000,
,,,0.049888000000,   4.16000,
,,,0.049889000000,   4.16000,
,,,0.049890000000,   4.16000,
,,,0.049891000000,   4.16000,
,,,0.049892000000,   4.24000,
,,,0.049893000000,   4.16000,
,,,0.049894000000,   4.16000,
,,,0.049895000000,   4.16000,
,,,0.049896000000,   4.16000,
,,,0.049897000000,   4.16000,
,,,0.049898000000,   4.24000,
,,,0.049899000000,   4.24000,
,,,0.049900000000,   4.24000,
,,,0.049901000000,   4.16000,
,,,0.049902000000,   4.24000,
,,,0.049903000000,   4.24000,
,,,0.049904000000,   4.16000,
,,,0.049905000000,   4.16000,
,,,0.049906000000,   4.24000,
,,,0.049907000000,   4.16000,
,,,0.049908000000,   4.16000,
,,,0.049909000000,   4.24000,
,,,0.049910000000,   4.16000,
,,,0.049911000000,   4.16000,
,,,0.049912000000,   4.16000,
,,,0.049913000000,   4.16000,
,,,0.049914000000,   4.08000,
,,,0.049915000000,   4.08000,
,,,0.049916000000,   4.16000,
,,,0.049917000000,   4.08000,
,,,0.049918000000,   4.08000,
,,,0.049919000000,   4.08000,
,,,0.049920000000,   4.08000,
,,,0.049921000000,   4.08000,
,,,0.049922000000,   4.08000,
,,,0.049923000000,   4.08000,
,,,0.049924000000,   4.00000,
,,,0.049925000000,   4.08000,
,,,0.049926000000,   4.00000,
,,,0.049927000000,   3.92000,
,,,0.049928000000,   3.92000,
,,,0.049929000000,   3.92000,
,,,0.049930000000,   3.92000,
,,,0.049931000000,   3.92000,
,,,0.049932000000,   3.92000,
,,,0.049933000000,   3.76000,
,,,0.049934000000,   3.84000,
,,,0.049935000000,   3.84000,
,,,0.049936000000,   3.76000,
,,,0.049937000000,   3.76000,
,,,0.049938000000,   3.76000,
,,,0.049939000000,   3.76000,
,,,0.049940000000,   3.68000,
,,,0.049941000000,   3.68000,
,,,0.049942000000,   3.68000,
,,,0.049943000000,   3.68000,
,,,0.049944000000,   3.60000,
,,,0.049945000000,   3.60000,
,,,0.049946000000,   3.52000,
,,,0.049947000000,   3.52000,
,,,0.049948000000,   3.52000,
,,,0.049949000000,   3.52000,
,,,0.049950000000,   3.44000,
,,,0.049951000000,   3.44000,
,,,0.049952000000,   3.36000,
,,,0.049953000000,   3.36000,
,,,0.049954000000,   3.36000,
,,,0.049955000000,   3.28000,
,,,0.049956000000,   3.28000,
,,,0.049957000000,   3.28000,
,,,0.049958000000,   3.20000,
,,,0.049959000000,   3.20000,
,,,0.049960000000,   3.20000,
,,,0.049961000000,   3.20000,
,,,0.049962000000,   3.20000,
,,,0.049963000000,   3.20000,
,,,0.049964000000,   3.12000,
,,,0.049965000000,   3.12000,
,,,0.049966000000,   3.04000,
,,,0.049967000000,   3.04000,
,,,0.049968000000,   3.04000,
,,,0.049969000000,   2.96000,
,,,0.049970000000,   2.96000,
,,,0.049971000000,   2.96000,
,,,0.049972000000,   2.88000,
,,,0.049973000000,   2.88000,
,,,0.049974000000,   2.88000,
,,,0.049975000000,   2.88000,
,,,0.049976000000,   2.80000,
,,,0.049977000000,   2.80000,
,,,0.049978000000,   2.80000,
,,,0.049979000000,   2.80000,
,,,0.049980000000,   2.72000,
,,,0.049981000000,   2.72000,
,,,0.049982000000,   2.72000,
,,,0.049983000000,   2.64000,
,,,0.049984000000,   2.56000,
,,,0.049985000000,   2.64000,
,,,0.049986000000,   2.64000,
,,,0.049987000000,   2.56000,
,,,0.049988000000,   2.56000,
,,,0.049989000000,   2.56000,
,,,0.049990000000,   2.56000,
,,,0.049991000000,   2.56000,
,,,0.049992000000,   2.56000,
,,,0.049993000000,   2.48000,
,,,0.049994000000,   2.48000,
,,,0.049995000000,   2.48000,
,,,0.049996000000,   2.48000,
,,,0.049997000000,   2.48000,
,,,0.049998000000,   2.40000,
,,,0.049999000000,   2.40000,
,,,0.050000000000,   2.40000,
,,,0.050001000000,   2.40000,
,,,0.050002000000,   2.40000,
,,,0.050003000000,   2.40000,
,,,0.050004000000,   2.40000,
,,,0.050005000000,   2.40000,
,,,0.050006000000,   2.40000,
,,,0.050007000000,   2.40000,
,,,0.050008000000,   2.40000,
,,,0.050009000000,   2.40000,
,,,0.050010000000,   2.32000,
,,,0.050011000000,   2.32000,
,,,0.050012000000,   2.40000,
,,,0.050013000000,   2.32000,
,,,0.050014000000,   2.32000,
,,,0.050015000000,   2.40000,
,,,0.050016000000,   2.40000,
,,,0.050017000000,   2.32000,
,,,0.050018000000,   2.40000,
,,,0.050019000000,   2.32000,
,,,0.050020000000,   2.40000,
,,,0.050021000000,   2.40000,
,,,0.050022000000,   2.40000,
,,,0.050023000000,   2.40000,
,,,0.050024000000,   2.40000,
,,,0.050025000000,   2.40000,
,,,0.050026000000,   2.40000,
,,,0.050027000000,   2.40000,
,,,0.050028000000,   2.40000,
,,,0.050029000000,   2.40000,
,,,0.050030000000,   2.40000,
,,,0.050031000000,   2.48000,
,,,0.050032000000,   2.48000,
,,,0.050033000000,   2.48000,
,,,0.050034000000,   2.48000,
,,,0.050035000000,   2.48000,
,,,0.050036000000,   2.56000,
,,,0.050037000000,   2.56000,
,,,0.050038000000,   2.48000,
,,,0.050039000000,   2.56000,
,,,0.050040000000,   2.56000,
,,,0.050041000000,   2.56000,
,,,0.050042000000,   2.56000,
,,,0.050043000000,   2.56000,
,,,0.050044000000,   2.64000,
,,,0.050045000000,   2.64000,
,,,0.050046000000,   2.64000,
,,,0.050047000000,   2.72000,
,,,0.050048000000,   2.72000,
,,,0.050049000000,   2.72000,
,,,0.050050000000,   2.80000,
,,,0.050051000000,   2.80000,
,,,0.050052000000,   2.72000,
,,,0.050053000000,   2.80000,
,,,0.050054000000,   2.88000,
,,,0.050055000000,   2.80000,
,,,0.050056000000,   2.88000,
,,,0.050057000000,   2.88000,
,,,0.050058000000,   2.88000,
,,,0.050059000000,   2.96000,
,,,0.050060000000,   2.96000,
,,,0.050061000000,   2.96000,
,,,0.050062000000,   3.04000,
,,,0.050063000000,   3.04000,
,,,0.050064000000,   3.12000,
,,,0.050065000000,   3.12000,
,,,0.050066000000,   3.12000,
,,,0.050067000000,   3.12000,
,,,0.050068000000,   3.20000,
,,,0.050069000000,   3.20000,
,,,0.050070000000,   3.20000,
,,,0.050071000000,   3.20000,
,,,0.050072000000,   3.28000,
,,,0.050073000000,   3.28000,
,,,0.050074000000,   3.28000,
,,,0.050075000000,   3.36000,
,,,0.050076000000,   3.36000,
,,,0.050077000000,   3.36000,
,,,0.050078000000,   3.36000,
,,,0.050079000000,   3.52000,
,,,0.050080000000,   3.52000,
,,,0.050081000000,   3.52000,
,,,0.050082000000,   3.52000,
,,,0.050083000000,   3.52000,
,,,0.050084000000,   3.60000,
,,,0.050085000000,   3.68000,
,,,0.050086000000,   3.60000,
,,,0.050087000000,   3.68000,
,,,0.050088000000,   3.68000,
,,,0.050089000000,   3.76000,
,,,0.050090000000,   3.68000,
,,,0.050091000000,   3.76000,
,,,0.050092000000,   3.76000,
,,,0.050093000000,   3.84000,
,,,0.050094000000,   3.92000,
,,,0.050095000000,   3.84000,
,,,0.050096000000,   3.92000,
,,,0.050097000000,   3.92000,
,,,0.050098000000,   4.00000,
,,,0.050099000000,   4.00000,
,,,0.050100000000,   4.00000,
,,,0.050101000000,   4.00000,
,,,0.050102000000,   4.08000,
,,,0.050103000000,   4.08000,
,,,0.050104000000,   4.08000,
,,,0.050105000000,   4.08000,
,,,0.050106000000,   4.08000,
,,,0.050107000000,   4.08000,
,,,0.050108000000,   4.16000,
,,,0.050109000000,   4.16000,
,,,0.050110000000,   4.16000,
,,,0.050111000000,   4.16000,
,,,0.050112000000,   4.16000,
,,,0.050113000000,   4.24000,
,,,0.050114000000,   4.24000,
,,,0.050115000000,   4.24000,
,,,0.050116000000,   4.24000,
,,,0.050117000000,   4.32000,
,,,0.050118000000,   4.32000,
,,,0.050119000000,   4.32000,
,,,0.050120000000,   4.32000,
,,,0.050121000000,   4.40000,
,,,0.050122000000,   4.32000,
,,,0.050123000000,   4.40000,
,,,0.050124000000,   4.40000,
,,,0.050125000000,   4.40000,
,,,0.050126000000,   4.40000,
,,,0.050127000000,   4.48000,
,,,0.050128000000,   4.40000,
,,,0.050129000000,   4.48000,
,,,0.050130000000,   4.48000,
,,,0.050131000000,   4.40000,
,,,0.050132000000,   4.40000,
,,,0.050133000000,   4.40000,
,,,0.050134000000,   4.48000,
,,,0.050135000000,   4.48000,
,,,0.050136000000,   4.48000,
,,,0.050137000000,   4.48000,
,,,0.050138000000,   4.48000,
,,,0.050139000000,   4.48000,
,,,0.050140000000,   4.48000,
,,,0.050141000000,   4.48000,
,,,0.050142000000,   4.48000,
,,,0.050143000000,   4.48000,
,,,0.050144000000,   4.48000,
,,,0.050145000000,   4.48000,
,,,0.050146000000,   4.48000,
,,,0.050147000000,   4.48000,
,,,0.050148000000,   4.48000,
,,,0.050149000000,   4.48000,
,,,0.050150000000,   4.48000,
,,,0.050151000000,   4.48000,
,,,0.050152000000,   4.48000,
,,,0.050153000000,   4.40000,
,,,0.050154000000,   4.40000,
,,,0.050155000000,   4.40000,
,,,0.050156000000,   4.40000,
,,,0.050157000000,   4.48000,
,,,0.050158000000,   4.40000,
,,,0.050159000000,   4.40000,
,,,0.050160000000,   4.40000,
,,,0.050161000000,   4.40000,
,,,0.050162000000,   4.40000,
,,,0.050163000000,   4.40000,
,,,0.050164000000,   4.32000,
,,,0.050165000000,   4.32000,
,,,0.050166000000,   4.24000,
,,,0.050167000000,   4.32000,
,,,0.050168000000,   4.24000,
,,,0.050169000000,   4.24000,
,,,0.050170000000,   4.24000,
,,,0.050171000000,   4.24000,
,,,0.050172000000,   4.16000,
,,,0.050173000000,   4.16000,
,,,0.050174000000,   4.16000,
,,,0.050175000000,   4.16000,
,,,0.050176000000,   4.16000,
,,,0.050177000000,   4.16000,
,,,0.050178000000,   4.08000,
,,,0.050179000000,   4.08000,
,,,0.050180000000,   4.08000,
,,,0.050181000000,   4.08000,
,,,0.050182000000,   4.08000,
,,,0.050183000000,   4.00000,
,,,0.050184000000,   4.00000,
,,,0.050185000000,   4.00000,
,,,0.050186000000,   3.92000,
,,,0.050187000000,   4.00000,
,,,0.050188000000,   3.92000,
,,,0.050189000000,   3.84000,
,,,0.050190000000,   3.92000,
,,,0.050191000000,   3.76000,
,,,0.050192000000,   3.76000,
,,,0.050193000000,   3.76000,
,,,0.050194000000,   3.76000,
,,,0.050195000000,   3.76000,
,,,0.050196000000,   3.68000,
,,,0.050197000000,   3.68000,
,,,0.050198000000,   3.68000,
,,,0.050199000000,   3.60000,
,,,0.050200000000,   3.60000,
,,,0.050201000000,   3.60000,
,,,0.050202000000,   3.60000,
,,,0.050203000000,   3.52000,
,,,0.050204000000,   3.52000,
,,,0.050205000000,   3.44000,
,,,0.050206000000,   3.44000,
,,,0.050207000000,   3.44000,
,,,0.050208000000,   3.44000,
,,,0.050209000000,   3.36000,
,,,0.050210000000,   3.36000,
,,,0.050211000000,   3.28000,
,,,0.050212000000,   3.28000,
,,,0.050213000000,   3.28000,
,,,0.050214000000,   3.28000,
,,,0.050215000000,   3.20000,
,,,0.050216000000,   3.20000,
,,,0.050217000000,   3.20000,
,,,0.050218000000,   3.20000,
,,,0.050219000000,   3.12000,
,,,0.050220000000,   3.12000,
,,,0.050221000000,   3.12000,
,,,0.050222000000,   3.04000,
,,,0.050223000000,   2.96000,
,,,0.050224000000,   3.04000,
,,,0.050225000000,   2.96000,
,,,0.050226000000,   2.96000,
,,,0.050227000000,   2.96000,
,,,0.050228000000,   2.88000,
,,,0.050229000000,   2.88000,
,,,0.050230000000,   2.80000,
,,,0.050231000000,   2.80000,
,,,0.050232000000,   2.80000,
,,,0.050233000000,   2.80000,
,,,0.050234000000,   2.72000,
,,,0.050235000000,   2.72000,
,,,0.050236000000,   2.72000,
,,,0.050237000000,   2.72000,
,,,0.050238000000,   2.72000,
,,,0.050239000000,   2.72000,
,,,0.050240000000,   2.72000,
,,,0.050241000000,   2.56000,
,,,0.050242000000,   2.56000,
,,,0.050243000000,   2.56000,
,,,0.050244000000,   2.64000,
,,,0.050245000000,   2.48000,
,,,0.050246000000,   2.48000,
,,,0.050247000000,   2.48000,
,,,0.050248000000,   2.48000,
,,,0.050249000000,   2.48000,
,,,0.050250000000,   2.40000,
,,,0.050251000000,   2.40000,
,,,0.050252000000,   2.48000,
,,,0.050253000000,   2.48000,
,,,0.050254000000,   2.40000,
,,,0.050255000000,   2.40000,
,,,0.050256000000,   2.40000,
,,,0.050257000000,   2.40000,
,,,0.050258000000,   2.40000,
,,,0.050259000000,   2.40000,
,,,0.050260000000,   2.40000,
,,,0.050261000000,   2.32000,
,,,0.050262000000,   2.32000,
,,,0.050263000000,   2.32000,
,,,0.050264000000,   2.24000,
,,,0.050265000000,   2.24000,
,,,0.050266000000,   2.24000,
,,,0.050267000000,   2.24000,
,,,0.050268000000,   2.24000,
,,,0.050269000000,   2.24000,
,,,0.050270000000,   2.16000,
,,,0.050271000000,   2.16000,
,,,0.050272000000,   2.16000,
,,,0.050273000000,   2.08000,
,,,0.050274000000,   2.08000,
,,,0.050275000000,   2.08000,
,,,0.050276000000,   2.08000,
,,,0.050277000000,   2.00000,
,,,0.050278000000,   2.00000,
,,,0.050279000000,   2.08000,
,,,0.050280000000,   2.00000,
,,,0.050281000000,   2.00000,
,,,0.050282000000,   2.00000,
,,,0.050283000000,   2.00000,
,,,0.050284000000,   1.92000,
,,,0.050285000000,   1.92000,
,,,0.050286000000,   1.92000,
,,,0.050287000000,   1.92000,
,,,0.050288000000,   1.92000,
,,,0.050289000000,   1.92000,
,,,0.050290000000,   1.84000,
,,,0.050291000000,   1.84000,
,,,0.050292000000,   1.84000,
,,,0.050293000000,   1.84000,
,,,0.050294000000,   1.84000,
,,,0.050295000000,   1.76000,
,,,0.050296000000,   1.76000,
,,,0.050297000000,   1.76000,
,,,0.050298000000,   1.84000,
,,,0.050299000000,   1.68000,
,,,0.050300000000,   1.76000,
,,,0.050301000000,   1.68000,
,,,0.050302000000,   1.68000,
,,,0.050303000000,   1.76000,
,,,0.050304000000,   1.76000,
,,,0.050305000000,   1.76000,
,,,0.050306000000,   1.68000,
,,,0.050307000000,   1.68000,
,,,0.050308000000,   1.68000,
,,,0.050309000000,   1.68000,
,,,0.050310000000,   1.68000,
,,,0.050311000000,   1.68000,
,,,0.050312000000,   1.68000,
,,,0.050313000000,   1.68000,
,,,0.050314000000,   1.68000,
,,,0.050315000000,   1.68000,
,,,0.050316000000,   1.68000,
,,,0.050317000000,   1.68000,
,,,0.050318000000,   1.60000,
,,,0.050319000000,   1.60000,
,,,0.050320000000,   1.68000,
,,,0.050321000000,   1.60000,
,,,0.050322000000,   1.68000,
,,,0.050323000000,   1.60000,
,,,0.050324000000,   1.68000,
,,,0.050325000000,   1.68000,
,,,0.050326000000,   1.68000,
,,,0.050327000000,   1.68000,
,,,0.050328000000,   1.68000,
,,,0.050329000000,   1.68000,
,,,0.050330000000,   1.68000,
,,,0.050331000000,   1.76000,
,,,0.050332000000,   1.68000,
,,,0.050333000000,   1.68000,
,,,0.050334000000,   1.76000,
,,,0.050335000000,   1.84000,
,,,0.050336000000,   1.76000,
,,,0.050337000000,   1.76000,
,,,0.050338000000,   1.84000,
,,,0.050339000000,   1.76000,
,,,0.050340000000,   1.84000,
,,,0.050341000000,   1.84000,
,,,0.050342000000,   1.84000,
,,,0.050343000000,   1.92000,
,,,0.050344000000,   1.92000,
,,,0.050345000000,   1.92000,
,,,0.050346000000,   1.92000,
,,,0.050347000000,   1.92000,
,,,0.050348000000,   1.92000,
,,,0.050349000000,   2.00000,
,,,0.050350000000,   2.00000,
,,,0.050351000000,   2.00000,
,,,0.050352000000,   2.08000,
,,,0.050353000000,   2.00000,
,,,0.050354000000,   2.08000,
,,,0.050355000000,   2.08000,
,,,0.050356000000,   2.08000,
,,,0.050357000000,   2.16000,
,,,0.050358000000,   2.16000,
,,,0.050359000000,   2.24000,
,,,0.050360000000,   2.24000,
,,,0.050361000000,   2.24000,
,,,0.050362000000,   2.24000,
,,,0.050363000000,   2.32000,
,,,0.050364000000,   2.40000,
,,,0.050365000000,   2.32000,
,,,0.050366000000,   2.40000,
,,,0.050367000000,   2.40000,
,,,0.050368000000,   2.40000,
,,,0.050369000000,   2.48000,
,,,0.050370000000,   2.48000,
,,,0.050371000000,   2.48000,
,,,0.050372000000,   2.56000,
,,,0.050373000000,   2.56000,
,,,0.050374000000,   2.56000,
,,,0.050375000000,   2.56000,
,,,0.050376000000,   2.64000,
,,,0.050377000000,   2.72000,
,,,0.050378000000,   2.72000,
,,,0.050379000000,   2.72000,
,,,0.050380000000,   2.80000,
,,,0.050381000000,   2.80000,
,,,0.050382000000,   2.80000,
,,,0.050383000000,   2.88000,
,,,0.050384000000,   2.88000,
,,,0.050385000000,   2.88000,
,,,0.050386000000,   2.96000,
,,,0.050387000000,   2.96000,
,,,0.050388000000,   2.96000,
,,,0.050389000000,   3.04000,
,,,0.050390000000,   3.12000,
,,,0.050391000000,   3.12000,
,,,0.050392000000,   3.12000,
,,,0.050393000000,   3.12000,
,,,0.050394000000,   3.20000,
,,,0.050395000000,   3.20000,
,,,0.050396000000,   3.20000,
,,,0.050397000000,   3.28000,
,,,0.050398000000,   3.28000,
,,,0.050399000000,   3.36000,
,,,0.050400000000,   3.36000,
,,,0.050401000000,   3.36000,
,,,0.050402000000,   3.44000,
,,,0.050403000000,   3.36000,
,,,0.050404000000,   3.44000,
,,,0.050405000000,   3.52000,
,,,0.050406000000,   3.52000,
,,,0.050407000000,   3.52000,
,,,0.050408000000,   3.52000,
,,,0.050409000000,   3.60000,
,,,0.050410000000,   3.60000,
,,,0.050411000000,   3.60000,
,,,0.050412000000,   3.68000,
,,,0.050413000000,   3.76000,
,,,0.050414000000,   3.76000,
,,,0.050415000000,   3.76000,
,,,0.050416000000,   3.76000,
,,,0.050417000000,   3.76000,
,,,0.050418000000,   3.76000,
,,,0.050419000000,   3.84000,
,,,0.050420000000,   3.84000,
,,,0.050421000000,   3.92000,
,,,0.050422000000,   3.92000,
,,,0.050423000000,   3.92000,
,,,0.050424000000,   4.00000,
,,,0.050425000000,   4.00000,
,,,0.050426000000,   4.00000,
,,,0.050427000000,   4.00000,
,,,0.050428000000,   4.00000,
,,,0.050429000000,   4.00000,
,,,0.050430000000,   4.08000,
,,,0.050431000000,   4.08000,
,,,0.050432000000,   4.08000,
,,,0.050433000000,   4.08000,
,,,0.050434000000,   4.08000,
,,,0.050435000000,   4.08000,
,,,0.050436000000,   4.16000,
,,,0.050437000000,   4.16000,
,,,0.050438000000,   4.16000,
,,,0.050439000000,   4.08000,
,,,0.050440000000,   4.16000,
,,,0.050441000000,   4.16000,
,,,0.050442000000,   4.16000,
,,,0.050443000000,   4.16000,
,,,0.050444000000,   4.16000,
,,,0.050445000000,   4.16000,
,,,0.050446000000,   4.16000,
,,,0.050447000000,   4.16000,
,,,0.050448000000,   4.16000,
,,,0.050449000000,   4.24000,
,,,0.050450000000,   4.16000,
,,,0.050451000000,   4.24000,
,,,0.050452000000,   4.16000,
,,,0.050453000000,   4.24000,
,,,0.050454000000,   4.24000,
,,,0.050455000000,   4.16000,
,,,0.050456000000,   4.24000,
,,,0.050457000000,   4.24000,
,,,0.050458000000,   4.24000,
,,,0.050459000000,   4.24000,
,,,0.050460000000,   4.16000,
,,,0.050461000000,   4.16000,
,,,0.050462000000,   4.16000,
,,,0.050463000000,   4.16000,
,,,0.050464000000,   4.16000,
,,,0.050465000000,   4.16000,
,,,0.050466000000,   4.16000,
,,,0.050467000000,   4.16000,
,,,0.050468000000,   4.08000,
,,,0.050469000000,   4.16000,
,,,0.050470000000,   4.08000,
,,,0.050471000000,   4.08000,
,,,0.050472000000,   4.08000,
,,,0.050473000000,   4.08000,
,,,0.050474000000,   4.08000,
,,,0.050475000000,   4.08000,
,,,0.050476000000,   4.00000,
,,,0.050477000000,   4.00000,
,,,0.050478000000,   4.00000,
,,,0.050479000000,   4.00000,
,,,0.050480000000,   4.00000,
,,,0.050481000000,   4.00000,
,,,0.050482000000,   3.92000,
,,,0.050483000000,   3.92000,
,,,0.050484000000,   3.92000,
,,,0.050485000000,   3.92000,
,,,0.050486000000,   3.92000,
,,,0.050487000000,   3.92000,
,,,0.050488000000,   3.84000,
,,,0.050489000000,   3.84000,
,,,0.050490000000,   3.76000,
,,,0.050491000000,   3.76000,
,,,0.050492000000,   3.76000,
,,,0.050493000000,   3.76000,
,,,0.050494000000,   3.68000,
,,,0.050495000000,   3.68000,
,,,0.050496000000,   3.68000,
,,,0.050497000000,   3.60000,
,,,0.050498000000,   3.60000,
,,,0.050499000000,   3.60000,
,,,0.050500000000,   3.52000,
,,,0.050501000000,   3.52000,
,,,0.050502000000,   3.52000,
,,,0.050503000000,   3.52000,
,,,0.050504000000,   3.44000,
,,,0.050505000000,   3.36000,
,,,0.050506000000,   3.36000,
,,,0.050507000000,   3.36000,
,,,0.050508000000,   3.36000,
,,,0.050509000000,   3.36000,
,,,0.050510000000,   3.28000,
,,,0.050511000000,   3.28000,
,,,0.050512000000,   3.28000,
,,,0.050513000000,   3.20000,
,,,0.050514000000,   3.20000,
,,,0.050515000000,   3.20000,
,,,0.050516000000,   3.20000,
,,,0.050517000000,   3.12000,
,,,0.050518000000,   3.12000,
,,,0.050519000000,   3.04000,
,,,0.050520000000,   3.04000,
,,,0.050521000000,   3.04000,
,,,0.050522000000,   2.96000,
,,,0.050523000000,   2.96000,
,,,0.050524000000,   2.96000,
,,,0.050525000000,   2.96000,
,,,0.050526000000,   2.88000,
,,,0.050527000000,   2.88000,
,,,0.050528000000,   2.88000,
,,,0.050529000000,   2.88000,
,,,0.050530000000,   2.80000,
,,,0.050531000000,   2.80000,
,,,0.050532000000,   2.80000,
,,,0.050533000000,   2.72000,
,,,0.050534000000,   2.80000,
,,,0.050535000000,   2.72000,
,,,0.050536000000,   2.72000,
,,,0.050537000000,   2.72000,
,,,0.050538000000,   2.72000,
,,,0.050539000000,   2.64000,
,,,0.050540000000,   2.64000,
,,,0.050541000000,   2.56000,
,,,0.050542000000,   2.56000,
,,,0.050543000000,   2.48000,
,,,0.050544000000,   2.56000,
,,,0.050545000000,   2.56000,
,,,0.050546000000,   2.56000,
,,,0.050547000000,   2.48000,
,,,0.050548000000,   2.48000,
,,,0.050549000000,   2.48000,
,,,0.050550000000,   2.48000,
,,,0.050551000000,   2.48000,
,,,0.050552000000,   2.48000,
,,,0.050553000000,   2.48000,
,,,0.050554000000,   2.40000,
,,,0.050555000000,   2.40000,
,,,0.050556000000,   2.40000,
,,,0.050557000000,   2.40000,
,,,0.050558000000,   2.40000,
,,,0.050559000000,   2.40000,
,,,0.050560000000,   2.40000,
,,,0.050561000000,   2.40000,
,,,0.050562000000,   2.40000,
,,,0.050563000000,   2.40000,
,,,0.050564000000,   2.40000,
,,,0.050565000000,   2.40000,
,,,0.050566000000,   2.40000,
,,,0.050567000000,   2.40000,
,,,0.050568000000,   2.40000,
,,,0.050569000000,   2.40000,
,,,0.050570000000,   2.40000,
,,,0.050571000000,   2.40000,
,,,0.050572000000,   2.40000,
,,,0.050573000000,   2.40000,
,,,0.050574000000,   2.40000,
,,,0.050575000000,   2.40000,
,,,0.050576000000,   2.40000,
,,,0.050577000000,   2.40000,
,,,0.050578000000,   2.40000,
,,,0.050579000000,   2.40000,
,,,0.050580000000,   2.40000,
,,,0.050581000000,   2.48000,
,,,0.050582000000,   2.40000,
,,,0.050583000000,   2.48000,
,,,0.050584000000,   2.48000,
,,,0.050585000000,   2.48000,
,,,0.050586000000,   2.48000,
,,,0.050587000000,   2.48000,
,,,0.050588000000,   2.56000,
,,,0.050589000000,   2.48000,
,,,0.050590000000,   2.56000,
,,,0.050591000000,   2.56000,
,,,0.050592000000,   2.56000,
,,,0.050593000000,   2.64000,
,,,0.050594000000,   2.64000,
,,,0.050595000000,   2.64000,
,,,0.050596000000,   2.64000,
,,,0.050597000000,   2.72000,
,,,0.050598000000,   2.72000,
,,,0.050599000000,   2.72000,
,,,0.050600000000,   2.72000,
,,,0.050601000000,   2.72000,
,,,0.050602000000,   2.80000,
,,,0.050603000000,   2.80000,
,,,0.050604000000,   2.80000,
,,,0.050605000000,   2.80000,
,,,0.050606000000,   2.88000,
,,,0.050607000000,   2.88000,
,,,0.050608000000,   2.88000,
,,,0.050609000000,   2.88000,
,,,0.050610000000,   2.96000,
,,,0.050611000000,   2.96000,
,,,0.050612000000,   2.96000,
,,,0.050613000000,   3.04000,
,,,0.050614000000,   3.12000,
,,,0.050615000000,   3.04000,
,,,0.050616000000,   3.12000,
,,,0.050617000000,   3.12000,
,,,0.050618000000,   3.20000,
,,,0.050619000000,   3.20000,
,,,0.050620000000,   3.20000,
,,,0.050621000000,   3.20000,
,,,0.050622000000,   3.20000,
,,,0.050623000000,   3.20000,
,,,0.050624000000,   3.28000,
,,,0.050625000000,   3.28000,
,,,0.050626000000,   3.36000,
,,,0.050627000000,   3.36000,
,,,0.050628000000,   3.36000,
,,,0.050629000000,   3.44000,
,,,0.050630000000,   3.44000,
,,,0.050631000000,   3.52000,
,,,0.050632000000,   3.52000,
,,,0.050633000000,   3.52000,
,,,0.050634000000,   3.60000,
,,,0.050635000000,   3.60000,
,,,0.050636000000,   3.60000,
,,,0.050637000000,   3.60000,
,,,0.050638000000,   3.68000,
,,,0.050639000000,   3.68000,
,,,0.050640000000,   3.68000,
,,,0.050641000000,   3.76000,
,,,0.050642000000,   3.84000,
,,,0.050643000000,   3.84000,
,,,0.050644000000,   3.84000,
,,,0.050645000000,   3.92000,
,,,0.050646000000,   3.92000,
,,,0.050647000000,   3.92000,
,,,0.050648000000,   3.92000,
,,,0.050649000000,   3.92000,
,,,0.050650000000,   4.00000,
,,,0.050651000000,   4.00000,
,,,0.050652000000,   4.08000,
,,,0.050653000000,   4.08000,
,,,0.050654000000,   4.08000,
,,,0.050655000000,   4.08000,
,,,0.050656000000,   4.08000,
,,,0.050657000000,   4.08000,
,,,0.050658000000,   4.08000,
,,,0.050659000000,   4.08000,
,,,0.050660000000,   4.16000,
,,,0.050661000000,   4.16000,
,,,0.050662000000,   4.16000,
,,,0.050663000000,   4.16000,
,,,0.050664000000,   4.24000,
,,,0.050665000000,   4.24000,
,,,0.050666000000,   4.24000,
,,,0.050667000000,   4.24000,
,,,0.050668000000,   4.24000,
,,,0.050669000000,   4.24000,
,,,0.050670000000,   4.32000,
,,,0.050671000000,   4.32000,
,,,0.050672000000,   4.32000,
,,,0.050673000000,   4.40000,
,,,0.050674000000,   4.32000,
,,,0.050675000000,   4.40000,
,,,0.050676000000,   4.40000,
,,,0.050677000000,   4.40000,
,,,0.050678000000,   4.40000,
,,,0.050679000000,   4.40000,
,,,0.050680000000,   4.40000,
,,,0.050681000000,   4.40000,
,,,0.050682000000,   4.40000,
,,,0.050683000000,   4.48000,
,,,0.050684000000,   4.40000,
,,,0.050685000000,   4.48000,
,,,0.050686000000,   4.40000,
,,,0.050687000000,   4.40000,
,,,0.050688000000,   4.40000,
,,,0.050689000000,   4.48000,
,,,0.050690000000,   4.40000,
,,,0.050691000000,   4.40000,
,,,0.050692000000,   4.48000,
,,,0.050693000000,   4.40000,
,,,0.050694000000,   4.48000,
,,,0.050695000000,   4.40000,
,,,0.050696000000,   4.40000,
,,,0.050697000000,   4.40000,
,,,0.050698000000,   4.40000,
,,,0.050699000000,   4.40000,
,,,0.050700000000,   4.40000,
,,,0.050701000000,   4.40000,
,,,0.050702000000,   4.40000,
,,,0.050703000000,   4.40000,
,,,0.050704000000,   4.40000,
,,,0.050705000000,   4.40000,
,,,0.050706000000,   4.32000,
,,,0.050707000000,   4.32000,
,,,0.050708000000,   4.24000,
,,,0.050709000000,   4.32000,
,,,0.050710000000,   4.32000,
,,,0.050711000000,   4.24000,
,,,0.050712000000,   4.24000,
,,,0.050713000000,   4.24000,
,,,0.050714000000,   4.16000,
,,,0.050715000000,   4.16000,
,,,0.050716000000,   4.24000,
,,,0.050717000000,   4.16000,
,,,0.050718000000,   4.16000,
,,,0.050719000000,   4.16000,
,,,0.050720000000,   4.16000,
,,,0.050721000000,   4.08000,
,,,0.050722000000,   4.08000,
,,,0.050723000000,   4.08000,
,,,0.050724000000,   4.08000,
,,,0.050725000000,   4.08000,
,,,0.050726000000,   4.00000,
,,,0.050727000000,   4.08000,
,,,0.050728000000,   4.00000,
,,,0.050729000000,   4.00000,
,,,0.050730000000,   4.00000,
,,,0.050731000000,   3.92000,
,,,0.050732000000,   3.92000,
,,,0.050733000000,   3.92000,
,,,0.050734000000,   3.92000,
,,,0.050735000000,   3.84000,
,,,0.050736000000,   3.84000,
,,,0.050737000000,   3.76000,
,,,0.050738000000,   3.76000,
,,,0.050739000000,   3.76000,
,,,0.050740000000,   3.76000,
,,,0.050741000000,   3.68000,
,,,0.050742000000,   3.68000,
,,,0.050743000000,   3.60000,
,,,0.050744000000,   3.60000,
,,,0.050745000000,   3.60000,
,,,0.050746000000,   3.52000,
,,,0.050747000000,   3.52000,
,,,0.050748000000,   3.52000,
,,,0.050749000000,   3.52000,
,,,0.050750000000,   3.36000,
,,,0.050751000000,   3.44000,
,,,0.050752000000,   3.36000,
,,,0.050753000000,   3.36000,
,,,0.050754000000,   3.36000,
,,,0.050755000000,   3.28000,
,,,0.050756000000,   3.28000,
,,,0.050757000000,   3.28000,
,,,0.050758000000,   3.28000,
,,,0.050759000000,   3.20000,
,,,0.050760000000,   3.20000,
,,,0.050761000000,   3.20000,
,,,0.050762000000,   3.20000,
,,,0.050763000000,   3.20000,
,,,0.050764000000,   3.12000,
,,,0.050765000000,   3.12000,
,,,0.050766000000,   3.04000,
,,,0.050767000000,   3.04000,
,,,0.050768000000,   2.96000,
,,,0.050769000000,   2.96000,
,,,0.050770000000,   2.96000,
,,,0.050771000000,   2.96000,
,,,0.050772000000,   2.88000,
,,,0.050773000000,   2.88000,
,,,0.050774000000,   2.88000,
,,,0.050775000000,   2.88000,
,,,0.050776000000,   2.80000,
,,,0.050777000000,   2.80000,
,,,0.050778000000,   2.80000,
,,,0.050779000000,   2.80000,
,,,0.050780000000,   2.80000,
,,,0.050781000000,   2.72000,
,,,0.050782000000,   2.72000,
,,,0.050783000000,   2.72000,
,,,0.050784000000,   2.72000,
,,,0.050785000000,   2.64000,
,,,0.050786000000,   2.64000,
,,,0.050787000000,   2.56000,
,,,0.050788000000,   2.56000,
,,,0.050789000000,   2.56000,
,,,0.050790000000,   2.56000,
,,,0.050791000000,   2.56000,
,,,0.050792000000,   2.56000,
,,,0.050793000000,   2.56000,
,,,0.050794000000,   2.48000,
,,,0.050795000000,   2.48000,
,,,0.050796000000,   2.48000,
,,,0.050797000000,   2.48000,
,,,0.050798000000,   2.48000,
,,,0.050799000000,   2.48000,
,,,0.050800000000,   2.48000,
,,,0.050801000000,   2.48000,
,,,0.050802000000,   2.48000,
,,,0.050803000000,   2.40000,
,,,0.050804000000,   2.40000,
,,,0.050805000000,   2.40000,
,,,0.050806000000,   2.40000,
,,,0.050807000000,   2.40000,
,,,0.050808000000,   2.40000,
,,,0.050809000000,   2.40000,
,,,0.050810000000,   2.40000,
,,,0.050811000000,   2.40000,
,,,0.050812000000,   2.40000,
,,,0.050813000000,   2.40000,
,,,0.050814000000,   2.40000,
,,,0.050815000000,   2.40000,
,,,0.050816000000,   2.40000,
,,,0.050817000000,   2.40000,
,,,0.050818000000,   2.40000,
,,,0.050819000000,   2.40000,
,,,0.050820000000,   2.40000,
,,,0.050821000000,   2.40000,
,,,0.050822000000,   2.40000,
,,,0.050823000000,   2.40000,
,,,0.050824000000,   2.40000,
,,,0.050825000000,   2.48000,
,,,0.050826000000,   2.40000,
,,,0.050827000000,   2.48000,
,,,0.050828000000,   2.48000,
,,,0.050829000000,   2.48000,
,,,0.050830000000,   2.48000,
,,,0.050831000000,   2.48000,
,,,0.050832000000,   2.48000,
,,,0.050833000000,   2.48000,
,,,0.050834000000,   2.48000,
,,,0.050835000000,   2.56000,
,,,0.050836000000,   2.56000,
,,,0.050837000000,   2.56000,
,,,0.050838000000,   2.56000,
,,,0.050839000000,   2.56000,
,,,0.050840000000,   2.64000,
,,,0.050841000000,   2.64000,
,,,0.050842000000,   2.72000,
,,,0.050843000000,   2.72000,
,,,0.050844000000,   2.72000,
,,,0.050845000000,   2.72000,
,,,0.050846000000,   2.80000,
,,,0.050847000000,   2.72000,
,,,0.050848000000,   2.72000,
,,,0.050849000000,   2.80000,
,,,0.050850000000,   2.80000,
,,,0.050851000000,   2.88000,
,,,0.050852000000,   2.88000,
,,,0.050853000000,   2.88000,
,,,0.050854000000,   2.88000,
,,,0.050855000000,   2.88000,
,,,0.050856000000,   2.88000,
,,,0.050857000000,   2.88000,
,,,0.050858000000,   2.96000,
,,,0.050859000000,   2.96000,
,,,0.050860000000,   2.96000,
,,,0.050861000000,   2.96000,
,,,0.050862000000,   2.96000,
,,,0.050863000000,   3.04000,
,,,0.050864000000,   2.96000,
,,,0.050865000000,   2.96000,
,,,0.050866000000,   2.96000,
,,,0.050867000000,   3.04000,
,,,0.050868000000,   2.96000,
,,,0.050869000000,   3.04000,
,,,0.050870000000,   2.96000,
,,,0.050871000000,   3.04000,
,,,0.050872000000,   2.96000,
,,,0.050873000000,   2.96000,
,,,0.050874000000,   2.96000,
,,,0.050875000000,   2.96000,
,,,0.050876000000,   3.04000,
,,,0.050877000000,   2.96000,
,,,0.050878000000,   3.04000,
,,,0.050879000000,   2.96000,
,,,0.050880000000,   2.96000,
,,,0.050881000000,   2.96000,
,,,0.050882000000,   3.04000,
,,,0.050883000000,   2.96000,
,,,0.050884000000,   2.96000,
,,,0.050885000000,   2.96000,
,,,0.050886000000,   2.88000,
,,,0.050887000000,   2.96000,
,,,0.050888000000,   2.96000,
,,,0.050889000000,   2.88000,
,,,0.050890000000,   2.88000,
,,,0.050891000000,   2.88000,
,,,0.050892000000,   2.88000,
,,,0.050893000000,   2.88000,
,,,0.050894000000,   2.88000,
,,,0.050895000000,   2.88000,
,,,0.050896000000,   2.80000,
,,,0.050897000000,   2.88000,
,,,0.050898000000,   2.80000,
,,,0.050899000000,   2.88000,
,,,0.050900000000,   2.80000,
,,,0.050901000000,   2.80000,
,,,0.050902000000,   2.72000,
,,,0.050903000000,   2.72000,
,,,0.050904000000,   2.80000,
,,,0.050905000000,   2.72000,
,,,0.050906000000,   2.72000,
,,,0.050907000000,   2.72000,
,,,0.050908000000,   2.72000,
,,,0.050909000000,   2.64000,
,,,0.050910000000,   2.72000,
,,,0.050911000000,   2.64000,
,,,0.050912000000,   2.56000,
,,,0.050913000000,   2.56000,
,,,0.050914000000,   2.56000,
,,,0.050915000000,   2.56000,
,,,0.050916000000,   2.48000,
,,,0.050917000000,   2.48000,
,,,0.050918000000,   2.48000,
,,,0.050919000000,   2.48000,
,,,0.050920000000,   2.48000,
,,,0.050921000000,   2.48000,
,,,0.050922000000,   2.40000,
,,,0.050923000000,   2.40000,
,,,0.050924000000,   2.40000,
,,,0.050925000000,   2.32000,
,,,0.050926000000,   2.40000,
,,,0.050927000000,   2.32000,
,,,0.050928000000,   2.32000,
,,,0.050929000000,   2.32000,
,,,0.050930000000,   2.32000,
,,,0.050931000000,   2.32000,
,,,0.050932000000,   2.24000,
,,,0.050933000000,   2.24000,
,,,0.050934000000,   2.24000,
,,,0.050935000000,   2.24000,
,,,0.050936000000,   2.24000,
,,,0.050937000000,   2.16000,
,,,0.050938000000,   2.16000,
,,,0.050939000000,   2.16000,
,,,0.050940000000,   2.16000,
,,,0.050941000000,   2.08000,
,,,0.050942000000,   2.08000,
,,,0.050943000000,   2.08000,
,,,0.050944000000,   2.08000,
,,,0.050945000000,   2.00000,
,,,0.050946000000,   2.00000,
,,,0.050947000000,   2.08000,
,,,0.050948000000,   2.00000,
,,,0.050949000000,   2.00000,
,,,0.050950000000,   2.00000,
,,,0.050951000000,   1.92000,
,,,0.050952000000,   2.00000,
,,,0.050953000000,   1.92000,
,,,0.050954000000,   1.92000,
,,,0.050955000000,   1.92000,
,,,0.050956000000,   1.92000,
,,,0.050957000000,   1.92000,
,,,0.050958000000,   1.92000,
,,,0.050959000000,   1.92000,
,,,0.050960000000,   1.92000,
,,,0.050961000000,   1.92000,
,,,0.050962000000,   1.84000,
,,,0.050963000000,   1.84000,
,,,0.050964000000,   1.84000,
,,,0.050965000000,   1.84000,
,,,0.050966000000,   1.84000,
,,,0.050967000000,   1.84000,
,,,0.050968000000,   1.84000,
,,,0.050969000000,   1.84000,
,,,0.050970000000,   1.84000,
,,,0.050971000000,   1.84000,
,,,0.050972000000,   1.84000,
,,,0.050973000000,   1.84000,
,,,0.050974000000,   1.84000,
,,,0.050975000000,   1.84000,
,,,0.050976000000,   1.84000,
,,,0.050977000000,   1.84000,
,,,0.050978000000,   1.84000,
,,,0.050979000000,   1.84000,
,,,0.050980000000,   1.84000,
,,,0.050981000000,   1.84000,
,,,0.050982000000,   1.84000,
,,,0.050983000000,   1.84000,
,,,0.050984000000,   1.84000,
,,,0.050985000000,   1.84000,
,,,0.050986000000,   1.92000,
,,,0.050987000000,   1.84000,
,,,0.050988000000,   1.92000,
,,,0.050989000000,   1.92000,
,,,0.050990000000,   1.92000,
,,,0.050991000000,   1.92000,
,,,0.050992000000,   1.92000,
,,,0.050993000000,   1.92000,
,,,0.050994000000,   1.92000,
,,,0.050995000000,   1.92000,
,,,0.050996000000,   2.00000,
,,,0.050997000000,   2.00000,
,,,0.050998000000,   2.00000,
,,,0.050999000000,   2.00000,
,,,0.051000000000,   2.08000,
,,,0.051001000000,   2.00000,
,,,0.051002000000,   2.08000,
,,,0.051003000000,   2.08000,
,,,0.051004000000,   2.08000,
,,,0.051005000000,   2.16000,
,,,0.051006000000,   2.08000,
,,,0.051007000000,   2.16000,
,,,0.051008000000,   2.16000,
,,,0.051009000000,   2.24000,
,,,0.051010000000,   2.24000,
,,,0.051011000000,   2.24000,
,,,0.051012000000,   2.32000,
,,,0.051013000000,   2.32000,
,,,0.051014000000,   2.32000,
,,,0.051015000000,   2.32000,
,,,0.051016000000,   2.40000,
,,,0.051017000000,   2.40000,
,,,0.051018000000,   2.40000,
,,,0.051019000000,   2.40000,
,,,0.051020000000,   2.48000,
,,,0.051021000000,   2.48000,
,,,0.051022000000,   2.48000,
,,,0.051023000000,   2.48000,
,,,0.051024000000,   2.56000,
,,,0.051025000000,   2.56000,
,,,0.051026000000,   2.64000,
,,,0.051027000000,   2.64000,
,,,0.051028000000,   2.64000,
,,,0.051029000000,   2.72000,
,,,0.051030000000,   2.72000,
,,,0.051031000000,   2.80000,
,,,0.051032000000,   2.80000,
,,,0.051033000000,   2.80000,
,,,0.051034000000,   2.80000,
,,,0.051035000000,   2.88000,
,,,0.051036000000,   2.88000,
,,,0.051037000000,   2.88000,
,,,0.051038000000,   2.96000,
,,,0.051039000000,   2.96000,
,,,0.051040000000,   3.04000,
,,,0.051041000000,   3.04000,
,,,0.051042000000,   3.12000,
,,,0.051043000000,   3.12000,
,,,0.051044000000,   3.12000,
,,,0.051045000000,   3.12000,
,,,0.051046000000,   3.20000,
,,,0.051047000000,   3.20000,
,,,0.051048000000,   3.20000,
,,,0.051049000000,   3.20000,
,,,0.051050000000,   3.28000,
,,,0.051051000000,   3.28000,
,,,0.051052000000,   3.36000,
,,,0.051053000000,   3.36000,
,,,0.051054000000,   3.36000,
,,,0.051055000000,   3.44000,
,,,0.051056000000,   3.36000,
,,,0.051057000000,   3.52000,
,,,0.051058000000,   3.52000,
,,,0.051059000000,   3.52000,
,,,0.051060000000,   3.60000,
,,,0.051061000000,   3.60000,
,,,0.051062000000,   3.60000,
,,,0.051063000000,   3.68000,
,,,0.051064000000,   3.68000,
,,,0.051065000000,   3.68000,
,,,0.051066000000,   3.68000,
,,,0.051067000000,   3.76000,
,,,0.051068000000,   3.76000,
,,,0.051069000000,   3.76000,
,,,0.051070000000,   3.76000,
,,,0.051071000000,   3.84000,
,,,0.051072000000,   3.84000,
,,,0.051073000000,   3.92000,
,,,0.051074000000,   3.92000,
,,,0.051075000000,   3.92000,
,,,0.051076000000,   4.00000,
,,,0.051077000000,   4.00000,
,,,0.051078000000,   4.00000,
,,,0.051079000000,   4.00000,
,,,0.051080000000,   4.00000,
,,,0.051081000000,   4.08000,
,,,0.051082000000,   4.08000,
,,,0.051083000000,   4.08000,
,,,0.051084000000,   4.08000,
,,,0.051085000000,   4.08000,
,,,0.051086000000,   4.08000,
,,,0.051087000000,   4.08000,
,,,0.051088000000,   4.16000,
,,,0.051089000000,   4.16000,
,,,0.051090000000,   4.16000,
,,,0.051091000000,   4.16000,
,,,0.051092000000,   4.24000,
,,,0.051093000000,   4.16000,
,,,0.051094000000,   4.16000,
,,,0.051095000000,   4.24000,
,,,0.051096000000,   4.32000,
,,,0.051097000000,   4.24000,
,,,0.051098000000,   4.24000,
,,,0.051099000000,   4.24000,
,,,0.051100000000,   4.24000,
,,,0.051101000000,   4.24000,
,,,0.051102000000,   4.24000,
,,,0.051103000000,   4.32000,
,,,0.051104000000,   4.24000,
,,,0.051105000000,   4.32000,
,,,0.051106000000,   4.24000,
,,,0.051107000000,   4.32000,
,,,0.051108000000,   4.32000,
,,,0.051109000000,   4.24000,
,,,0.051110000000,   4.24000,
,,,0.051111000000,   4.32000,
,,,0.051112000000,   4.24000,
,,,0.051113000000,   4.24000,
,,,0.051114000000,   4.24000,
,,,0.051115000000,   4.32000,
,,,0.051116000000,   4.32000,
,,,0.051117000000,   4.24000,
,,,0.051118000000,   4.24000,
,,,0.051119000000,   4.24000,
,,,0.051120000000,   4.24000,
,,,0.051121000000,   4.24000,
,,,0.051122000000,   4.24000,
,,,0.051123000000,   4.24000,
,,,0.051124000000,   4.24000,
,,,0.051125000000,   4.16000,
,,,0.051126000000,   4.16000,
,,,0.051127000000,   4.16000,
,,,0.051128000000,   4.16000,
,,,0.051129000000,   4.16000,
,,,0.051130000000,   4.08000,
,,,0.051131000000,   4.08000,
,,,0.051132000000,   4.16000,
,,,0.051133000000,   4.08000,
,,,0.051134000000,   4.08000,
,,,0.051135000000,   4.08000,
,,,0.051136000000,   4.08000,
,,,0.051137000000,   4.08000,
,,,0.051138000000,   4.08000,
,,,0.051139000000,   4.08000,
,,,0.051140000000,   4.00000,
,,,0.051141000000,   4.00000,
,,,0.051142000000,   4.00000,
,,,0.051143000000,   4.00000,
,,,0.051144000000,   4.00000,
,,,0.051145000000,   3.92000,
,,,0.051146000000,   3.92000,
,,,0.051147000000,   3.92000,
,,,0.051148000000,   3.84000,
,,,0.051149000000,   3.84000,
,,,0.051150000000,   3.84000,
,,,0.051151000000,   3.76000,
,,,0.051152000000,   3.76000,
,,,0.051153000000,   3.76000,
,,,0.051154000000,   3.68000,
,,,0.051155000000,   3.68000,
,,,0.051156000000,   3.68000,
,,,0.051157000000,   3.68000,
,,,0.051158000000,   3.68000,
,,,0.051159000000,   3.60000,
,,,0.051160000000,   3.52000,
,,,0.051161000000,   3.60000,
,,,0.051162000000,   3.52000,
,,,0.051163000000,   3.52000,
,,,0.051164000000,   3.52000,
,,,0.051165000000,   3.44000,
,,,0.051166000000,   3.44000,
,,,0.051167000000,   3.36000,
,,,0.051168000000,   3.36000,
,,,0.051169000000,   3.36000,
,,,0.051170000000,   3.28000,
,,,0.051171000000,   3.28000,
,,,0.051172000000,   3.28000,
,,,0.051173000000,   3.20000,
,,,0.051174000000,   3.20000,
,,,0.051175000000,   3.20000,
,,,0.051176000000,   3.20000,
,,,0.051177000000,   3.12000,
,,,0.051178000000,   3.12000,
,,,0.051179000000,   3.12000,
,,,0.051180000000,   3.12000,
,,,0.051181000000,   3.04000,
,,,0.051182000000,   3.04000,
,,,0.051183000000,   3.04000,
,,,0.051184000000,   2.88000,
,,,0.051185000000,   2.96000,
,,,0.051186000000,   2.96000,
,,,0.051187000000,   2.96000,
,,,0.051188000000,   2.88000,
,,,0.051189000000,   2.88000,
,,,0.051190000000,   2.88000,
,,,0.051191000000,   2.88000,
,,,0.051192000000,   2.80000,
,,,0.051193000000,   2.80000,
,,,0.051194000000,   2.80000,
,,,0.051195000000,   2.72000,
,,,0.051196000000,   2.72000,
,,,0.051197000000,   2.72000,
,,,0.051198000000,   2.72000,
,,,0.051199000000,   2.72000,
,,,0.051200000000,   2.56000,
,,,0.051201000000,   2.56000,
,,,0.051202000000,   2.56000,
,,,0.051203000000,   2.56000,
,,,0.051204000000,   2.56000,
,,,0.051205000000,   2.56000,
,,,0.051206000000,   2.56000,
,,,0.051207000000,   2.56000,
,,,0.051208000000,   2.48000,
,,,0.051209000000,   2.48000,
,,,0.051210000000,   2.48000,
,,,0.051211000000,   2.48000,
,,,0.051212000000,   2.48000,
,,,0.051213000000,   2.48000,
,,,0.051214000000,   2.40000,
,,,0.051215000000,   2.40000,
,,,0.051216000000,   2.40000,
,,,0.051217000000,   2.48000,
,,,0.051218000000,   2.40000,
,,,0.051219000000,   2.48000,
,,,0.051220000000,   2.40000,
,,,0.051221000000,   2.40000,
,,,0.051222000000,   2.40000,
,,,0.051223000000,   2.40000,
,,,0.051224000000,   2.40000,
,,,0.051225000000,   2.40000,
,,,0.051226000000,   2.40000,
,,,0.051227000000,   2.40000,
,,,0.051228000000,   2.40000,
,,,0.051229000000,   2.40000,
,,,0.051230000000,   2.40000,
,,,0.051231000000,   2.40000,
,,,0.051232000000,   2.40000,
,,,0.051233000000,   2.40000,
,,,0.051234000000,   2.40000,
,,,0.051235000000,   2.40000,
,,,0.051236000000,   2.40000,
,,,0.051237000000,   2.40000,
,,,0.051238000000,   2.40000,
,,,0.051239000000,   2.40000,
,,,0.051240000000,   2.40000,
,,,0.051241000000,   2.48000,
,,,0.051242000000,   2.40000,
,,,0.051243000000,   2.40000,
,,,0.051244000000,   2.48000,
,,,0.051245000000,   2.40000,
,,,0.051246000000,   2.48000,
,,,0.051247000000,   2.48000,
,,,0.051248000000,   2.48000,
,,,0.051249000000,   2.48000,
